#          T [K]     rho [kg/m^3]       cp [J/kgK]        Psat [Pa]        Lv [J/kg]             Xsat       Ysat \w N2
 0.25000000E+003  0.10068789E+004  0.43129033E+004  0.94579159E+002  0.25245140E+007  0.43108810E-005  0.27735943E-005
 0.25100000E+003  0.10066445E+004  0.43080367E+004  0.10334118E+003  0.25227782E+007  0.47102506E-005  0.30305467E-005
 0.25200000E+003  0.10064096E+004  0.43032853E+004  0.11282535E+003  0.25210380E+007  0.51425352E-005  0.33086765E-005
 0.25300000E+003  0.10061743E+004  0.42986475E+004  0.12308342E+003  0.25192931E+007  0.56100940E-005  0.36095017E-005
 0.25400000E+003  0.10059384E+004  0.42941219E+004  0.13417027E+003  0.25175436E+007  0.61154283E-005  0.39346315E-005
 0.25500000E+003  0.10057021E+004  0.42897067E+004  0.14614403E+003  0.25157895E+007  0.66611878E-005  0.42857708E-005
 0.25600000E+003  0.10054652E+004  0.42854006E+004  0.15906626E+003  0.25140308E+007  0.72501779E-005  0.46647247E-005
 0.25700000E+003  0.10052279E+004  0.42812020E+004  0.17300207E+003  0.25122673E+007  0.78853665E-005  0.50734028E-005
 0.25800000E+003  0.10049900E+004  0.42771094E+004  0.18802031E+003  0.25104991E+007  0.85698919E-005  0.55138241E-005
 0.25900000E+003  0.10047517E+004  0.42731213E+004  0.20419372E+003  0.25087260E+007  0.93070698E-005  0.59881221E-005
 0.26000000E+003  0.10045128E+004  0.42692363E+004  0.22159912E+003  0.25069482E+007  0.10100401E-004  0.64985495E-005
 0.26100000E+003  0.10042734E+004  0.42654529E+004  0.24031758E+003  0.25051655E+007  0.10953581E-004  0.70474834E-005
 0.26200000E+003  0.10040335E+004  0.42617696E+004  0.26043457E+003  0.25033780E+007  0.11870506E-004  0.76374310E-005
 0.26300000E+003  0.10037931E+004  0.42581850E+004  0.28204020E+003  0.25015855E+007  0.12855282E-004  0.82710343E-005
 0.26400000E+003  0.10035522E+004  0.42546977E+004  0.30522935E+003  0.24997881E+007  0.13912234E-004  0.89510766E-005
 0.26500000E+003  0.10033108E+004  0.42513062E+004  0.33010193E+003  0.24979856E+007  0.15045917E-004  0.96804874E-005
 0.26600000E+003  0.10030688E+004  0.42480092E+004  0.35676304E+003  0.24961782E+007  0.16261120E-004  0.10462349E-004
 0.26700000E+003  0.10028263E+004  0.42448053E+004  0.38532317E+003  0.24943656E+007  0.17562879E-004  0.11299902E-004
 0.26800000E+003  0.10025833E+004  0.42416931E+004  0.41589843E+003  0.24925480E+007  0.18956488E-004  0.12196551E-004
 0.26900000E+003  0.10023397E+004  0.42386712E+004  0.44861077E+003  0.24907252E+007  0.20447503E-004  0.13155874E-004
 0.27000000E+003  0.10020956E+004  0.42357383E+004  0.48358818E+003  0.24888973E+007  0.22041760E-004  0.14181622E-004
 0.27100000E+003  0.10018510E+004  0.42328930E+004  0.52096493E+003  0.24870641E+007  0.23745378E-004  0.15277736E-004
 0.27200000E+003  0.10016059E+004  0.42301341E+004  0.56088180E+003  0.24852257E+007  0.25564773E-004  0.16448342E-004
 0.27300000E+003  0.10013602E+004  0.42274602E+004  0.60348628E+003  0.24833820E+007  0.27506668E-004  0.17697768E-004
 0.27400000E+003  0.10011139E+004  0.42248701E+004  0.64893288E+003  0.24815330E+007  0.29578107E-004  0.19030543E-004
 0.27500000E+003  0.10008671E+004  0.42223623E+004  0.69738331E+003  0.24796786E+007  0.31786458E-004  0.20451412E-004
 0.27600000E+003  0.10006198E+004  0.42199357E+004  0.74900676E+003  0.24778189E+007  0.34139435E-004  0.21965336E-004
 0.27700000E+003  0.10003719E+004  0.42175890E+004  0.80398013E+003  0.24759537E+007  0.36645100E-004  0.23577503E-004
 0.27800000E+003  0.10001234E+004  0.42153210E+004  0.86248833E+003  0.24740830E+007  0.39311881E-004  0.25293338E-004
 0.27900000E+003  0.99987444E+003  0.42131303E+004  0.92472451E+003  0.24722068E+007  0.42148581E-004  0.27118504E-004
 0.28000000E+003  0.99962488E+003  0.42110158E+004  0.99089031E+003  0.24703250E+007  0.45164392E-004  0.29058915E-004
 0.28100000E+003  0.99937475E+003  0.42089763E+004  0.10611962E+004  0.24684377E+007  0.48368906E-004  0.31120745E-004
 0.28200000E+003  0.99912406E+003  0.42070106E+004  0.11358616E+004  0.24665448E+007  0.51772127E-004  0.33310432E-004
 0.28300000E+003  0.99887280E+003  0.42051174E+004  0.12151155E+004  0.24646461E+007  0.55384487E-004  0.35634687E-004
 0.28400000E+003  0.99862096E+003  0.42032956E+004  0.12991962E+004  0.24627418E+007  0.59216854E-004  0.38100505E-004
 0.28500000E+003  0.99836856E+003  0.42015441E+004  0.13883522E+004  0.24608318E+007  0.63280549E-004  0.40715172E-004
 0.28600000E+003  0.99811557E+003  0.41998617E+004  0.14828420E+004  0.24589159E+007  0.67587359E-004  0.43486272E-004
 0.28700000E+003  0.99786200E+003  0.41982472E+004  0.15829348E+004  0.24569942E+007  0.72149548E-004  0.46421698E-004
 0.28800000E+003  0.99760786E+003  0.41966996E+004  0.16889104E+004  0.24550667E+007  0.76979874E-004  0.49529660E-004
 0.28900000E+003  0.99735312E+003  0.41952176E+004  0.18010598E+004  0.24531333E+007  0.82091599E-004  0.52818694E-004
 0.29000000E+003  0.99709780E+003  0.41938003E+004  0.19196853E+004  0.24511939E+007  0.87498506E-004  0.56297671E-004
 0.29100000E+003  0.99684188E+003  0.41924466E+004  0.20451013E+004  0.24492486E+007  0.93214914E-004  0.59975804E-004
 0.29200000E+003  0.99658537E+003  0.41911552E+004  0.21776336E+004  0.24472972E+007  0.99255688E-004  0.63862661E-004
 0.29300000E+003  0.99632826E+003  0.41899253E+004  0.23176210E+004  0.24453397E+007  0.10563626E-003  0.67968174E-004
 0.29400000E+003  0.99607055E+003  0.41887557E+004  0.24654145E+004  0.24433762E+007  0.11237263E-003  0.72302643E-004
 0.29500000E+003  0.99581223E+003  0.41876454E+004  0.26213783E+004  0.24414065E+007  0.11948140E-003  0.76876752E-004
 0.29600000E+003  0.99555331E+003  0.41865934E+004  0.27858899E+004  0.24394307E+007  0.12697977E-003  0.81701577E-004
 0.29700000E+003  0.99529377E+003  0.41855987E+004  0.29593404E+004  0.24374486E+007  0.13488558E-003  0.86788591E-004
 0.29800000E+003  0.99503362E+003  0.41846602E+004  0.31421349E+004  0.24354602E+007  0.14321728E-003  0.92149681E-004
 0.29900000E+003  0.99477286E+003  0.41837770E+004  0.33346929E+004  0.24334656E+007  0.15199400E-003  0.97797153E-004
 0.30000000E+003  0.99451147E+003  0.41829481E+004  0.35374483E+004  0.24314645E+007  0.16123551E-003  0.10374374E-003
 0.30100000E+003  0.99424946E+003  0.41821725E+004  0.37508503E+004  0.24294571E+007  0.17096229E-003  0.11000262E-003
 0.30200000E+003  0.99398682E+003  0.41814494E+004  0.39753631E+004  0.24274433E+007  0.18119550E-003  0.11658742E-003
 0.30300000E+003  0.99372355E+003  0.41807777E+004  0.42114669E+004  0.24254230E+007  0.19195701E-003  0.12351222E-003
 0.30400000E+003  0.99345965E+003  0.41801565E+004  0.44596575E+004  0.24233961E+007  0.20326944E-003  0.13079159E-003
 0.30500000E+003  0.99319511E+003  0.41795849E+004  0.47204474E+004  0.24213627E+007  0.21515614E-003  0.13844055E-003
 0.30600000E+003  0.99292992E+003  0.41790621E+004  0.49943656E+004  0.24193227E+007  0.22764123E-003  0.14647463E-003
 0.30700000E+003  0.99266410E+003  0.41785870E+004  0.52819583E+004  0.24172761E+007  0.24074959E-003  0.15490987E-003
 0.30800000E+003  0.99239763E+003  0.41781589E+004  0.55837888E+004  0.24152227E+007  0.25450691E-003  0.16376279E-003
 0.30900000E+003  0.99213050E+003  0.41777770E+004  0.59004384E+004  0.24131626E+007  0.26893967E-003  0.17305046E-003
 0.31000000E+003  0.99186272E+003  0.41774402E+004  0.62325065E+004  0.24110958E+007  0.28407520E-003  0.18279047E-003
 0.31100000E+003  0.99159428E+003  0.41771478E+004  0.65806106E+004  0.24090221E+007  0.29994166E-003  0.19300096E-003
 0.31200000E+003  0.99132518E+003  0.41768991E+004  0.69453874E+004  0.24069416E+007  0.31656804E-003  0.20370061E-003
 0.31300000E+003  0.99105542E+003  0.41766930E+004  0.73274925E+004  0.24048541E+007  0.33398424E-003  0.21490867E-003
 0.31400000E+003  0.99078498E+003  0.41765290E+004  0.77276010E+004  0.24027597E+007  0.35222103E-003  0.22664496E-003
 0.31500000E+003  0.99051388E+003  0.41764061E+004  0.81464078E+004  0.24006582E+007  0.37131008E-003  0.23892989E-003
 0.31600000E+003  0.99024209E+003  0.41763236E+004  0.85846281E+004  0.23985498E+007  0.39128399E-003  0.25178445E-003
 0.31700000E+003  0.98996963E+003  0.41762808E+004  0.90429975E+004  0.23964342E+007  0.41217628E-003  0.26523026E-003
 0.31800000E+003  0.98969648E+003  0.41762768E+004  0.95222725E+004  0.23943115E+007  0.43402145E-003  0.27928953E-003
 0.31900000E+003  0.98942264E+003  0.41763110E+004  0.10023231E+005  0.23921816E+007  0.45685494E-003  0.29398510E-003
 0.32000000E+003  0.98914811E+003  0.41763826E+004  0.10546672E+005  0.23900445E+007  0.48071319E-003  0.30934046E-003
 0.32100000E+003  0.98887289E+003  0.41764909E+004  0.11093417E+005  0.23879001E+007  0.50563363E-003  0.32537973E-003
 0.32200000E+003  0.98859696E+003  0.41766352E+004  0.11664310E+005  0.23857484E+007  0.53165469E-003  0.34212770E-003
 0.32300000E+003  0.98832033E+003  0.41768148E+004  0.12260217E+005  0.23835893E+007  0.55881587E-003  0.35960980E-003
 0.32400000E+003  0.98804300E+003  0.41770291E+004  0.12882026E+005  0.23814228E+007  0.58715769E-003  0.37785218E-003
 0.32500000E+003  0.98776495E+003  0.41772773E+004  0.13530650E+005  0.23792488E+007  0.61672172E-003  0.39688164E-003
 0.32600000E+003  0.98748619E+003  0.41775589E+004  0.14207025E+005  0.23770674E+007  0.64755064E-003  0.41672569E-003
 0.32700000E+003  0.98720670E+003  0.41778732E+004  0.14912111E+005  0.23748783E+007  0.67968819E-003  0.43741254E-003
 0.32800000E+003  0.98692650E+003  0.41782195E+004  0.15646892E+005  0.23726817E+007  0.71317923E-003  0.45897115E-003
 0.32900000E+003  0.98664556E+003  0.41785973E+004  0.16412378E+005  0.23704774E+007  0.74806975E-003  0.48143116E-003
 0.33000000E+003  0.98636389E+003  0.41790059E+004  0.17209601E+005  0.23682654E+007  0.78440687E-003  0.50482299E-003
 0.33100000E+003  0.98608149E+003  0.41794448E+004  0.18039621E+005  0.23660456E+007  0.82223886E-003  0.52917777E-003
 0.33200000E+003  0.98579834E+003  0.41799134E+004  0.18903523E+005  0.23638180E+007  0.86161516E-003  0.55452742E-003
 0.33300000E+003  0.98551445E+003  0.41804111E+004  0.19802416E+005  0.23615826E+007  0.90258639E-003  0.58090461E-003
 0.33400000E+003  0.98522981E+003  0.41809374E+004  0.20737439E+005  0.23593393E+007  0.94520437E-003  0.60834279E-003
 0.33500000E+003  0.98494441E+003  0.41814917E+004  0.21709755E+005  0.23570881E+007  0.98952212E-003  0.63687620E-003
 0.33600000E+003  0.98465826E+003  0.41820735E+004  0.22720553E+005  0.23548288E+007  0.10355939E-002  0.66653988E-003
 0.33700000E+003  0.98437135E+003  0.41826824E+004  0.23771052E+005  0.23525615E+007  0.10834752E-002  0.69736966E-003
 0.33800000E+003  0.98408366E+003  0.41833177E+004  0.24862495E+005  0.23502860E+007  0.11332228E-002  0.72940221E-003
 0.33900000E+003  0.98379521E+003  0.41839790E+004  0.25996157E+005  0.23480025E+007  0.11848946E-002  0.76267501E-003
 0.34000000E+003  0.98350597E+003  0.41846659E+004  0.27173337E+005  0.23457107E+007  0.12385501E-002  0.79722638E-003
 0.34100000E+003  0.98321596E+003  0.41853778E+004  0.28395365E+005  0.23434106E+007  0.12942496E-002  0.83309547E-003
 0.34200000E+003  0.98292516E+003  0.41861143E+004  0.29663599E+005  0.23411023E+007  0.13520552E-002  0.87032230E-003
 0.34300000E+003  0.98263357E+003  0.41868750E+004  0.30979425E+005  0.23387856E+007  0.14120301E-002  0.90894776E-003
 0.34400000E+003  0.98234118E+003  0.41876595E+004  0.32344260E+005  0.23364605E+007  0.14742387E-002  0.94901358E-003
 0.34500000E+003  0.98204800E+003  0.41884673E+004  0.33759549E+005  0.23341269E+007  0.15387470E-002  0.99056241E-003
 0.34600000E+003  0.98175401E+003  0.41892980E+004  0.35226768E+005  0.23317848E+007  0.16056223E-002  0.10336377E-002
 0.34700000E+003  0.98145920E+003  0.41901513E+004  0.36747421E+005  0.23294341E+007  0.16749331E-002  0.10782840E-002
 0.34800000E+003  0.98116359E+003  0.41910268E+004  0.38323045E+005  0.23270748E+007  0.17467494E-002  0.11245466E-002
 0.34900000E+003  0.98086715E+003  0.41919241E+004  0.39955205E+005  0.23247068E+007  0.18211426E-002  0.11724716E-002
 0.35000000E+003  0.98056989E+003  0.41928428E+004  0.41645499E+005  0.23223301E+007  0.18981856E-002  0.12221063E-002
 0.35100000E+003  0.98027179E+003  0.41937827E+004  0.43395555E+005  0.23199446E+007  0.19779524E-002  0.12734987E-002
 0.35200000E+003  0.97997287E+003  0.41947433E+004  0.45207033E+005  0.23175503E+007  0.20605189E-002  0.13266980E-002
 0.35300000E+003  0.97967310E+003  0.41957244E+004  0.47081623E+005  0.23151470E+007  0.21459619E-002  0.13817540E-002
 0.35400000E+003  0.97937248E+003  0.41967257E+004  0.49021048E+005  0.23127348E+007  0.22343602E-002  0.14387177E-002
 0.35500000E+003  0.97907102E+003  0.41977469E+004  0.51027064E+005  0.23103136E+007  0.23257936E-002  0.14976411E-002
 0.35600000E+003  0.97876869E+003  0.41987877E+004  0.53101456E+005  0.23078834E+007  0.24203436E-002  0.15585770E-002
 0.35700000E+003  0.97846551E+003  0.41998479E+004  0.55246046E+005  0.23054440E+007  0.25180931E-002  0.16215793E-002
 0.35800000E+003  0.97816146E+003  0.42009271E+004  0.57462685E+005  0.23029954E+007  0.26191267E-002  0.16867028E-002
 0.35900000E+003  0.97785653E+003  0.42020252E+004  0.59753258E+005  0.23005376E+007  0.27235301E-002  0.17540034E-002
 0.36000000E+003  0.97755073E+003  0.42031420E+004  0.62119685E+005  0.22980705E+007  0.28313909E-002  0.18235379E-002
 0.36100000E+003  0.97724404E+003  0.42042771E+004  0.64563915E+005  0.22955940E+007  0.29427980E-002  0.18953642E-002
 0.36200000E+003  0.97693646E+003  0.42054305E+004  0.67087935E+005  0.22931082E+007  0.30578418E-002  0.19695413E-002
 0.36300000E+003  0.97662799E+003  0.42066020E+004  0.69693763E+005  0.22906128E+007  0.31766144E-002  0.20461289E-002
 0.36400000E+003  0.97631861E+003  0.42077912E+004  0.72383453E+005  0.22881080E+007  0.32992094E-002  0.21251881E-002
 0.36500000E+003  0.97600833E+003  0.42089982E+004  0.75159089E+005  0.22855935E+007  0.34257219E-002  0.22067809E-002
 0.36600000E+003  0.97569713E+003  0.42102227E+004  0.78022795E+005  0.22830694E+007  0.35562485E-002  0.22909702E-002
 0.36700000E+003  0.97538502E+003  0.42114646E+004  0.80976725E+005  0.22805356E+007  0.36908874E-002  0.23778203E-002
 0.36800000E+003  0.97507198E+003  0.42127237E+004  0.84023069E+005  0.22779921E+007  0.38297386E-002  0.24673962E-002
 0.36900000E+003  0.97475801E+003  0.42140001E+004  0.87164051E+005  0.22754387E+007  0.39729033E-002  0.25597642E-002
 0.37000000E+003  0.97444310E+003  0.42152935E+004  0.90401931E+005  0.22728754E+007  0.41204846E-002  0.26549916E-002
 0.37100000E+003  0.97412724E+003  0.42166038E+004  0.93739004E+005  0.22703021E+007  0.42725871E-002  0.27531468E-002
 0.37200000E+003  0.97381044E+003  0.42179311E+004  0.97177600E+005  0.22677189E+007  0.44293169E-002  0.28542993E-002
 0.37300000E+003  0.97349268E+003  0.42192752E+004  0.10072008E+006  0.22651256E+007  0.45907819E-002  0.29585197E-002
 0.37400000E+003  0.97317396E+003  0.42206360E+004  0.10436885E+006  0.22625221E+007  0.47570914E-002  0.30658796E-002
 0.37500000E+003  0.97285427E+003  0.42220136E+004  0.10812635E+006  0.22599084E+007  0.49283565E-002  0.31764520E-002
 0.37600000E+003  0.97253360E+003  0.42234079E+004  0.11199504E+006  0.22572845E+007  0.51046899E-002  0.32903106E-002
 0.37700000E+003  0.97221195E+003  0.42248189E+004  0.11597743E+006  0.22546502E+007  0.52862057E-002  0.34075305E-002
 0.37800000E+003  0.97188931E+003  0.42262466E+004  0.12007606E+006  0.22520056E+007  0.54730200E-002  0.35281880E-002
 0.37900000E+003  0.97156567E+003  0.42276910E+004  0.12429353E+006  0.22493505E+007  0.56652502E-002  0.36523603E-002
 0.38000000E+003  0.97124104E+003  0.42291522E+004  0.12863243E+006  0.22466848E+007  0.58630157E-002  0.37801259E-002
 0.38100000E+003  0.97091539E+003  0.42306301E+004  0.13309542E+006  0.22440086E+007  0.60664373E-002  0.39115644E-002
 0.38200000E+003  0.97058872E+003  0.42321248E+004  0.13768520E+006  0.22413217E+007  0.62756374E-002  0.40467566E-002
 0.38300000E+003  0.97026103E+003  0.42336364E+004  0.14240448E+006  0.22386241E+007  0.64907402E-002  0.41857845E-002
 0.38400000E+003  0.96993232E+003  0.42351649E+004  0.14725602E+006  0.22359157E+007  0.67118716E-002  0.43287311E-002
 0.38500000E+003  0.96960256E+003  0.42367105E+004  0.15224262E+006  0.22331964E+007  0.69391591E-002  0.44756807E-002
 0.38600000E+003  0.96927176E+003  0.42382732E+004  0.15736712E+006  0.22304662E+007  0.71727317E-002  0.46267188E-002
 0.38700000E+003  0.96893990E+003  0.42398532E+004  0.16263238E+006  0.22277251E+007  0.74127204E-002  0.47819321E-002
 0.38800000E+003  0.96860698E+003  0.42414505E+004  0.16804132E+006  0.22249728E+007  0.76592577E-002  0.49414084E-002
 0.38900000E+003  0.96827300E+003  0.42430653E+004  0.17359688E+006  0.22222094E+007  0.79124776E-002  0.51052368E-002
 0.39000000E+003  0.96793794E+003  0.42446978E+004  0.17930203E+006  0.22194349E+007  0.81725161E-002  0.52735075E-002
 0.39100000E+003  0.96760180E+003  0.42463481E+004  0.18515979E+006  0.22166490E+007  0.84395108E-002  0.54463121E-002
 0.39200000E+003  0.96726457E+003  0.42480164E+004  0.19117323E+006  0.22138518E+007  0.87136007E-002  0.56237433E-002
 0.39300000E+003  0.96692623E+003  0.42497028E+004  0.19734542E+006  0.22110432E+007  0.89949269E-002  0.58058950E-002
 0.39400000E+003  0.96658679E+003  0.42514076E+004  0.20367950E+006  0.22082231E+007  0.92836319E-002  0.59928625E-002
 0.39500000E+003  0.96624624E+003  0.42531310E+004  0.21017864E+006  0.22053914E+007  0.95798599E-002  0.61847421E-002
 0.39600000E+003  0.96590456E+003  0.42548732E+004  0.21684603E+006  0.22025481E+007  0.98837570E-002  0.63816315E-002
 0.39700000E+003  0.96556176E+003  0.42566345E+004  0.22368491E+006  0.21996931E+007  0.10195471E-001  0.65836297E-002
 0.39800000E+003  0.96521781E+003  0.42584150E+004  0.23069857E+006  0.21968263E+007  0.10515151E-001  0.67908369E-002
 0.39900000E+003  0.96487272E+003  0.42602151E+004  0.23789031E+006  0.21939476E+007  0.10842947E-001  0.70033546E-002
 0.40000000E+003  0.96452646E+003  0.42620350E+004  0.24526349E+006  0.21910570E+007  0.11179014E-001  0.72212855E-002
 0.40100000E+003  0.96417905E+003  0.42638750E+004  0.25282149E+006  0.21881544E+007  0.11523505E-001  0.74447337E-002
 0.40200000E+003  0.96383046E+003  0.42657354E+004  0.26056774E+006  0.21852398E+007  0.11876576E-001  0.76738045E-002
 0.40300000E+003  0.96348068E+003  0.42676165E+004  0.26850570E+006  0.21823129E+007  0.12238384E-001  0.79086046E-002
 0.40400000E+003  0.96312972E+003  0.42695186E+004  0.27663886E+006  0.21793738E+007  0.12609091E-001  0.81492420E-002
 0.40500000E+003  0.96277756E+003  0.42714422E+004  0.28497077E+006  0.21764224E+007  0.12988856E-001  0.83958259E-002
 0.40600000E+003  0.96242418E+003  0.42733874E+004  0.29350499E+006  0.21734586E+007  0.13377842E-001  0.86484670E-002
 0.40700000E+003  0.96206959E+003  0.42753548E+004  0.30224514E+006  0.21704823E+007  0.13776215E-001  0.89072771E-002
 0.40800000E+003  0.96171377E+003  0.42773445E+004  0.31119486E+006  0.21674935E+007  0.14184140E-001  0.91723696E-002
 0.40900000E+003  0.96135671E+003  0.42793572E+004  0.32035784E+006  0.21644920E+007  0.14601785E-001  0.94438592E-002
 0.41000000E+003  0.96099840E+003  0.42813930E+004  0.32973779E+006  0.21614778E+007  0.15029320E-001  0.97218618E-002
 0.41100000E+003  0.96063884E+003  0.42834525E+004  0.33933848E+006  0.21584508E+007  0.15466915E-001  0.10006495E-001
 0.41200000E+003  0.96027801E+003  0.42855361E+004  0.34916370E+006  0.21554110E+007  0.15914745E-001  0.10297877E-001
 0.41300000E+003  0.95991590E+003  0.42876442E+004  0.35921728E+006  0.21523581E+007  0.16372983E-001  0.10596128E-001
 0.41400000E+003  0.95955250E+003  0.42897773E+004  0.36950309E+006  0.21492922E+007  0.16841806E-001  0.10901370E-001
 0.41500000E+003  0.95918781E+003  0.42919357E+004  0.38002503E+006  0.21462132E+007  0.17321392E-001  0.11213726E-001
 0.41600000E+003  0.95882181E+003  0.42941201E+004  0.39078705E+006  0.21431209E+007  0.17811921E-001  0.11533321E-001
 0.41700000E+003  0.95845450E+003  0.42963308E+004  0.40179312E+006  0.21400154E+007  0.18313573E-001  0.11860279E-001
 0.41800000E+003  0.95808585E+003  0.42985684E+004  0.41304726E+006  0.21368964E+007  0.18826533E-001  0.12194728E-001
 0.41900000E+003  0.95771587E+003  0.43008333E+004  0.42455352E+006  0.21337639E+007  0.19350983E-001  0.12536797E-001
 0.42000000E+003  0.95734454E+003  0.43031262E+004  0.43631599E+006  0.21306179E+007  0.19887112E-001  0.12886616E-001
 0.42100000E+003  0.95697185E+003  0.43054475E+004  0.44833879E+006  0.21274583E+007  0.20435107E-001  0.13244317E-001
 0.42200000E+003  0.95659778E+003  0.43077978E+004  0.46062609E+006  0.21242848E+007  0.20995157E-001  0.13610033E-001
 0.42300000E+003  0.95622233E+003  0.43101777E+004  0.47318208E+006  0.21210976E+007  0.21567454E-001  0.13983897E-001
 0.42400000E+003  0.95584549E+003  0.43125876E+004  0.48601099E+006  0.21178963E+007  0.22152190E-001  0.14366048E-001
 0.42500000E+003  0.95546724E+003  0.43150283E+004  0.49911709E+006  0.21146811E+007  0.22749562E-001  0.14756621E-001
 0.42600000E+003  0.95508758E+003  0.43175003E+004  0.51250470E+006  0.21114518E+007  0.23359764E-001  0.15155756E-001
 0.42700000E+003  0.95470648E+003  0.43200042E+004  0.52617815E+006  0.21082082E+007  0.23982994E-001  0.15563595E-001
 0.42800000E+003  0.95432394E+003  0.43225406E+004  0.54014182E+006  0.21049503E+007  0.24619453E-001  0.15980278E-001
 0.42900000E+003  0.95393995E+003  0.43251102E+004  0.55440013E+006  0.21016781E+007  0.25269341E-001  0.16405951E-001
 0.43000000E+003  0.95355450E+003  0.43277136E+004  0.56895752E+006  0.20983913E+007  0.25932861E-001  0.16840758E-001
 0.43100000E+003  0.95316756E+003  0.43303515E+004  0.58381849E+006  0.20950899E+007  0.26610218E-001  0.17284847E-001
 0.43200000E+003  0.95277914E+003  0.43330245E+004  0.59898755E+006  0.20917739E+007  0.27301618E-001  0.17738366E-001
 0.43300000E+003  0.95238921E+003  0.43357334E+004  0.61446926E+006  0.20884430E+007  0.28007268E-001  0.18201465E-001
 0.43400000E+003  0.95199777E+003  0.43384788E+004  0.63026822E+006  0.20850973E+007  0.28727379E-001  0.18674297E-001
 0.43500000E+003  0.95160479E+003  0.43412614E+004  0.64638905E+006  0.20817365E+007  0.29462160E-001  0.19157015E-001
 0.43600000E+003  0.95121027E+003  0.43440821E+004  0.66283642E+006  0.20783607E+007  0.30211824E-001  0.19649774E-001
 0.43700000E+003  0.95081420E+003  0.43469414E+004  0.67961503E+006  0.20749697E+007  0.30976587E-001  0.20152731E-001
 0.43800000E+003  0.95041656E+003  0.43498401E+004  0.69672961E+006  0.20715633E+007  0.31756663E-001  0.20666046E-001
 0.43900000E+003  0.95001733E+003  0.43527791E+004  0.71418494E+006  0.20681416E+007  0.32552270E-001  0.21189878E-001
 0.44000000E+003  0.94961651E+003  0.43557591E+004  0.73198582E+006  0.20647043E+007  0.33363627E-001  0.21724390E-001
 0.44100000E+003  0.94921407E+003  0.43587808E+004  0.75013709E+006  0.20612514E+007  0.34190955E-001  0.22269745E-001
 0.44200000E+003  0.94881000E+003  0.43618450E+004  0.76864363E+006  0.20577828E+007  0.35034475E-001  0.22826110E-001
 0.44300000E+003  0.94840430E+003  0.43649527E+004  0.78751034E+006  0.20542983E+007  0.35894413E-001  0.23393653E-001
 0.44400000E+003  0.94799694E+003  0.43681045E+004  0.80674219E+006  0.20507979E+007  0.36770993E-001  0.23972541E-001
 0.44500000E+003  0.94758791E+003  0.43713014E+004  0.82634414E+006  0.20472815E+007  0.37664442E-001  0.24562948E-001
 0.44600000E+003  0.94717719E+003  0.43745441E+004  0.84632122E+006  0.20437488E+007  0.38574990E-001  0.25165046E-001
 0.44700000E+003  0.94676477E+003  0.43778336E+004  0.86667846E+006  0.20401999E+007  0.39502865E-001  0.25779010E-001
 0.44800000E+003  0.94635063E+003  0.43811707E+004  0.88742097E+006  0.20366346E+007  0.40448301E-001  0.26405018E-001
 0.44900000E+003  0.94593476E+003  0.43845563E+004  0.90855387E+006  0.20330527E+007  0.41411529E-001  0.27043247E-001
 0.45000000E+003  0.94551714E+003  0.43879913E+004  0.93008229E+006  0.20294542E+007  0.42392787E-001  0.27693880E-001
 0.45100000E+003  0.94509775E+003  0.43914766E+004  0.95201144E+006  0.20258390E+007  0.43392309E-001  0.28357099E-001
 0.45200000E+003  0.94467659E+003  0.43950131E+004  0.97434654E+006  0.20222069E+007  0.44410334E-001  0.29033090E-001
 0.45300000E+003  0.94425362E+003  0.43986017E+004  0.99709285E+006  0.20185578E+007  0.45447102E-001  0.29722039E-001
 0.45400000E+003  0.94382883E+003  0.44022435E+004  0.10202557E+007  0.20148916E+007  0.46502853E-001  0.30424135E-001
 0.45500000E+003  0.94340222E+003  0.44059393E+004  0.10438403E+007  0.20112081E+007  0.47577832E-001  0.31139570E-001
 0.45600000E+003  0.94297375E+003  0.44096902E+004  0.10678521E+007  0.20075073E+007  0.48672281E-001  0.31868537E-001
 0.45700000E+003  0.94254341E+003  0.44134971E+004  0.10922965E+007  0.20037890E+007  0.49786448E-001  0.32611232E-001
 0.45800000E+003  0.94211118E+003  0.44173610E+004  0.11171790E+007  0.20000531E+007  0.50920579E-001  0.33367852E-001
 0.45900000E+003  0.94167705E+003  0.44212829E+004  0.11425049E+007  0.19962994E+007  0.52074924E-001  0.34138598E-001
 0.46000000E+003  0.94124100E+003  0.44252639E+004  0.11682797E+007  0.19925279E+007  0.53249733E-001  0.34923672E-001
 0.46100000E+003  0.94080300E+003  0.44293049E+004  0.11945091E+007  0.19887383E+007  0.54445258E-001  0.35723278E-001
 0.46200000E+003  0.94036304E+003  0.44334071E+004  0.12211986E+007  0.19849306E+007  0.55661754E-001  0.36537624E-001
 0.46300000E+003  0.93992109E+003  0.44375715E+004  0.12483537E+007  0.19811047E+007  0.56899474E-001  0.37366918E-001
 0.46400000E+003  0.93947715E+003  0.44417992E+004  0.12759802E+007  0.19772603E+007  0.58158677E-001  0.38211374E-001
 0.46500000E+003  0.93903118E+003  0.44460912E+004  0.13040836E+007  0.19733974E+007  0.59439620E-001  0.39071203E-001
 0.46600000E+003  0.93858317E+003  0.44504486E+004  0.13326697E+007  0.19695157E+007  0.60742564E-001  0.39946625E-001
 0.46700000E+003  0.93813310E+003  0.44548726E+004  0.13617442E+007  0.19656153E+007  0.62067769E-001  0.40837856E-001
 0.46800000E+003  0.93768094E+003  0.44593643E+004  0.13913129E+007  0.19616959E+007  0.63415499E-001  0.41745121E-001
 0.46900000E+003  0.93722667E+003  0.44639247E+004  0.14213816E+007  0.19577573E+007  0.64786018E-001  0.42668641E-001
 0.47000000E+003  0.93677028E+003  0.44685552E+004  0.14519561E+007  0.19537995E+007  0.66179592E-001  0.43608646E-001
 0.47100000E+003  0.93631174E+003  0.44732567E+004  0.14830423E+007  0.19498223E+007  0.67596489E-001  0.44565364E-001
 0.47200000E+003  0.93585102E+003  0.44780306E+004  0.15146462E+007  0.19458255E+007  0.69036978E-001  0.45539028E-001
 0.47300000E+003  0.93538811E+003  0.44828779E+004  0.15467735E+007  0.19418090E+007  0.70501330E-001  0.46529873E-001
 0.47400000E+003  0.93492298E+003  0.44877999E+004  0.15794303E+007  0.19377726E+007  0.71989817E-001  0.47538137E-001
 0.47500000E+003  0.93445561E+003  0.44927977E+004  0.16126227E+007  0.19337162E+007  0.73502712E-001  0.48564061E-001
 0.47600000E+003  0.93398597E+003  0.44978727E+004  0.16463566E+007  0.19296396E+007  0.75040291E-001  0.49607889E-001
 0.47700000E+003  0.93351404E+003  0.45030260E+004  0.16806382E+007  0.19255427E+007  0.76602830E-001  0.50669868E-001
 0.47800000E+003  0.93303980E+003  0.45082588E+004  0.17154735E+007  0.19214252E+007  0.78190608E-001  0.51750248E-001
 0.47900000E+003  0.93256321E+003  0.45135726E+004  0.17508686E+007  0.19172871E+007  0.79803906E-001  0.52849282E-001
 0.48000000E+003  0.93208426E+003  0.45189684E+004  0.17868298E+007  0.19131282E+007  0.81443003E-001  0.53967225E-001
 0.48100000E+003  0.93160291E+003  0.45244476E+004  0.18233633E+007  0.19089482E+007  0.83108184E-001  0.55104337E-001
 0.48200000E+003  0.93111915E+003  0.45300115E+004  0.18604752E+007  0.19047471E+007  0.84799732E-001  0.56260882E-001
 0.48300000E+003  0.93063294E+003  0.45356615E+004  0.18981719E+007  0.19005247E+007  0.86517934E-001  0.57437123E-001
 0.48400000E+003  0.93014425E+003  0.45413987E+004  0.19364597E+007  0.18962807E+007  0.88263077E-001  0.58633332E-001
 0.48500000E+003  0.92965306E+003  0.45472246E+004  0.19753450E+007  0.18920150E+007  0.90035451E-001  0.59849780E-001
 0.48600000E+003  0.92915935E+003  0.45531405E+004  0.20148340E+007  0.18877275E+007  0.91835345E-001  0.61086743E-001
 0.48700000E+003  0.92866307E+003  0.45591478E+004  0.20549332E+007  0.18834179E+007  0.93663053E-001  0.62344502E-001
 0.48800000E+003  0.92816420E+003  0.45652478E+004  0.20956491E+007  0.18790860E+007  0.95518867E-001  0.63623340E-001
 0.48900000E+003  0.92766272E+003  0.45714419E+004  0.21369882E+007  0.18747317E+007  0.97403084E-001  0.64923544E-001
 0.49000000E+003  0.92715858E+003  0.45777316E+004  0.21789569E+007  0.18703548E+007  0.99316000E-001  0.66245405E-001
 0.49100000E+003  0.92665176E+003  0.45841182E+004  0.22215617E+007  0.18659551E+007  0.10125791E+000  0.67589217E-001
 0.49200000E+003  0.92614224E+003  0.45906031E+004  0.22648094E+007  0.18615324E+007  0.10322912E+000  0.68955280E-001
 0.49300000E+003  0.92562996E+003  0.45971878E+004  0.23087064E+007  0.18570864E+007  0.10522993E+000  0.70343895E-001
 0.49400000E+003  0.92511491E+003  0.46038737E+004  0.23532595E+007  0.18526171E+007  0.10726065E+000  0.71755370E-001
 0.49500000E+003  0.92459705E+003  0.46106623E+004  0.23984753E+007  0.18481241E+007  0.10932156E+000  0.73190016E-001
 0.49600000E+003  0.92407634E+003  0.46175551E+004  0.24443605E+007  0.18436074E+007  0.11141300E+000  0.74648147E-001
 0.49700000E+003  0.92355275E+003  0.46245535E+004  0.24909220E+007  0.18390666E+007  0.11353525E+000  0.76130083E-001
 0.49800000E+003  0.92302625E+003  0.46316590E+004  0.25381664E+007  0.18345015E+007  0.11568863E+000  0.77636148E-001
 0.49900000E+003  0.92249679E+003  0.46388732E+004  0.25861006E+007  0.18299120E+007  0.11787345E+000  0.79166670E-001
 0.50000000E+003  0.92196435E+003  0.46461976E+004  0.26347315E+007  0.18252978E+007  0.12009003E+000  0.80721983E-001
 0.50100000E+003  0.92142888E+003  0.46536337E+004  0.26840659E+007  0.18206587E+007  0.12233867E+000  0.82302424E-001
 0.50200000E+003  0.92089035E+003  0.46611830E+004  0.27341108E+007  0.18159944E+007  0.12461970E+000  0.83908335E-001
 0.50300000E+003  0.92034871E+003  0.46688471E+004  0.27848732E+007  0.18113048E+007  0.12693343E+000  0.85540064E-001
 0.50400000E+003  0.91980393E+003  0.46766276E+004  0.28363599E+007  0.18065896E+007  0.12928018E+000  0.87197963E-001
 0.50500000E+003  0.91925597E+003  0.46845261E+004  0.28885782E+007  0.18018486E+007  0.13166026E+000  0.88882389E-001
 0.50600000E+003  0.91870478E+003  0.46925441E+004  0.29415350E+007  0.17970815E+007  0.13407401E+000  0.90593706E-001
 0.50700000E+003  0.91815032E+003  0.47006833E+004  0.29952374E+007  0.17922880E+007  0.13652175E+000  0.92332280E-001
 0.50800000E+003  0.91759256E+003  0.47089453E+004  0.30496926E+007  0.17874680E+007  0.13900379E+000  0.94098486E-001
 0.50900000E+003  0.91703144E+003  0.47173317E+004  0.31049077E+007  0.17826212E+007  0.14152048E+000  0.95892703E-001
 0.51000000E+003  0.91646692E+003  0.47258442E+004  0.31608900E+007  0.17777473E+007  0.14407213E+000  0.97715314E-001
 0.51100000E+003  0.91589895E+003  0.47344844E+004  0.32176468E+007  0.17728460E+007  0.14665908E+000  0.99566711E-001
 0.51200000E+003  0.91532750E+003  0.47432540E+004  0.32751852E+007  0.17679171E+007  0.14928166E+000  0.10144729E+000
 0.51300000E+003  0.91475250E+003  0.47521547E+004  0.33335126E+007  0.17629603E+007  0.15194020E+000  0.10335745E+000
 0.51400000E+003  0.91417392E+003  0.47611881E+004  0.33926364E+007  0.17579753E+007  0.15463504E+000  0.10529760E+000
 0.51500000E+003  0.91359169E+003  0.47703561E+004  0.34525639E+007  0.17529619E+007  0.15736651E+000  0.10726817E+000
 0.51600000E+003  0.91300578E+003  0.47796602E+004  0.35133026E+007  0.17479198E+007  0.16013496E+000  0.10926955E+000
 0.51700000E+003  0.91241613E+003  0.47891023E+004  0.35748600E+007  0.17428486E+007  0.16294072E+000  0.11130220E+000
 0.51800000E+003  0.91182269E+003  0.47986841E+004  0.36372435E+007  0.17377481E+007  0.16578413E+000  0.11336654E+000
 0.51900000E+003  0.91122539E+003  0.48084074E+004  0.37004607E+007  0.17326180E+007  0.16866555E+000  0.11546300E+000
 0.52000000E+003  0.91062419E+003  0.48182738E+004  0.37645192E+007  0.17274579E+007  0.17158531E+000  0.11759205E+000
 0.52100000E+003  0.91001903E+003  0.48282853E+004  0.38294266E+007  0.17222676E+007  0.17454376E+000  0.11975413E+000
 0.52200000E+003  0.90940985E+003  0.48384435E+004  0.38951905E+007  0.17170467E+007  0.17754126E+000  0.12194972E+000
 0.52300000E+003  0.90879660E+003  0.48487504E+004  0.39618186E+007  0.17117949E+007  0.18057814E+000  0.12417927E+000
 0.52400000E+003  0.90817920E+003  0.48592077E+004  0.40293188E+007  0.17065119E+007  0.18365477E+000  0.12644327E+000
 0.52500000E+003  0.90755761E+003  0.48698172E+004  0.40976986E+007  0.17011973E+007  0.18677150E+000  0.12874220E+000
 0.52600000E+003  0.90693174E+003  0.48805809E+004  0.41669660E+007  0.16958508E+007  0.18992868E+000  0.13107656E+000
 0.52700000E+003  0.90630155E+003  0.48915005E+004  0.42371288E+007  0.16904720E+007  0.19312667E+000  0.13344685E+000
 0.52800000E+003  0.90566696E+003  0.49025779E+004  0.43081949E+007  0.16850606E+007  0.19636584E+000  0.13585359E+000
 0.52900000E+003  0.90502791E+003  0.49138151E+004  0.43801722E+007  0.16796162E+007  0.19964653E+000  0.13829728E+000
 0.53000000E+003  0.90438432E+003  0.49252139E+004  0.44530686E+007  0.16741385E+007  0.20296912E+000  0.14077846E+000
 0.53100000E+003  0.90373613E+003  0.49367762E+004  0.45268923E+007  0.16686269E+007  0.20633398E+000  0.14329767E+000
 0.53200000E+003  0.90308326E+003  0.49485039E+004  0.46016511E+007  0.16630812E+007  0.20974146E+000  0.14585546E+000
 0.53300000E+003  0.90242563E+003  0.49603991E+004  0.46773533E+007  0.16575010E+007  0.21319193E+000  0.14845237E+000
 0.53400000E+003  0.90176317E+003  0.49724635E+004  0.47540068E+007  0.16518859E+007  0.21668577E+000  0.15108898E+000
 0.53500000E+003  0.90109579E+003  0.49846993E+004  0.48316200E+007  0.16462353E+007  0.22022335E+000  0.15376586E+000
 0.53600000E+003  0.90042343E+003  0.49971083E+004  0.49102011E+007  0.16405490E+007  0.22380504E+000  0.15648360E+000
 0.53700000E+003  0.89974599E+003  0.50096925E+004  0.49897581E+007  0.16348264E+007  0.22743122E+000  0.15924279E+000
 0.53800000E+003  0.89906339E+003  0.50224539E+004  0.50702996E+007  0.16290672E+007  0.23110227E+000  0.16204404E+000
 0.53900000E+003  0.89837554E+003  0.50353946E+004  0.51518337E+007  0.16232708E+007  0.23481856E+000  0.16488797E+000
 0.54000000E+003  0.89768235E+003  0.50485166E+004  0.52343689E+007  0.16174369E+007  0.23858049E+000  0.16777521E+000
 0.54100000E+003  0.89698373E+003  0.50618218E+004  0.53179136E+007  0.16115649E+007  0.24238842E+000  0.17070640E+000
 0.54200000E+003  0.89627959E+003  0.50753124E+004  0.54024763E+007  0.16056543E+007  0.24624275E+000  0.17368220E+000
 0.54300000E+003  0.89556983E+003  0.50889904E+004  0.54880654E+007  0.15997047E+007  0.25014387E+000  0.17670326E+000
 0.54400000E+003  0.89485434E+003  0.51028579E+004  0.55746896E+007  0.15937155E+007  0.25409217E+000  0.17977026E+000
 0.54500000E+003  0.89413303E+003  0.51169169E+004  0.56623574E+007  0.15876863E+007  0.25808803E+000  0.18288391E+000
 0.54600000E+003  0.89340579E+003  0.51311695E+004  0.57510774E+007  0.15816164E+007  0.26213186E+000  0.18604488E+000
 0.54700000E+003  0.89267250E+003  0.51456179E+004  0.58408584E+007  0.15755054E+007  0.26622404E+000  0.18925392E+000
 0.54800000E+003  0.89193307E+003  0.51602642E+004  0.59317090E+007  0.15693526E+007  0.27036497E+000  0.19251174E+000
 0.54900000E+003  0.89118737E+003  0.51751105E+004  0.60236381E+007  0.15631575E+007  0.27455507E+000  0.19581908E+000
 0.55000000E+003  0.89043529E+003  0.51901589E+004  0.61166545E+007  0.15569196E+007  0.27879472E+000  0.19917671E+000
 0.55100000E+003  0.88967670E+003  0.52054117E+004  0.62107670E+007  0.15506381E+007  0.28308433E+000  0.20258541E+000
 0.55200000E+003  0.88891148E+003  0.52208709E+004  0.63059845E+007  0.15443125E+007  0.28742430E+000  0.20604595E+000
 0.55300000E+003  0.88813949E+003  0.52365388E+004  0.64023161E+007  0.15379422E+007  0.29181506E+000  0.20955915E+000
 0.55400000E+003  0.88736062E+003  0.52524176E+004  0.64997706E+007  0.15315264E+007  0.29625700E+000  0.21312582E+000
 0.55500000E+003  0.88657471E+003  0.52685094E+004  0.65983573E+007  0.15250646E+007  0.30075054E+000  0.21674680E+000
 0.55600000E+003  0.88578163E+003  0.52848165E+004  0.66980851E+007  0.15185560E+007  0.30529610E+000  0.22042294E+000
 0.55700000E+003  0.88498124E+003  0.53013412E+004  0.67989633E+007  0.15119999E+007  0.30989409E+000  0.22415512E+000
 0.55800000E+003  0.88417337E+003  0.53180856E+004  0.69010010E+007  0.15053956E+007  0.31454492E+000  0.22794423E+000
 0.55900000E+003  0.88335788E+003  0.53350520E+004  0.70042075E+007  0.14987423E+007  0.31924904E+000  0.23179116E+000
 0.56000000E+003  0.88253461E+003  0.53522428E+004  0.71085921E+007  0.14920393E+007  0.32400684E+000  0.23569685E+000
 0.56100000E+003  0.88170338E+003  0.53696601E+004  0.72141641E+007  0.14852857E+007  0.32881878E+000  0.23966223E+000
 0.56200000E+003  0.88086404E+003  0.53873063E+004  0.73209330E+007  0.14784808E+007  0.33368526E+000  0.24368829E+000
 0.56300000E+003  0.88001639E+003  0.54051837E+004  0.74289081E+007  0.14716237E+007  0.33860672E+000  0.24777599E+000
 0.56400000E+003  0.87916027E+003  0.54232945E+004  0.75380991E+007  0.14647135E+007  0.34358360E+000  0.25192635E+000
 0.56500000E+003  0.87829547E+003  0.54416412E+004  0.76485154E+007  0.14577494E+007  0.34861634E+000  0.25614040E+000
 0.56600000E+003  0.87742181E+003  0.54602261E+004  0.77601666E+007  0.14507304E+007  0.35370536E+000  0.26041917E+000
 0.56700000E+003  0.87653908E+003  0.54790515E+004  0.78730625E+007  0.14436555E+007  0.35885111E+000  0.26476376E+000
 0.56800000E+003  0.87564707E+003  0.54981199E+004  0.79872127E+007  0.14365238E+007  0.36405403E+000  0.26917524E+000
 0.56900000E+003  0.87474556E+003  0.55174335E+004  0.81026271E+007  0.14293343E+007  0.36931457E+000  0.27365474E+000
 0.57000000E+003  0.87383433E+003  0.55369948E+004  0.82193153E+007  0.14220859E+007  0.37463317E+000  0.27820341E+000
 0.57100000E+003  0.87291315E+003  0.55568062E+004  0.83372874E+007  0.14147776E+007  0.38001029E+000  0.28282241E+000
 0.57200000E+003  0.87198176E+003  0.55768701E+004  0.84565532E+007  0.14074081E+007  0.38544638E+000  0.28751295E+000
 0.57300000E+003  0.87103993E+003  0.55971890E+004  0.85771227E+007  0.13999764E+007  0.39094189E+000  0.29227623E+000
 0.57400000E+003  0.87008738E+003  0.56177653E+004  0.86990060E+007  0.13924813E+007  0.39649729E+000  0.29711352E+000
 0.57500000E+003  0.86912385E+003  0.56386014E+004  0.88222132E+007  0.13849215E+007  0.40211302E+000  0.30202609E+000
 0.57600000E+003  0.86814904E+003  0.56596998E+004  0.89467544E+007  0.13772957E+007  0.40778956E+000  0.30701525E+000
 0.57700000E+003  0.86716268E+003  0.56810630E+004  0.90726398E+007  0.13696027E+007  0.41352737E+000  0.31208235E+000
 0.57800000E+003  0.86616445E+003  0.57026936E+004  0.91998798E+007  0.13618409E+007  0.41932692E+000  0.31722873E+000
 0.57900000E+003  0.86515403E+003  0.57245939E+004  0.93284846E+007  0.13540091E+007  0.42518867E+000  0.32245582E+000
 0.58000000E+003  0.86413109E+003  0.57467666E+004  0.94584647E+007  0.13461056E+007  0.43111312E+000  0.32776505E+000
 0.58100000E+003  0.86309529E+003  0.57692141E+004  0.95898304E+007  0.13381290E+007  0.43710072E+000  0.33315787E+000
 0.58200000E+003  0.86204626E+003  0.57919390E+004  0.97225924E+007  0.13300777E+007  0.44315195E+000  0.33863581E+000
 0.58300000E+003  0.86098362E+003  0.58149439E+004  0.98567611E+007  0.13219499E+007  0.44926731E+000  0.34420039E+000
 0.58400000E+003  0.85990698E+003  0.58382313E+004  0.99923473E+007  0.13137440E+007  0.45544728E+000  0.34985320E+000
 0.58500000E+003  0.85881593E+003  0.58618038E+004  0.10129362E+008  0.13054581E+007  0.46169234E+000  0.35559584E+000
 0.58600000E+003  0.85771003E+003  0.58856640E+004  0.10267815E+008  0.12970904E+007  0.46800298E+000  0.36142998E+000
 0.58700000E+003  0.85658884E+003  0.59098146E+004  0.10407718E+008  0.12886388E+007  0.47437970E+000  0.36735731E+000
 0.58800000E+003  0.85545188E+003  0.59342581E+004  0.10549081E+008  0.12801014E+007  0.48082299E+000  0.37337957E+000
 0.58900000E+003  0.85429866E+003  0.59589971E+004  0.10691916E+008  0.12714760E+007  0.48733335E+000  0.37949854E+000
 0.59000000E+003  0.85312865E+003  0.59840344E+004  0.10836234E+008  0.12627603E+007  0.49391129E+000  0.38571605E+000
 0.59100000E+003  0.85194130E+003  0.60093725E+004  0.10982045E+008  0.12539521E+007  0.50055731E+000  0.39203397E+000
 0.59200000E+003  0.85073605E+003  0.60350142E+004  0.11129361E+008  0.12450488E+007  0.50727192E+000  0.39845422E+000
 0.59300000E+003  0.84951229E+003  0.60609620E+004  0.11278193E+008  0.12360479E+007  0.51405563E+000  0.40497877E+000
 0.59400000E+003  0.84826937E+003  0.60872188E+004  0.11428552E+008  0.12269467E+007  0.52090895E+000  0.41160964E+000
 0.59500000E+003  0.84700664E+003  0.61137873E+004  0.11580450E+008  0.12177424E+007  0.52783240E+000  0.41834891E+000
 0.59600000E+003  0.84572337E+003  0.61406700E+004  0.11733899E+008  0.12084320E+007  0.53482650E+000  0.42519870E+000
 0.59700000E+003  0.84441883E+003  0.61678699E+004  0.11888908E+008  0.11990124E+007  0.54189178E+000  0.43216120E+000
 0.59800000E+003  0.84309222E+003  0.61953896E+004  0.12045491E+008  0.11894804E+007  0.54902876E+000  0.43923866E+000
 0.59900000E+003  0.84174269E+003  0.62232318E+004  0.12203659E+008  0.11798324E+007  0.55623798E+000  0.44643337E+000
 0.60000000E+003  0.84036938E+003  0.62513994E+004  0.12363423E+008  0.11700648E+007  0.56351996E+000  0.45374769E+000
 0.60100000E+003  0.83897132E+003  0.62798951E+004  0.12524795E+008  0.11601737E+007  0.57087524E+000  0.46118407E+000
 0.60200000E+003  0.83754753E+003  0.63087218E+004  0.12687787E+008  0.11501551E+007  0.57830437E+000  0.46874499E+000
 0.60300000E+003  0.83609694E+003  0.63378821E+004  0.12852412E+008  0.11400047E+007  0.58580788E+000  0.47643303E+000
 0.60400000E+003  0.83461840E+003  0.63673791E+004  0.13018680E+008  0.11297179E+007  0.59338633E+000  0.48425081E+000
 0.60500000E+003  0.83311073E+003  0.63972154E+004  0.13186604E+008  0.11192899E+007  0.60104026E+000  0.49220105E+000
 0.60600000E+003  0.83157261E+003  0.64273939E+004  0.13356197E+008  0.11087154E+007  0.60877023E+000  0.50028653E+000
 0.60700000E+003  0.83000267E+003  0.64579175E+004  0.13527470E+008  0.10979891E+007  0.61657680E+000  0.50851012E+000
 0.60800000E+003  0.82839942E+003  0.64887891E+004  0.13700436E+008  0.10871050E+007  0.62446051E+000  0.51687477E+000
 0.60900000E+003  0.82676128E+003  0.65200115E+004  0.13875107E+008  0.10760570E+007  0.63242195E+000  0.52538351E+000
 0.61000000E+003  0.82508653E+003  0.65515877E+004  0.14051496E+008  0.10648382E+007  0.64046168E+000  0.53403946E+000
 0.61100000E+003  0.82337332E+003  0.65835204E+004  0.14229615E+008  0.10534417E+007  0.64858027E+000  0.54284583E+000
 0.61200000E+003  0.82161967E+003  0.66158128E+004  0.14409476E+008  0.10418596E+007  0.65677829E+000  0.55180594E+000
 0.61300000E+003  0.81982340E+003  0.66484676E+004  0.14591093E+008  0.10300838E+007  0.66505633E+000  0.56092318E+000
 0.61400000E+003  0.81798220E+003  0.66814879E+004  0.14774479E+008  0.10181053E+007  0.67341496E+000  0.57020107E+000
 0.61500000E+003  0.81609350E+003  0.67148765E+004  0.14959645E+008  0.10059146E+007  0.68185477E+000  0.57964322E+000
 0.61600000E+003  0.81415454E+003  0.67486365E+004  0.15146606E+008  0.99350106E+006  0.69037636E+000  0.58925335E+000
 0.61700000E+003  0.81216229E+003  0.67827709E+004  0.15335373E+008  0.98085353E+006  0.69898031E+000  0.59903530E+000
 0.61800000E+003  0.81011343E+003  0.68172826E+004  0.15525961E+008  0.96795967E+006  0.70766723E+000  0.60899303E+000
 0.61900000E+003  0.80800430E+003  0.68521746E+004  0.15718382E+008  0.95480602E+006  0.71643772E+000  0.61913061E+000
 0.62000000E+003  0.80583086E+003  0.68874500E+004  0.15912650E+008  0.94137788E+006  0.72529237E+000  0.62945226E+000
 0.62100000E+003  0.80358868E+003  0.69231118E+004  0.16108778E+008  0.92765908E+006  0.73423182E+000  0.63996232E+000
 0.62200000E+003  0.80127278E+003  0.69591630E+004  0.16306780E+008  0.91363181E+006  0.74325665E+000  0.65066526E+000
 0.62300000E+003  0.79887763E+003  0.69956067E+004  0.16506669E+008  0.89927636E+006  0.75236750E+000  0.66156571E+000
 0.62400000E+003  0.79639705E+003  0.70324460E+004  0.16708458E+008  0.88457084E+006  0.76156499E+000  0.67266844E+000
 0.62500000E+003  0.79382406E+003  0.70696840E+004  0.16912162E+008  0.86949080E+006  0.77084974E+000  0.68397839E+000
 0.62600000E+003  0.79115076E+003  0.71073236E+004  0.17117795E+008  0.85400886E+006  0.78022238E+000  0.69550065E+000
 0.62700000E+003  0.78836818E+003  0.71453682E+004  0.17325369E+008  0.83809416E+006  0.78968355E+000  0.70724048E+000
 0.62800000E+003  0.78546602E+003  0.71838206E+004  0.17534900E+008  0.82171170E+006  0.79923388E+000  0.71920332E+000
 0.62900000E+003  0.78243242E+003  0.72226842E+004  0.17746401E+008  0.80482160E+006  0.80887403E+000  0.73139479E+000
 0.63000000E+003  0.77925361E+003  0.72619621E+004  0.17959887E+008  0.78737802E+006  0.81860463E+000  0.74382070E+000
 0.63100000E+003  0.77591346E+003  0.73016573E+004  0.18175372E+008  0.76932794E+006  0.82842634E+000  0.75648708E+000
 0.63200000E+003  0.77239290E+003  0.73417731E+004  0.18392870E+008  0.75060946E+006  0.83833981E+000  0.76940015E+000
 0.63300000E+003  0.76866913E+003  0.73823127E+004  0.18612396E+008  0.73114963E+006  0.84834571E+000  0.78256635E+000
 0.63400000E+003  0.76471460E+003  0.74232791E+004  0.18833964E+008  0.71086152E+006  0.85844470E+000  0.79599235E+000
 0.63500000E+003  0.76049557E+003  0.74646758E+004  0.19057589E+008  0.68964026E+006  0.86863746E+000  0.80968506E+000
 0.63600000E+003  0.75596999E+003  0.75065058E+004  0.19283286E+008  0.66735743E+006  0.87892464E+000  0.82365163E+000
 0.63700000E+003  0.75108459E+003  0.75487724E+004  0.19511070E+008  0.64385319E+006  0.88930695E+000  0.83789949E+000
 0.63800000E+003  0.74577032E+003  0.75914789E+004  0.19740956E+008  0.61892451E+006  0.89978505E+000  0.85243632E+000
 0.63900000E+003  0.73993533E+003  0.76346285E+004  0.19972959E+008  0.59230721E+006  0.91035964E+000  0.86727010E+000
 0.64000000E+003  0.73345350E+003  0.76782244E+004  0.20207093E+008  0.56364732E+006  0.92103141E+000  0.88240910E+000
 0.64100000E+003  0.72614446E+003  0.77222700E+004  0.20443376E+008  0.53245267E+006  0.93180105E+000  0.89786190E+000
 0.64200000E+003  0.71773644E+003  0.77667685E+004  0.20681821E+008  0.49800518E+006  0.94266928E+000  0.91363741E+000
 0.64300000E+003  0.70778996E+003  0.78117233E+004  0.20922444E+008  0.45918721E+006  0.95363680E+000  0.92974489E+000
 0.64400000E+003  0.69551829E+003  0.78571377E+004  0.21165261E+008  0.41408987E+006  0.96470432E+000  0.94619394E+000
 0.64500000E+003  0.67926894E+003  0.79030149E+004  0.21410289E+008  0.35894200E+006  0.97587257E+000  0.96299456E+000
 0.64600000E+003  0.65435866E+003  0.79493584E+004  0.21657541E+008  0.28398169E+006  0.98714226E+000  0.98015713E+000
 0.64700000E+003  0.58389312E+003  0.79961716E+004  0.21907036E+008  0.12837253E+006  0.99851412E+000  0.99769245E+000
 0.64713000E+003  0.42043538E+003  0.80022919E+004  0.21939636E+008  0.32033944E+003  0.10000000E+001  0.10000000E+001
 0.64813000E+003  0.42043538E+003  0.80496398E+004  0.22191682E+008  0.32033944E+003 NaN NaN
 0.64913000E+003  0.42043538E+003  0.80974644E+004  0.22446005E+008  0.32033944E+003 NaN NaN
 0.65013000E+003  0.42043538E+003  0.81457692E+004  0.22702621E+008  0.32033944E+003 NaN NaN
 0.65113000E+003  0.42043538E+003  0.81945576E+004  0.22961545E+008  0.32033944E+003 NaN NaN
 0.65213000E+003  0.42043538E+003  0.82438330E+004  0.23222794E+008  0.32033944E+003 NaN NaN
 0.65313000E+003  0.42043538E+003  0.82935989E+004  0.23486386E+008  0.32033944E+003 NaN NaN
 0.65413000E+003  0.42043538E+003  0.83438587E+004  0.23752336E+008  0.32033944E+003 NaN NaN
 0.65513000E+003  0.42043538E+003  0.83946158E+004  0.24020662E+008  0.32033944E+003 NaN NaN
 0.65613000E+003  0.42043538E+003  0.84458738E+004  0.24291382E+008  0.32033944E+003 NaN NaN
 0.65713000E+003  0.42043538E+003  0.84976360E+004  0.24564511E+008  0.32033944E+003 NaN NaN
 0.65813000E+003  0.42043538E+003  0.85499061E+004  0.24840067E+008  0.32033944E+003 NaN NaN
 0.65913000E+003  0.42043538E+003  0.86026875E+004  0.25118069E+008  0.32033944E+003 NaN NaN
 0.66013000E+003  0.42043538E+003  0.86559837E+004  0.25398532E+008  0.32033944E+003 NaN NaN
 0.66113000E+003  0.42043538E+003  0.87097982E+004  0.25681476E+008  0.32033944E+003 NaN NaN
 0.66213000E+003  0.42043538E+003  0.87641347E+004  0.25966917E+008  0.32033944E+003 NaN NaN
 0.66313000E+003  0.42043538E+003  0.88189967E+004  0.26254874E+008  0.32033944E+003 NaN NaN
 0.66413000E+003  0.42043538E+003  0.88743877E+004  0.26545366E+008  0.32033944E+003 NaN NaN
 0.66513000E+003  0.42043538E+003  0.89303113E+004  0.26838409E+008  0.32033944E+003 NaN NaN
 0.66613000E+003  0.42043538E+003  0.89867711E+004  0.27134022E+008  0.32033944E+003 NaN NaN
 0.66713000E+003  0.42043538E+003  0.90437707E+004  0.27432225E+008  0.32033944E+003 NaN NaN
 0.66813000E+003  0.42043538E+003  0.91013138E+004  0.27733034E+008  0.32033944E+003 NaN NaN
 0.66913000E+003  0.42043538E+003  0.91594040E+004  0.28036470E+008  0.32033944E+003 NaN NaN
 0.67013000E+003  0.42043538E+003  0.92180449E+004  0.28342552E+008  0.32033944E+003 NaN NaN
 0.67113000E+003  0.42043538E+003  0.92772401E+004  0.28651297E+008  0.32033944E+003 NaN NaN
 0.67213000E+003  0.42043538E+003  0.93369934E+004  0.28962726E+008  0.32033944E+003 NaN NaN
 0.67313000E+003  0.42043538E+003  0.93973085E+004  0.29276857E+008  0.32033944E+003 NaN NaN
 0.67413000E+003  0.42043538E+003  0.94581890E+004  0.29593711E+008  0.32033944E+003 NaN NaN
 0.67513000E+003  0.42043538E+003  0.95196386E+004  0.29913306E+008  0.32033944E+003 NaN NaN
 0.67613000E+003  0.42043538E+003  0.95816610E+004  0.30235662E+008  0.32033944E+003 NaN NaN
 0.67713000E+003  0.42043538E+003  0.96442601E+004  0.30560801E+008  0.32033944E+003 NaN NaN
 0.67813000E+003  0.42043538E+003  0.97074394E+004  0.30888740E+008  0.32033944E+003 NaN NaN
 0.67913000E+003  0.42043538E+003  0.97712029E+004  0.31219501E+008  0.32033944E+003 NaN NaN
 0.68013000E+003  0.42043538E+003  0.98355542E+004  0.31553105E+008  0.32033944E+003 NaN NaN
 0.68113000E+003  0.42043538E+003  0.99004972E+004  0.31889571E+008  0.32033944E+003 NaN NaN
 0.68213000E+003  0.42043538E+003  0.99660356E+004  0.32228920E+008  0.32033944E+003 NaN NaN
 0.68313000E+003  0.42043538E+003  0.10032173E+005  0.32571173E+008  0.32033944E+003 NaN NaN
 0.68413000E+003  0.42043538E+003  0.10098914E+005  0.32916351E+008  0.32033944E+003 NaN NaN
 0.68513000E+003  0.42043538E+003  0.10166262E+005  0.33264475E+008  0.32033944E+003 NaN NaN
 0.68613000E+003  0.42043538E+003  0.10234220E+005  0.33615567E+008  0.32033944E+003 NaN NaN
 0.68713000E+003  0.42043538E+003  0.10302793E+005  0.33969648E+008  0.32033944E+003 NaN NaN
 0.68813000E+003  0.42043538E+003  0.10371984E+005  0.34326739E+008  0.32033944E+003 NaN NaN
 0.68913000E+003  0.42043538E+003  0.10441798E+005  0.34686863E+008  0.32033944E+003 NaN NaN
 0.69013000E+003  0.42043538E+003  0.10512238E+005  0.35050042E+008  0.32033944E+003 NaN NaN
 0.69113000E+003  0.42043538E+003  0.10583308E+005  0.35416297E+008  0.32033944E+003 NaN NaN
 0.69213000E+003  0.42043538E+003  0.10655012E+005  0.35785650E+008  0.32033944E+003 NaN NaN
 0.69313000E+003  0.42043538E+003  0.10727355E+005  0.36158126E+008  0.32033944E+003 NaN NaN
 0.69413000E+003  0.42043538E+003  0.10800339E+005  0.36533745E+008  0.32033944E+003 NaN NaN
 0.69513000E+003  0.42043538E+003  0.10873969E+005  0.36912531E+008  0.32033944E+003 NaN NaN
 0.69613000E+003  0.42043538E+003  0.10948249E+005  0.37294507E+008  0.32033944E+003 NaN NaN
 0.69713000E+003  0.42043538E+003  0.11023183E+005  0.37679696E+008  0.32033944E+003 NaN NaN
