#          T [K]     rho [kg/m^3]       cp [J/kgK]        Psat [Pa]        Lv [J/kg]             Xsat       Ysat \w N2
 0.25000000E+003  0.83009023E+003  0.17470500E+004  0.69320286E+004  0.39861086E+006  0.17028037E-002  0.46141773E-002
 0.25100000E+003  0.82904336E+003  0.17516233E+004  0.72965159E+004  0.39793936E+006  0.17923374E-002  0.48560469E-002
 0.25200000E+003  0.82799381E+003  0.17562304E+004  0.76771882E+004  0.39726607E+006  0.18858469E-002  0.51085775E-002
 0.25300000E+003  0.82694158E+003  0.17608713E+004  0.80746235E+004  0.39659098E+006  0.19834740E-002  0.53721422E-002
 0.25400000E+003  0.82588664E+003  0.17655460E+004  0.84894148E+004  0.39591407E+006  0.20853646E-002  0.56471227E-002
 0.25500000E+003  0.82482898E+003  0.17702545E+004  0.89221702E+004  0.39523533E+006  0.21916679E-002  0.59339102E-002
 0.25600000E+003  0.82376856E+003  0.17749968E+004  0.93735136E+004  0.39455474E+006  0.23025372E-002  0.62329047E-002
 0.25700000E+003  0.82270538E+003  0.17797729E+004  0.98440843E+004  0.39387230E+006  0.24181296E-002  0.65445158E-002
 0.25800000E+003  0.82163942E+003  0.17845828E+004  0.10334538E+005  0.39318799E+006  0.25386060E-002  0.68691621E-002
 0.25900000E+003  0.82057064E+003  0.17894265E+004  0.10845546E+005  0.39250179E+006  0.26641315E-002  0.72072716E-002
 0.26000000E+003  0.81949904E+003  0.17943040E+004  0.11377796E+005  0.39181370E+006  0.27948749E-002  0.75592818E-002
 0.26100000E+003  0.81842459E+003  0.17992153E+004  0.11931992E+005  0.39112369E+006  0.29310094E-002  0.79256396E-002
 0.26200000E+003  0.81734726E+003  0.18041604E+004  0.12508857E+005  0.39043176E+006  0.30727121E-002  0.83068012E-002
 0.26300000E+003  0.81626704E+003  0.18091393E+004  0.13109128E+005  0.38973789E+006  0.32201644E-002  0.87032324E-002
 0.26400000E+003  0.81518391E+003  0.18141520E+004  0.13733560E+005  0.38904206E+006  0.33735518E-002  0.91154086E-002
 0.26500000E+003  0.81409784E+003  0.18191985E+004  0.14382927E+005  0.38834426E+006  0.35330642E-002  0.95438145E-002
 0.26600000E+003  0.81300881E+003  0.18242788E+004  0.15058019E+005  0.38764448E+006  0.36988956E-002  0.99889445E-002
 0.26700000E+003  0.81191680E+003  0.18293929E+004  0.15759643E+005  0.38694270E+006  0.38712447E-002  0.10451302E-001
 0.26800000E+003  0.81082178E+003  0.18345408E+004  0.16488627E+005  0.38623891E+006  0.40503144E-002  0.10931401E-001
 0.26900000E+003  0.80972373E+003  0.18397225E+004  0.17245814E+005  0.38553309E+006  0.42363121E-002  0.11429764E-001
 0.27000000E+003  0.80862263E+003  0.18449380E+004  0.18032068E+005  0.38482522E+006  0.44294497E-002  0.11946924E-001
 0.27100000E+003  0.80751845E+003  0.18501873E+004  0.18848269E+005  0.38411530E+006  0.46299437E-002  0.12483421E-001
 0.27200000E+003  0.80641118E+003  0.18554704E+004  0.19695318E+005  0.38340330E+006  0.48380153E-002  0.13039808E-001
 0.27300000E+003  0.80530077E+003  0.18607873E+004  0.20574134E+005  0.38268920E+006  0.50538902E-002  0.13616644E-001
 0.27400000E+003  0.80418722E+003  0.18661380E+004  0.21485655E+005  0.38197300E+006  0.52777988E-002  0.14214498E-001
 0.27500000E+003  0.80307049E+003  0.18715225E+004  0.22430838E+005  0.38125467E+006  0.55099764E-002  0.14833951E-001
 0.27600000E+003  0.80195056E+003  0.18769408E+004  0.23410661E+005  0.38053420E+006  0.57506629E-002  0.15475589E-001
 0.27700000E+003  0.80082741E+003  0.18823929E+004  0.24426120E+005  0.37981157E+006  0.60001032E-002  0.16140009E-001
 0.27800000E+003  0.79970100E+003  0.18878788E+004  0.25478231E+005  0.37908677E+006  0.62585470E-002  0.16827817E-001
 0.27900000E+003  0.79857131E+003  0.18933985E+004  0.26568032E+005  0.37835977E+006  0.65262489E-002  0.17539628E-001
 0.28000000E+003  0.79743832E+003  0.18989520E+004  0.27696580E+005  0.37763057E+006  0.68034685E-002  0.18276063E-001
 0.28100000E+003  0.79630199E+003  0.19045393E+004  0.28864950E+005  0.37689913E+006  0.70904705E-002  0.19037756E-001
 0.28200000E+003  0.79516230E+003  0.19101604E+004  0.30074241E+005  0.37616545E+006  0.73875243E-002  0.19825345E-001
 0.28300000E+003  0.79401922E+003  0.19158153E+004  0.31325572E+005  0.37542951E+006  0.76949048E-002  0.20639478E-001
 0.28400000E+003  0.79287272E+003  0.19215040E+004  0.32620081E+005  0.37469128E+006  0.80128918E-002  0.21480812E-001
 0.28500000E+003  0.79172278E+003  0.19272265E+004  0.33958929E+005  0.37395075E+006  0.83417703E-002  0.22350009E-001
 0.28600000E+003  0.79056936E+003  0.19329828E+004  0.35343297E+005  0.37320789E+006  0.86818304E-002  0.23247740E-001
 0.28700000E+003  0.78941244E+003  0.19387729E+004  0.36774387E+005  0.37246270E+006  0.90333677E-002  0.24174685E-001
 0.28800000E+003  0.78825199E+003  0.19445968E+004  0.38253425E+005  0.37171515E+006  0.93966828E-002  0.25131529E-001
 0.28900000E+003  0.78708796E+003  0.19504545E+004  0.39781655E+005  0.37096522E+006  0.97720818E-002  0.26118963E-001
 0.29000000E+003  0.78592034E+003  0.19563460E+004  0.41360346E+005  0.37021289E+006  0.10159876E-001  0.27137686E-001
 0.29100000E+003  0.78474910E+003  0.19622713E+004  0.42990786E+005  0.36945814E+006  0.10560382E-001  0.28188405E-001
 0.29200000E+003  0.78357420E+003  0.19682304E+004  0.44674287E+005  0.36870095E+006  0.10973922E-001  0.29271829E-001
 0.29300000E+003  0.78239560E+003  0.19742233E+004  0.46412183E+005  0.36794130E+006  0.11400824E-001  0.30388675E-001
 0.29400000E+003  0.78121328E+003  0.19802500E+004  0.48205829E+005  0.36717916E+006  0.11841420E-001  0.31539666E-001
 0.29500000E+003  0.78002721E+003  0.19863105E+004  0.50056605E+005  0.36641453E+006  0.12296050E-001  0.32725527E-001
 0.29600000E+003  0.77883734E+003  0.19924048E+004  0.51965909E+005  0.36564736E+006  0.12765057E-001  0.33946992E-001
 0.29700000E+003  0.77764365E+003  0.19985329E+004  0.53935167E+005  0.36487765E+006  0.13248792E-001  0.35204796E-001
 0.29800000E+003  0.77644611E+003  0.20046948E+004  0.55965824E+005  0.36410537E+006  0.13747608E-001  0.36499678E-001
 0.29900000E+003  0.77524467E+003  0.20108905E+004  0.58059349E+005  0.36333049E+006  0.14261868E-001  0.37832381E-001
 0.30000000E+003  0.77403930E+003  0.20171200E+004  0.60217235E+005  0.36255300E+006  0.14791937E-001  0.39203652E-001
 0.30100000E+003  0.77282996E+003  0.20233833E+004  0.62440997E+005  0.36177287E+006  0.15338188E-001  0.40614240E-001
 0.30200000E+003  0.77161663E+003  0.20296804E+004  0.64732172E+005  0.36099008E+006  0.15900999E-001  0.42064895E-001
 0.30300000E+003  0.77039925E+003  0.20360113E+004  0.67092324E+005  0.36020460E+006  0.16480754E-001  0.43556370E-001
 0.30400000E+003  0.76917780E+003  0.20423760E+004  0.69523036E+005  0.35941641E+006  0.17077841E-001  0.45089419E-001
 0.30500000E+003  0.76795224E+003  0.20487745E+004  0.72025918E+005  0.35862548E+006  0.17692656E-001  0.46664796E-001
 0.30600000E+003  0.76672252E+003  0.20552068E+004  0.74602602E+005  0.35783179E+006  0.18325601E-001  0.48283256E-001
 0.30700000E+003  0.76548861E+003  0.20616729E+004  0.77254743E+005  0.35703531E+006  0.18977080E-001  0.49945553E-001
 0.30800000E+003  0.76425046E+003  0.20681728E+004  0.79984022E+005  0.35623602E+006  0.19647508E-001  0.51652440E-001
 0.30900000E+003  0.76300805E+003  0.20747065E+004  0.82792141E+005  0.35543389E+006  0.20337303E-001  0.53404669E-001
 0.31000000E+003  0.76176132E+003  0.20812740E+004  0.85680828E+005  0.35462890E+006  0.21046888E-001  0.55202991E-001
 0.31100000E+003  0.76051023E+003  0.20878753E+004  0.88651835E+005  0.35382101E+006  0.21776695E-001  0.57048151E-001
 0.31200000E+003  0.75925474E+003  0.20945104E+004  0.91706937E+005  0.35301020E+006  0.22527159E-001  0.58940894E-001
 0.31300000E+003  0.75799481E+003  0.21011793E+004  0.94847933E+005  0.35219644E+006  0.23298723E-001  0.60881961E-001
 0.31400000E+003  0.75673040E+003  0.21078820E+004  0.98076647E+005  0.35137970E+006  0.24091833E-001  0.62872085E-001
 0.31500000E+003  0.75546145E+003  0.21146185E+004  0.10139493E+006  0.35055996E+006  0.24906946E-001  0.64911999E-001
 0.31600000E+003  0.75418793E+003  0.21213888E+004  0.10480465E+006  0.34973719E+006  0.25744519E-001  0.67002426E-001
 0.31700000E+003  0.75290979E+003  0.21281929E+004  0.10830770E+006  0.34891134E+006  0.26605019E-001  0.69144084E-001
 0.31800000E+003  0.75162697E+003  0.21350308E+004  0.11190601E+006  0.34808241E+006  0.27488918E-001  0.71337684E-001
 0.31900000E+003  0.75033944E+003  0.21419025E+004  0.11560152E+006  0.34725034E+006  0.28396694E-001  0.73583929E-001
 0.32000000E+003  0.74904715E+003  0.21488080E+004  0.11939620E+006  0.34641512E+006  0.29328831E-001  0.75883514E-001
 0.32100000E+003  0.74775004E+003  0.21557473E+004  0.12329205E+006  0.34557671E+006  0.30285819E-001  0.78237124E-001
 0.32200000E+003  0.74644807E+003  0.21627204E+004  0.12729108E+006  0.34473508E+006  0.31268153E-001  0.80645433E-001
 0.32300000E+003  0.74514118E+003  0.21697273E+004  0.13139535E+006  0.34389019E+006  0.32276336E-001  0.83109106E-001
 0.32400000E+003  0.74382932E+003  0.21767680E+004  0.13560690E+006  0.34304202E+006  0.33310875E-001  0.85628797E-001
 0.32500000E+003  0.74251245E+003  0.21838425E+004  0.13992785E+006  0.34219052E+006  0.34372286E-001  0.88205145E-001
 0.32600000E+003  0.74119050E+003  0.21909508E+004  0.14436031E+006  0.34133567E+006  0.35461087E-001  0.90838778E-001
 0.32700000E+003  0.73986342E+003  0.21980929E+004  0.14890641E+006  0.34047743E+006  0.36577806E-001  0.93530311E-001
 0.32800000E+003  0.73853116E+003  0.22052688E+004  0.15356834E+006  0.33961576E+006  0.37722974E-001  0.96280342E-001
 0.32900000E+003  0.73719366E+003  0.22124785E+004  0.15834827E+006  0.33875063E+006  0.38897130E-001  0.99089456E-001
 0.33000000E+003  0.73585087E+003  0.22197220E+004  0.16324842E+006  0.33788200E+006  0.40100818E-001  0.10195822E+000
 0.33100000E+003  0.73450272E+003  0.22269993E+004  0.16827104E+006  0.33700983E+006  0.41334590E-001  0.10488719E+000
 0.33200000E+003  0.73314915E+003  0.22343104E+004  0.17341840E+006  0.33613409E+006  0.42599001E-001  0.10787689E+000
 0.33300000E+003  0.73179011E+003  0.22416553E+004  0.17869277E+006  0.33525473E+006  0.43894614E-001  0.11092784E+000
 0.33400000E+003  0.73042553E+003  0.22490340E+004  0.18409649E+006  0.33437171E+006  0.45221998E-001  0.11404054E+000
 0.33500000E+003  0.72905535E+003  0.22564465E+004  0.18963188E+006  0.33348501E+006  0.46581729E-001  0.11721547E+000
 0.33600000E+003  0.72767951E+003  0.22638928E+004  0.19530132E+006  0.33259456E+006  0.47974386E-001  0.12045308E+000
 0.33700000E+003  0.72629794E+003  0.22713729E+004  0.20110719E+006  0.33170034E+006  0.49400556E-001  0.12375379E+000
 0.33800000E+003  0.72491058E+003  0.22788868E+004  0.20705191E+006  0.33080231E+006  0.50860834E-001  0.12711804E+000
 0.33900000E+003  0.72351735E+003  0.22864345E+004  0.21313791E+006  0.32990040E+006  0.52355818E-001  0.13054620E+000
 0.34000000E+003  0.72211819E+003  0.22940160E+004  0.21936766E+006  0.32899459E+006  0.53886113E-001  0.13403865E+000
 0.34100000E+003  0.72071304E+003  0.23016313E+004  0.22574366E+006  0.32808483E+006  0.55452330E-001  0.13759572E+000
 0.34200000E+003  0.71930180E+003  0.23092804E+004  0.23226840E+006  0.32717108E+006  0.57055087E-001  0.14121772E+000
 0.34300000E+003  0.71788443E+003  0.23169633E+004  0.23894443E+006  0.32625327E+006  0.58695006E-001  0.14490496E+000
 0.34400000E+003  0.71646083E+003  0.23246800E+004  0.24577431E+006  0.32533138E+006  0.60372718E-001  0.14865770E+000
 0.34500000E+003  0.71503094E+003  0.23324305E+004  0.25276063E+006  0.32440535E+006  0.62088858E-001  0.15247617E+000
 0.34600000E+003  0.71359467E+003  0.23402148E+004  0.25990600E+006  0.32347512E+006  0.63844067E-001  0.15636059E+000
 0.34700000E+003  0.71215195E+003  0.23480329E+004  0.26721305E+006  0.32254066E+006  0.65638992E-001  0.16031113E+000
 0.34800000E+003  0.71070270E+003  0.23558848E+004  0.27468444E+006  0.32160191E+006  0.67474287E-001  0.16432795E+000
 0.34900000E+003  0.70924684E+003  0.23637705E+004  0.28232286E+006  0.32065881E+006  0.69350610E-001  0.16841118E+000
 0.35000000E+003  0.70778428E+003  0.23716900E+004  0.29013102E+006  0.31971132E+006  0.71268628E-001  0.17256091E+000
 0.35100000E+003  0.70631493E+003  0.23796433E+004  0.29811164E+006  0.31875938E+006  0.73229012E-001  0.17677719E+000
 0.35200000E+003  0.70483872E+003  0.23876304E+004  0.30626749E+006  0.31780293E+006  0.75232438E-001  0.18106007E+000
 0.35300000E+003  0.70335554E+003  0.23956513E+004  0.31460134E+006  0.31684191E+006  0.77279590E-001  0.18540955E+000
 0.35400000E+003  0.70186532E+003  0.24037060E+004  0.32311601E+006  0.31587628E+006  0.79371157E-001  0.18982559E+000
 0.35500000E+003  0.70036795E+003  0.24117945E+004  0.33181431E+006  0.31490597E+006  0.81507834E-001  0.19430813E+000
 0.35600000E+003  0.69886335E+003  0.24199168E+004  0.34069910E+006  0.31393091E+006  0.83690321E-001  0.19885708E+000
 0.35700000E+003  0.69735141E+003  0.24280729E+004  0.34977327E+006  0.31295106E+006  0.85919325E-001  0.20347230E+000
 0.35800000E+003  0.69583204E+003  0.24362628E+004  0.35903970E+006  0.31196634E+006  0.88195558E-001  0.20815365E+000
 0.35900000E+003  0.69430514E+003  0.24444865E+004  0.36850132E+006  0.31097669E+006  0.90519739E-001  0.21290091E+000
 0.36000000E+003  0.69277060E+003  0.24527440E+004  0.37816109E+006  0.30998205E+006  0.92892592E-001  0.21771387E+000
 0.36100000E+003  0.69122831E+003  0.24610353E+004  0.38802197E+006  0.30898235E+006  0.95314847E-001  0.22259225E+000
 0.36200000E+003  0.68967818E+003  0.24693604E+004  0.39808695E+006  0.30797752E+006  0.97787239E-001  0.22753577E+000
 0.36300000E+003  0.68812008E+003  0.24777193E+004  0.40835906E+006  0.30696749E+006  0.10031051E+000  0.23254409E+000
 0.36400000E+003  0.68655391E+003  0.24861120E+004  0.41884133E+006  0.30595219E+006  0.10288541E+000  0.23761685E+000
 0.36500000E+003  0.68497955E+003  0.24945385E+004  0.42953683E+006  0.30493154E+006  0.10551268E+000  0.24275364E+000
 0.36600000E+003  0.68339689E+003  0.25029988E+004  0.44044866E+006  0.30390548E+006  0.10819309E+000  0.24795403E+000
 0.36700000E+003  0.68180579E+003  0.25114929E+004  0.45157990E+006  0.30287392E+006  0.11092740E+000  0.25321756E+000
 0.36800000E+003  0.68020614E+003  0.25200208E+004  0.46293371E+006  0.30183679E+006  0.11371639E+000  0.25854371E+000
 0.36900000E+003  0.67859782E+003  0.25285825E+004  0.47451324E+006  0.30079401E+006  0.11656082E+000  0.26393196E+000
 0.37000000E+003  0.67698068E+003  0.25371780E+004  0.48632167E+006  0.29974549E+006  0.11946147E+000  0.26938172E+000
 0.37100000E+003  0.67535460E+003  0.25458073E+004  0.49836219E+006  0.29869115E+006  0.12241914E+000  0.27489240E+000
 0.37200000E+003  0.67371945E+003  0.25544704E+004  0.51063804E+006  0.29763091E+006  0.12543462E+000  0.28046336E+000
 0.37300000E+003  0.67207507E+003  0.25631673E+004  0.52315246E+006  0.29656468E+006  0.12850869E+000  0.28609392E+000
 0.37400000E+003  0.67042134E+003  0.25718980E+004  0.53590871E+006  0.29549237E+006  0.13164218E+000  0.29178338E+000
 0.37500000E+003  0.66875810E+003  0.25806625E+004  0.54891009E+006  0.29441388E+006  0.13483588E+000  0.29753099E+000
 0.37600000E+003  0.66708520E+003  0.25894608E+004  0.56215992E+006  0.29332912E+006  0.13809060E+000  0.30333600E+000
 0.37700000E+003  0.66540249E+003  0.25982929E+004  0.57566152E+006  0.29223799E+006  0.14140717E+000  0.30919760E+000
 0.37800000E+003  0.66370981E+003  0.26071588E+004  0.58941826E+006  0.29114040E+006  0.14478642E+000  0.31511495E+000
 0.37900000E+003  0.66200700E+003  0.26160585E+004  0.60343351E+006  0.29003624E+006  0.14822917E+000  0.32108720E+000
 0.38000000E+003  0.66029389E+003  0.26249920E+004  0.61771067E+006  0.28892541E+006  0.15173625E+000  0.32711344E+000
 0.38100000E+003  0.65857030E+003  0.26339593E+004  0.63225316E+006  0.28780781E+006  0.15530851E+000  0.33319275E+000
 0.38200000E+003  0.65683607E+003  0.26429604E+004  0.64706444E+006  0.28668331E+006  0.15894679E+000  0.33932418E+000
 0.38300000E+003  0.65509102E+003  0.26519953E+004  0.66214795E+006  0.28555181E+006  0.16265195E+000  0.34550675E+000
 0.38400000E+003  0.65333495E+003  0.26610640E+004  0.67750719E+006  0.28441319E+006  0.16642484E+000  0.35173944E+000
 0.38500000E+003  0.65156768E+003  0.26701665E+004  0.69314566E+006  0.28326734E+006  0.17026632E+000  0.35802124E+000
 0.38600000E+003  0.64978901E+003  0.26793028E+004  0.70906690E+006  0.28211412E+006  0.17417726E+000  0.36435106E+000
 0.38700000E+003  0.64799873E+003  0.26884729E+004  0.72527444E+006  0.28095342E+006  0.17815853E+000  0.37072782E+000
 0.38800000E+003  0.64619665E+003  0.26976768E+004  0.74177186E+006  0.27978510E+006  0.18221100E+000  0.37715042E+000
 0.38900000E+003  0.64438255E+003  0.27069145E+004  0.75856274E+006  0.27860904E+006  0.18633556E+000  0.38361771E+000
 0.39000000E+003  0.64255621E+003  0.27161860E+004  0.77565070E+006  0.27742509E+006  0.19053310E+000  0.39012855E+000
 0.39100000E+003  0.64071739E+003  0.27254913E+004  0.79303936E+006  0.27623312E+006  0.19480450E+000  0.39668174E+000
 0.39200000E+003  0.63886588E+003  0.27348304E+004  0.81073237E+006  0.27503298E+006  0.19915066E+000  0.40327609E+000
 0.39300000E+003  0.63700143E+003  0.27442033E+004  0.82873341E+006  0.27382451E+006  0.20357249E+000  0.40991037E+000
 0.39400000E+003  0.63512378E+003  0.27536100E+004  0.84704615E+006  0.27260758E+006  0.20807089E+000  0.41658335E+000
 0.39500000E+003  0.63323269E+003  0.27630505E+004  0.86567432E+006  0.27138201E+006  0.21264676E+000  0.42329378E+000
 0.39600000E+003  0.63132790E+003  0.27725248E+004  0.88462163E+006  0.27014765E+006  0.21730104E+000  0.43004037E+000
 0.39700000E+003  0.62940912E+003  0.27820329E+004  0.90389184E+006  0.26890432E+006  0.22203463E+000  0.43682183E+000
 0.39800000E+003  0.62747609E+003  0.27915748E+004  0.92348871E+006  0.26765186E+006  0.22684846E+000  0.44363687E+000
 0.39900000E+003  0.62552850E+003  0.28011505E+004  0.94341602E+006  0.26639008E+006  0.23174346E+000  0.45048416E+000
 0.40000000E+003  0.62356607E+003  0.28107600E+004  0.96367759E+006  0.26511881E+006  0.23672057E+000  0.45736238E+000
 0.40100000E+003  0.62158848E+003  0.28204033E+004  0.98427723E+006  0.26383784E+006  0.24178073E+000  0.46427017E+000
 0.40200000E+003  0.61959541E+003  0.28300804E+004  0.10052188E+007  0.26254698E+006  0.24692487E+000  0.47120619E+000
 0.40300000E+003  0.61758653E+003  0.28397913E+004  0.10265061E+007  0.26124604E+006  0.25215395E+000  0.47816908E+000
 0.40400000E+003  0.61556150E+003  0.28495360E+004  0.10481431E+007  0.25993479E+006  0.25746893E+000  0.48515746E+000
 0.40500000E+003  0.61351997E+003  0.28593145E+004  0.10701336E+007  0.25861302E+006  0.26287075E+000  0.49216995E+000
 0.40600000E+003  0.61146157E+003  0.28691268E+004  0.10924816E+007  0.25728051E+006  0.26836037E+000  0.49920518E+000
 0.40700000E+003  0.60938591E+003  0.28789729E+004  0.11151910E+007  0.25593702E+006  0.27393878E+000  0.50626176E+000
 0.40800000E+003  0.60729261E+003  0.28888528E+004  0.11382658E+007  0.25458231E+006  0.27960693E+000  0.51333829E+000
 0.40900000E+003  0.60518125E+003  0.28987665E+004  0.11617098E+007  0.25321613E+006  0.28536579E+000  0.52043338E+000
 0.41000000E+003  0.60305142E+003  0.29087140E+004  0.11855272E+007  0.25183822E+006  0.29121636E+000  0.52754564E+000
 0.41100000E+003  0.60090266E+003  0.29186953E+004  0.12097219E+007  0.25044831E+006  0.29715960E+000  0.53467366E+000
 0.41200000E+003  0.59873453E+003  0.29287104E+004  0.12342978E+007  0.24904613E+006  0.30319652E+000  0.54181605E+000
 0.41300000E+003  0.59654655E+003  0.29387593E+004  0.12592592E+007  0.24763138E+006  0.30932809E+000  0.54897141E+000
 0.41400000E+003  0.59433822E+003  0.29488420E+004  0.12846099E+007  0.24620376E+006  0.31555532E+000  0.55613836E+000
 0.41500000E+003  0.59210903E+003  0.29589585E+004  0.13103541E+007  0.24476296E+006  0.32187920E+000  0.56331551E+000
 0.41600000E+003  0.58985844E+003  0.29691088E+004  0.13364959E+007  0.24330866E+006  0.32830075E+000  0.57050147E+000
 0.41700000E+003  0.58758590E+003  0.29792929E+004  0.13630393E+007  0.24184051E+006  0.33482095E+000  0.57769487E+000
 0.41800000E+003  0.58529082E+003  0.29895108E+004  0.13899885E+007  0.24035816E+006  0.34144084E+000  0.58489433E+000
 0.41900000E+003  0.58297260E+003  0.29997625E+004  0.14173477E+007  0.23886125E+006  0.34816141E+000  0.59209850E+000
 0.42000000E+003  0.58063059E+003  0.30100480E+004  0.14451208E+007  0.23734939E+006  0.35498370E+000  0.59930601E+000
 0.42100000E+003  0.57826415E+003  0.30203673E+004  0.14733123E+007  0.23582218E+006  0.36190872E+000  0.60651553E+000
 0.42200000E+003  0.57587258E+003  0.30307204E+004  0.15019261E+007  0.23427920E+006  0.36893750E+000  0.61372571E+000
 0.42300000E+003  0.57345515E+003  0.30411073E+004  0.15309665E+007  0.23272003E+006  0.37607107E+000  0.62093524E+000
 0.42400000E+003  0.57101110E+003  0.30515280E+004  0.15604377E+007  0.23114420E+006  0.38331047E+000  0.62814280E+000
 0.42500000E+003  0.56853965E+003  0.30619825E+004  0.15903440E+007  0.22955123E+006  0.39065673E+000  0.63534710E+000
 0.42600000E+003  0.56603995E+003  0.30724708E+004  0.16206895E+007  0.22794063E+006  0.39811089E+000  0.64254685E+000
 0.42700000E+003  0.56351113E+003  0.30829929E+004  0.16514786E+007  0.22631187E+006  0.40567401E+000  0.64974078E+000
 0.42800000E+003  0.56095228E+003  0.30935488E+004  0.16827154E+007  0.22466441E+006  0.41334712E+000  0.65692764E+000
 0.42900000E+003  0.55836243E+003  0.31041385E+004  0.17144043E+007  0.22299766E+006  0.42113128E+000  0.66410618E+000
 0.43000000E+003  0.55574056E+003  0.31147620E+004  0.17465497E+007  0.22131103E+006  0.42902755E+000  0.67127519E+000
 0.43100000E+003  0.55308560E+003  0.31254193E+004  0.17791556E+007  0.21960386E+006  0.43703698E+000  0.67843346E+000
 0.43200000E+003  0.55039642E+003  0.31361104E+004  0.18122266E+007  0.21787550E+006  0.44516063E+000  0.68557980E+000
 0.43300000E+003  0.54767182E+003  0.31468353E+004  0.18457670E+007  0.21612523E+006  0.45339958E+000  0.69271305E+000
 0.43400000E+003  0.54491055E+003  0.31575940E+004  0.18797810E+007  0.21435231E+006  0.46175489E+000  0.69983205E+000
 0.43500000E+003  0.54211127E+003  0.31683865E+004  0.19142731E+007  0.21255595E+006  0.47022763E+000  0.70693567E+000
 0.43600000E+003  0.53927256E+003  0.31792128E+004  0.19492477E+007  0.21073531E+006  0.47881888E+000  0.71402280E+000
 0.43700000E+003  0.53639293E+003  0.31900729E+004  0.19847090E+007  0.20888951E+006  0.48752971E+000  0.72109236E+000
 0.43800000E+003  0.53347078E+003  0.32009668E+004  0.20206616E+007  0.20701762E+006  0.49636121E+000  0.72814327E+000
 0.43900000E+003  0.53050441E+003  0.32118945E+004  0.20571098E+007  0.20511863E+006  0.50531446E+000  0.73517448E+000
 0.44000000E+003  0.52749202E+003  0.32228560E+004  0.20940582E+007  0.20319150E+006  0.51439055E+000  0.74218498E+000
 0.44100000E+003  0.52443167E+003  0.32338513E+004  0.21315110E+007  0.20123509E+006  0.52359057E+000  0.74917374E+000
 0.44200000E+003  0.52132132E+003  0.32448804E+004  0.21694727E+007  0.19924820E+006  0.53291561E+000  0.75613980E+000
 0.44300000E+003  0.51815874E+003  0.32559433E+004  0.22079479E+007  0.19722955E+006  0.54236677E+000  0.76308219E+000
 0.44400000E+003  0.51494158E+003  0.32670400E+004  0.22469410E+007  0.19517777E+006  0.55194514E+000  0.76999997E+000
 0.44500000E+003  0.51166729E+003  0.32781705E+004  0.22864565E+007  0.19309138E+006  0.56165184E+000  0.77689223E+000
 0.44600000E+003  0.50833313E+003  0.32893348E+004  0.23264989E+007  0.19096880E+006  0.57148796E+000  0.78375808E+000
 0.44700000E+003  0.50493615E+003  0.33005329E+004  0.23670726E+007  0.18880834E+006  0.58145461E+000  0.79059665E+000
 0.44800000E+003  0.50147315E+003  0.33117648E+004  0.24081823E+007  0.18660816E+006  0.59155291E+000  0.79740710E+000
 0.44900000E+003  0.49794068E+003  0.33230305E+004  0.24498323E+007  0.18436627E+006  0.60178396E+000  0.80418860E+000
 0.45000000E+003  0.49433497E+003  0.33343300E+004  0.24920274E+007  0.18208052E+006  0.61214888E+000  0.81094036E+000
 0.45100000E+003  0.49065192E+003  0.33456633E+004  0.25347720E+007  0.17974858E+006  0.62264878E+000  0.81766161E+000
 0.45200000E+003  0.48688705E+003  0.33570304E+004  0.25780707E+007  0.17736791E+006  0.63328480E+000  0.82435158E+000
 0.45300000E+003  0.48303547E+003  0.33684313E+004  0.26219280E+007  0.17493574E+006  0.64405804E+000  0.83100957E+000
 0.45400000E+003  0.47909176E+003  0.33798660E+004  0.26663486E+007  0.17244900E+006  0.65496964E+000  0.83763486E+000
 0.45500000E+003  0.47504999E+003  0.33913345E+004  0.27113370E+007  0.16990437E+006  0.66602073E+000  0.84422678E+000
 0.45600000E+003  0.47090357E+003  0.34028368E+004  0.27568979E+007  0.16729815E+006  0.67721243E+000  0.85078467E+000
 0.45700000E+003  0.46664516E+003  0.34143729E+004  0.28030357E+007  0.16462624E+006  0.68854587E+000  0.85730789E+000
 0.45800000E+003  0.46226658E+003  0.34259428E+004  0.28497553E+007  0.16188411E+006  0.70002220E+000  0.86379585E+000
 0.45900000E+003  0.45775867E+003  0.34375465E+004  0.28970611E+007  0.15906667E+006  0.71164254E+000  0.87024795E+000
 0.46000000E+003  0.45311106E+003  0.34491840E+004  0.29449579E+007  0.15616821E+006  0.72340804E+000  0.87666364E+000
 0.46100000E+003  0.44831202E+003  0.34608553E+004  0.29934502E+007  0.15318231E+006  0.73531983E+000  0.88304237E+000
 0.46200000E+003  0.44334816E+003  0.34725604E+004  0.30425427E+007  0.15010163E+006  0.74737907E+000  0.88938362E+000
 0.46300000E+003  0.43820408E+003  0.34842993E+004  0.30922402E+007  0.14691783E+006  0.75958689E+000  0.89568691E+000
 0.46400000E+003  0.43286197E+003  0.34960720E+004  0.31425472E+007  0.14362128E+006  0.77194444E+000  0.90195175E+000
 0.46500000E+003  0.42730104E+003  0.35078785E+004  0.31934684E+007  0.14020082E+006  0.78445288E+000  0.90817771E+000
 0.46600000E+003  0.42149677E+003  0.35197188E+004  0.32450085E+007  0.13664336E+006  0.79711335E+000  0.91436435E+000
 0.46700000E+003  0.41541996E+003  0.35315929E+004  0.32971722E+007  0.13293345E+006  0.80992700E+000  0.92051127E+000
 0.46800000E+003  0.40903541E+003  0.35435008E+004  0.33499643E+007  0.12905256E+006  0.82289500E+000  0.92661808E+000
 0.46900000E+003  0.40230007E+003  0.35554425E+004  0.34033894E+007  0.12497822E+006  0.83601849E+000  0.93268441E+000
 0.47000000E+003  0.39516044E+003  0.35674180E+004  0.34574522E+007  0.12068277E+006  0.84929864E+000  0.93870994E+000
 0.47100000E+003  0.38754873E+003  0.35794273E+004  0.35121575E+007  0.11613149E+006  0.86273661E+000  0.94469432E+000
 0.47200000E+003  0.37937707E+003  0.35914704E+004  0.35675100E+007  0.11127985E+006  0.87633355E+000  0.95063727E+000
 0.47300000E+003  0.37052838E+003  0.36035473E+004  0.36235144E+007  0.10606925E+006  0.89009063E+000  0.95653849E+000
 0.47400000E+003  0.36084110E+003  0.36156580E+004  0.36801755E+007  0.10041993E+006  0.90400903E+000  0.96239772E+000
 0.47500000E+003  0.35008234E+003  0.36278025E+004  0.37374979E+007  0.94218764E+005  0.91808989E+000  0.96821473E+000
 0.47600000E+003  0.33789608E+003  0.36399808E+004  0.37954866E+007  0.87296083E+005  0.93233440E+000  0.97398928E+000
 0.47700000E+003  0.32369212E+003  0.36521929E+004  0.38541462E+007  0.79377134E+005  0.94674371E+000  0.97972117E+000
 0.47800000E+003  0.30636517E+003  0.36644388E+004  0.39134815E+007  0.69962733E+005  0.96131901E+000  0.98541021E+000
 0.47900000E+003  0.28337070E+003  0.36767185E+004  0.39734973E+007  0.57951703E+005  0.97606146E+000  0.99105623E+000
 0.48000000E+003  0.24540103E+003  0.36890320E+004  0.40341984E+007  0.39610620E+005  0.99097224E+000  0.99665907E+000
 0.48060000E+003  0.10514101E+003  0.36964363E+004  0.40709499E+007  0.38043294E+002  0.10000000E+001  0.10000000E+001
 0.48160000E+003  0.10514101E+003  0.37088039E+004  0.41327573E+007  0.38043294E+002 NaN NaN
 0.48260000E+003  0.10514101E+003  0.37212053E+004  0.41952624E+007  0.38043294E+002 NaN NaN
 0.48360000E+003  0.10514101E+003  0.37336405E+004  0.42584700E+007  0.38043294E+002 NaN NaN
 0.48460000E+003  0.10514101E+003  0.37461094E+004  0.43223850E+007  0.38043294E+002 NaN NaN
 0.48560000E+003  0.10514101E+003  0.37586122E+004  0.43870120E+007  0.38043294E+002 NaN NaN
 0.48660000E+003  0.10514101E+003  0.37711488E+004  0.44523559E+007  0.38043294E+002 NaN NaN
 0.48760000E+003  0.10514101E+003  0.37837192E+004  0.45184216E+007  0.38043294E+002 NaN NaN
 0.48860000E+003  0.10514101E+003  0.37963234E+004  0.45852139E+007  0.38043294E+002 NaN NaN
 0.48960000E+003  0.10514101E+003  0.38089613E+004  0.46527375E+007  0.38043294E+002 NaN NaN
 0.49060000E+003  0.10514101E+003  0.38216331E+004  0.47209973E+007  0.38043294E+002 NaN NaN
 0.49160000E+003  0.10514101E+003  0.38343387E+004  0.47899982E+007  0.38043294E+002 NaN NaN
 0.49260000E+003  0.10514101E+003  0.38470781E+004  0.48597450E+007  0.38043294E+002 NaN NaN
 0.49360000E+003  0.10514101E+003  0.38598513E+004  0.49302425E+007  0.38043294E+002 NaN NaN
 0.49460000E+003  0.10514101E+003  0.38726582E+004  0.50014955E+007  0.38043294E+002 NaN NaN
 0.49560000E+003  0.10514101E+003  0.38854990E+004  0.50735089E+007  0.38043294E+002 NaN NaN
 0.49660000E+003  0.10514101E+003  0.38983736E+004  0.51462876E+007  0.38043294E+002 NaN NaN
 0.49760000E+003  0.10514101E+003  0.39112820E+004  0.52198364E+007  0.38043294E+002 NaN NaN
 0.49860000E+003  0.10514101E+003  0.39242242E+004  0.52941601E+007  0.38043294E+002 NaN NaN
 0.49960000E+003  0.10514101E+003  0.39372001E+004  0.53692637E+007  0.38043294E+002 NaN NaN
 0.50060000E+003  0.10514101E+003  0.39502099E+004  0.54451519E+007  0.38043294E+002 NaN NaN
 0.50160000E+003  0.10514101E+003  0.39632535E+004  0.55218296E+007  0.38043294E+002 NaN NaN
 0.50260000E+003  0.10514101E+003  0.39763309E+004  0.55993018E+007  0.38043294E+002 NaN NaN
 0.50360000E+003  0.10514101E+003  0.39894421E+004  0.56775731E+007  0.38043294E+002 NaN NaN
 0.50460000E+003  0.10514101E+003  0.40025870E+004  0.57566486E+007  0.38043294E+002 NaN NaN
 0.50560000E+003  0.10514101E+003  0.40157658E+004  0.58365331E+007  0.38043294E+002 NaN NaN
 0.50660000E+003  0.10514101E+003  0.40289784E+004  0.59172315E+007  0.38043294E+002 NaN NaN
 0.50760000E+003  0.10514101E+003  0.40422248E+004  0.59987486E+007  0.38043294E+002 NaN NaN
 0.50860000E+003  0.10514101E+003  0.40555050E+004  0.60810893E+007  0.38043294E+002 NaN NaN
 0.50960000E+003  0.10514101E+003  0.40688189E+004  0.61642584E+007  0.38043294E+002 NaN NaN
 0.51060000E+003  0.10514101E+003  0.40821667E+004  0.62482610E+007  0.38043294E+002 NaN NaN
 0.51160000E+003  0.10514101E+003  0.40955483E+004  0.63331017E+007  0.38043294E+002 NaN NaN
 0.51260000E+003  0.10514101E+003  0.41089637E+004  0.64187855E+007  0.38043294E+002 NaN NaN
 0.51360000E+003  0.10514101E+003  0.41224129E+004  0.65053173E+007  0.38043294E+002 NaN NaN
 0.51460000E+003  0.10514101E+003  0.41358958E+004  0.65927020E+007  0.38043294E+002 NaN NaN
 0.51560000E+003  0.10514101E+003  0.41494126E+004  0.66809444E+007  0.38043294E+002 NaN NaN
 0.51660000E+003  0.10514101E+003  0.41629632E+004  0.67700494E+007  0.38043294E+002 NaN NaN
 0.51760000E+003  0.10514101E+003  0.41765476E+004  0.68600219E+007  0.38043294E+002 NaN NaN
 0.51860000E+003  0.10514101E+003  0.41901658E+004  0.69508667E+007  0.38043294E+002 NaN NaN
 0.51960000E+003  0.10514101E+003  0.42038177E+004  0.70425888E+007  0.38043294E+002 NaN NaN
 0.52060000E+003  0.10514101E+003  0.42175035E+004  0.71351930E+007  0.38043294E+002 NaN NaN
 0.52160000E+003  0.10514101E+003  0.42312231E+004  0.72286842E+007  0.38043294E+002 NaN NaN
 0.52260000E+003  0.10514101E+003  0.42449765E+004  0.73230672E+007  0.38043294E+002 NaN NaN
 0.52360000E+003  0.10514101E+003  0.42587637E+004  0.74183470E+007  0.38043294E+002 NaN NaN
 0.52460000E+003  0.10514101E+003  0.42725846E+004  0.75145284E+007  0.38043294E+002 NaN NaN
 0.52560000E+003  0.10514101E+003  0.42864394E+004  0.76116163E+007  0.38043294E+002 NaN NaN
 0.52660000E+003  0.10514101E+003  0.43003280E+004  0.77096155E+007  0.38043294E+002 NaN NaN
 0.52760000E+003  0.10514101E+003  0.43142504E+004  0.78085310E+007  0.38043294E+002 NaN NaN
 0.52860000E+003  0.10514101E+003  0.43282066E+004  0.79083675E+007  0.38043294E+002 NaN NaN
 0.52960000E+003  0.10514101E+003  0.43421965E+004  0.80091300E+007  0.38043294E+002 NaN NaN
 0.53060000E+003  0.10514101E+003  0.43562203E+004  0.81108233E+007  0.38043294E+002 NaN NaN
