#          T [K]     rho [kg/m^3]       cp [J/kgK]        Psat [Pa]        Lv [J/kg]             Xsat       Ysat \w N2
 0.25000000E+003  0.77784671E+003  0.21127332E+004  0.11935036E+000  0.37379713E+006  0.65495880E-007  0.39844405E-006
 0.25100000E+003  0.77718173E+003  0.21138202E+004  0.13568155E+000  0.37342415E+006  0.74457943E-007  0.45296473E-006
 0.25200000E+003  0.77651616E+003  0.21149436E+004  0.15405725E+000  0.37305063E+006  0.84541977E-007  0.51431090E-006
 0.25300000E+003  0.77585000E+003  0.21161034E+004  0.17470877E+000  0.37267656E+006  0.95874908E-007  0.58325472E-006
 0.25400000E+003  0.77518325E+003  0.21172996E+004  0.19789064E+000  0.37230194E+006  0.10859642E-006  0.66064593E-006
 0.25500000E+003  0.77451592E+003  0.21185322E+004  0.22388264E+000  0.37192678E+006  0.12286004E-006  0.74741861E-006
 0.25600000E+003  0.77384798E+003  0.21198012E+004  0.25299200E+000  0.37155106E+006  0.13883438E-006  0.84459838E-006
 0.25700000E+003  0.77317945E+003  0.21211067E+004  0.28555569E+000  0.37117478E+006  0.15670435E-006  0.95331017E-006
 0.25800000E+003  0.77251033E+003  0.21224486E+004  0.32194289E+000  0.37079795E+006  0.17667255E-006  0.10747865E-005
 0.25900000E+003  0.77184059E+003  0.21238269E+004  0.36255769E+000  0.37042056E+006  0.19896073E-006  0.12103764E-005
 0.26000000E+003  0.77117026E+003  0.21252416E+004  0.40784186E+000  0.37004261E+006  0.22381132E-006  0.13615546E-005
 0.26100000E+003  0.77049932E+003  0.21266927E+004  0.45827792E+000  0.36966409E+006  0.25148911E-006  0.15299320E-005
 0.26200000E+003  0.76982776E+003  0.21281802E+004  0.51439232E+000  0.36928501E+006  0.28228300E-006  0.17172661E-005
 0.26300000E+003  0.76915560E+003  0.21297042E+004  0.57675888E+000  0.36890536E+006  0.31650788E-006  0.19254726E-005
 0.26400000E+003  0.76848282E+003  0.21312646E+004  0.64600242E+000  0.36852514E+006  0.35450665E-006  0.21566373E-005
 0.26500000E+003  0.76780943E+003  0.21328614E+004  0.72280263E+000  0.36814435E+006  0.39665229E-006  0.24130294E-005
 0.26600000E+003  0.76713541E+003  0.21344946E+004  0.80789817E+000  0.36776298E+006  0.44335016E-006  0.26971146E-005
 0.26700000E+003  0.76646077E+003  0.21361642E+004  0.90209098E+000  0.36738103E+006  0.49504034E-006  0.30115703E-005
 0.26800000E+003  0.76578551E+003  0.21378702E+004  0.10062509E+001  0.36699850E+006  0.55220018E-006  0.33593004E-005
 0.26900000E+003  0.76510962E+003  0.21396127E+004  0.11213207E+001  0.36661540E+006  0.61534700E-006  0.37434518E-005
 0.27000000E+003  0.76443310E+003  0.21413915E+004  0.12483208E+001  0.36623170E+006  0.68504084E-006  0.41674314E-005
 0.27100000E+003  0.76375595E+003  0.21432068E+004  0.13883552E+001  0.36584742E+006  0.76188750E-006  0.46349247E-005
 0.27200000E+003  0.76307816E+003  0.21450585E+004  0.15426169E+001  0.36546255E+006  0.84654167E-006  0.51499141E-005
 0.27300000E+003  0.76239973E+003  0.21469466E+004  0.17123941E+001  0.36507709E+006  0.93971024E-006  0.57166999E-005
 0.27400000E+003  0.76172066E+003  0.21488712E+004  0.18990762E+001  0.36469103E+006  0.10421558E-005  0.63399211E-005
 0.27500000E+003  0.76104095E+003  0.21508321E+004  0.21041612E+001  0.36430438E+006  0.11547003E-005  0.70245778E-005
 0.27600000E+003  0.76036059E+003  0.21528295E+004  0.23292621E+001  0.36391713E+006  0.12782288E-005  0.77760547E-005
 0.27700000E+003  0.75967959E+003  0.21548632E+004  0.25761146E+001  0.36352928E+006  0.14136940E-005  0.86001458E-005
 0.27800000E+003  0.75899793E+003  0.21569334E+004  0.28465846E+001  0.36314082E+006  0.15621198E-005  0.95030804E-005
 0.27900000E+003  0.75831561E+003  0.21590400E+004  0.31426767E+001  0.36275175E+006  0.17246062E-005  0.10491550E-004
 0.28000000E+003  0.75763264E+003  0.21611831E+004  0.34665424E+001  0.36236208E+006  0.19023340E-005  0.11572737E-004
 0.28100000E+003  0.75694901E+003  0.21633625E+004  0.38204893E+001  0.36197179E+006  0.20965694E-005  0.12754344E-004
 0.28200000E+003  0.75626471E+003  0.21655784E+004  0.42069903E+001  0.36158089E+006  0.23086694E-005  0.14044626E-004
 0.28300000E+003  0.75557975E+003  0.21678306E+004  0.46286931E+001  0.36118937E+006  0.25400872E-005  0.15452421E-004
 0.28400000E+003  0.75489412E+003  0.21701193E+004  0.50884309E+001  0.36079723E+006  0.27923775E-005  0.16987187E-004
 0.28500000E+003  0.75420782E+003  0.21724444E+004  0.55892327E+001  0.36040447E+006  0.30672024E-005  0.18659035E-004
 0.28600000E+003  0.75352084E+003  0.21748059E+004  0.61343344E+001  0.36001109E+006  0.33663378E-005  0.20478766E-004
 0.28700000E+003  0.75283318E+003  0.21772039E+004  0.67271905E+001  0.35961707E+006  0.36916793E-005  0.22457910E-004
 0.28800000E+003  0.75214485E+003  0.21796382E+004  0.73714859E+001  0.35922243E+006  0.40452492E-005  0.24608768E-004
 0.28900000E+003  0.75145582E+003  0.21821090E+004  0.80711486E+001  0.35882715E+006  0.44292030E-005  0.26944450E-004
 0.29000000E+003  0.75076612E+003  0.21846162E+004  0.88303626E+001  0.35843124E+006  0.48458368E-005  0.29478922E-004
 0.29100000E+003  0.75007572E+003  0.21871598E+004  0.96535817E+001  0.35803469E+006  0.52975946E-005  0.32227049E-004
 0.29200000E+003  0.74938462E+003  0.21897398E+004  0.10545543E+002  0.35763749E+006  0.57870760E-005  0.35204641E-004
 0.29300000E+003  0.74869283E+003  0.21923562E+004  0.11511282E+002  0.35723966E+006  0.63170443E-005  0.38428505E-004
 0.29400000E+003  0.74800035E+003  0.21950091E+004  0.12556146E+002  0.35684117E+006  0.68904344E-005  0.41916490E-004
 0.29500000E+003  0.74730716E+003  0.21976983E+004  0.13685814E+002  0.35644204E+006  0.75103620E-005  0.45687543E-004
 0.29600000E+003  0.74661326E+003  0.22004240E+004  0.14906307E+002  0.35604225E+006  0.81801317E-005  0.49761762E-004
 0.29700000E+003  0.74591865E+003  0.22031861E+004  0.16224009E+002  0.35564181E+006  0.89032468E-005  0.54160451E-004
 0.29800000E+003  0.74522334E+003  0.22059846E+004  0.17645683E+002  0.35524070E+006  0.96834187E-005  0.58906178E-004
 0.29900000E+003  0.74452730E+003  0.22088195E+004  0.19178488E+002  0.35483894E+006  0.10524576E-004  0.64022833E-004
 0.30000000E+003  0.74383055E+003  0.22116909E+004  0.20830000E+002  0.35443651E+006  0.11430876E-004  0.69535693E-004
 0.30100000E+003  0.74313307E+003  0.22145986E+004  0.22608226E+002  0.35403342E+006  0.12406713E-004  0.75471479E-004
 0.30200000E+003  0.74243488E+003  0.22175428E+004  0.24521631E+002  0.35362965E+006  0.13456732E-004  0.81858427E-004
 0.30300000E+003  0.74173595E+003  0.22205234E+004  0.26579149E+002  0.35322521E+006  0.14585836E-004  0.88726353E-004
 0.30400000E+003  0.74103629E+003  0.22235404E+004  0.28790213E+002  0.35282010E+006  0.15799201E-004  0.96106719E-004
 0.30500000E+003  0.74033589E+003  0.22265938E+004  0.31164769E+002  0.35241431E+006  0.17102286E-004  0.10403271E-003
 0.30600000E+003  0.73963476E+003  0.22296837E+004  0.33713302E+002  0.35200783E+006  0.18500844E-004  0.11253930E-003
 0.30700000E+003  0.73893288E+003  0.22328099E+004  0.36446859E+002  0.35160067E+006  0.20000938E-004  0.12166333E-003
 0.30800000E+003  0.73823026E+003  0.22359726E+004  0.39377068E+002  0.35119282E+006  0.21608948E-004  0.13144360E-003
 0.30900000E+003  0.73752688E+003  0.22391717E+004  0.42516166E+002  0.35078427E+006  0.23331590E-004  0.14192090E-003
 0.31000000E+003  0.73682276E+003  0.22424072E+004  0.45877022E+002  0.35037503E+006  0.25175926E-004  0.15313815E-003
 0.31100000E+003  0.73611788E+003  0.22456791E+004  0.49473159E+002  0.34996510E+006  0.27149379E-004  0.16514045E-003
 0.31200000E+003  0.73541224E+003  0.22489874E+004  0.53318787E+002  0.34955446E+006  0.29259743E-004  0.17797518E-003
 0.31300000E+003  0.73470583E+003  0.22523321E+004  0.57428821E+002  0.34914312E+006  0.31515206E-004  0.19169204E-003
 0.31400000E+003  0.73399866E+003  0.22557133E+004  0.61818912E+002  0.34873107E+006  0.33924355E-004  0.20634323E-003
 0.31500000E+003  0.73329072E+003  0.22591309E+004  0.66505473E+002  0.34831831E+006  0.36496199E-004  0.22198344E-003
 0.31600000E+003  0.73258200E+003  0.22625849E+004  0.71505709E+002  0.34790483E+006  0.39240178E-004  0.23867001E-003
 0.31700000E+003  0.73187251E+003  0.22660753E+004  0.76837644E+002  0.34749064E+006  0.42166183E-004  0.25646300E-003
 0.31800000E+003  0.73116223E+003  0.22696021E+004  0.82520148E+002  0.34707573E+006  0.45284570E-004  0.27542528E-003
 0.31900000E+003  0.73045117E+003  0.22731654E+004  0.88572973E+002  0.34666009E+006  0.48606177E-004  0.29562263E-003
 0.32000000E+003  0.72973932E+003  0.22767650E+004  0.95016775E+002  0.34624372E+006  0.52142342E-004  0.31712388E-003
 0.32100000E+003  0.72902667E+003  0.22804011E+004  0.10187315E+003  0.34582662E+006  0.55904914E-004  0.34000092E-003
 0.32200000E+003  0.72831323E+003  0.22840736E+004  0.10916467E+003  0.34540879E+006  0.59906280E-004  0.36432891E-003
 0.32300000E+003  0.72759899E+003  0.22877825E+004  0.11691490E+003  0.34499022E+006  0.64159373E-004  0.39018629E-003
 0.32400000E+003  0.72688394E+003  0.22915278E+004  0.12514845E+003  0.34457090E+006  0.68677697E-004  0.41765496E-003
 0.32500000E+003  0.72616808E+003  0.22953095E+004  0.13389099E+003  0.34415085E+006  0.73475339E-004  0.44682033E-003
 0.32600000E+003  0.72545141E+003  0.22991277E+004  0.14316930E+003  0.34373004E+006  0.78566993E-004  0.47777148E-003
 0.32700000E+003  0.72473393E+003  0.23029823E+004  0.15301128E+003  0.34330848E+006  0.83967976E-004  0.51060123E-003
 0.32800000E+003  0.72401562E+003  0.23068733E+004  0.16344602E+003  0.34288616E+006  0.89694246E-004  0.54540626E-003
 0.32900000E+003  0.72329649E+003  0.23108007E+004  0.17450380E+003  0.34246309E+006  0.95762424E-004  0.58228724E-003
 0.33000000E+003  0.72257653E+003  0.23147645E+004  0.18621615E+003  0.34203925E+006  0.10218981E-003  0.62134893E-003
 0.33100000E+003  0.72185573E+003  0.23187647E+004  0.19861588E+003  0.34161464E+006  0.10899441E-003  0.66270030E-003
 0.33200000E+003  0.72113410E+003  0.23228013E+004  0.21173710E+003  0.34118926E+006  0.11619494E-003  0.70645463E-003
 0.33300000E+003  0.72041163E+003  0.23268744E+004  0.22561529E+003  0.34076311E+006  0.12381087E-003  0.75272966E-003
 0.33400000E+003  0.71968831E+003  0.23309839E+004  0.24028729E+003  0.34033618E+006  0.13186242E-003  0.80164767E-003
 0.33500000E+003  0.71896414E+003  0.23351298E+004  0.25579139E+003  0.33990846E+006  0.14037060E-003  0.85333565E-003
 0.33600000E+003  0.71823912E+003  0.23393121E+004  0.27216734E+003  0.33947997E+006  0.14935723E-003  0.90792536E-003
 0.33700000E+003  0.71751324E+003  0.23435308E+004  0.28945637E+003  0.33905068E+006  0.15884493E-003  0.96555347E-003
 0.33800000E+003  0.71678650E+003  0.23477860E+004  0.30770129E+003  0.33862059E+006  0.16885719E-003  0.10263617E-002
 0.33900000E+003  0.71605889E+003  0.23520775E+004  0.32694646E+003  0.33818971E+006  0.17941836E-003  0.10904970E-002
 0.34000000E+003  0.71533040E+003  0.23564055E+004  0.34723786E+003  0.33775803E+006  0.19055367E-003  0.11581114E-002
 0.34100000E+003  0.71460104E+003  0.23607699E+004  0.36862315E+003  0.33732554E+006  0.20228927E-003  0.12293626E-002
 0.34200000E+003  0.71387080E+003  0.23651707E+004  0.39115167E+003  0.33689224E+006  0.21465225E-003  0.13044136E-002
 0.34300000E+003  0.71313968E+003  0.23696079E+004  0.41487451E+003  0.33645812E+006  0.22767063E-003  0.13834331E-002
 0.34400000E+003  0.71240766E+003  0.23740816E+004  0.43984455E+003  0.33602319E+006  0.24137343E-003  0.14665957E-002
 0.34500000E+003  0.71167475E+003  0.23785916E+004  0.46611646E+003  0.33558744E+006  0.25579066E-003  0.15540817E-002
 0.34600000E+003  0.71094094E+003  0.23831381E+004  0.49374680E+003  0.33515086E+006  0.27095336E-003  0.16460775E-002
 0.34700000E+003  0.71020623E+003  0.23877210E+004  0.52279404E+003  0.33471344E+006  0.28689361E-003  0.17427756E-002
 0.34800000E+003  0.70947061E+003  0.23923403E+004  0.55331857E+003  0.33427520E+006  0.30364455E-003  0.18443747E-002
 0.34900000E+003  0.70873407E+003  0.23969960E+004  0.58538279E+003  0.33383611E+006  0.32124043E-003  0.19510800E-002
 0.35000000E+003  0.70799662E+003  0.24016881E+004  0.61905110E+003  0.33339618E+006  0.33971658E-003  0.20631030E-002
 0.35100000E+003  0.70725825E+003  0.24064167E+004  0.65439002E+003  0.33295540E+006  0.35910951E-003  0.21806619E-002
 0.35200000E+003  0.70651894E+003  0.24111816E+004  0.69146813E+003  0.33251377E+006  0.37945686E-003  0.23039815E-002
 0.35300000E+003  0.70577870E+003  0.24159830E+004  0.73035619E+003  0.33207128E+006  0.40079746E-003  0.24332936E-002
 0.35400000E+003  0.70503753E+003  0.24208208E+004  0.77112717E+003  0.33162793E+006  0.42317134E-003  0.25688368E-002
 0.35500000E+003  0.70429541E+003  0.24256950E+004  0.81385625E+003  0.33118372E+006  0.44661977E-003  0.27108567E-002
 0.35600000E+003  0.70355234E+003  0.24306056E+004  0.85862090E+003  0.33073863E+006  0.47118527E-003  0.28596060E-002
 0.35700000E+003  0.70280832E+003  0.24355527E+004  0.90550093E+003  0.33029267E+006  0.49691161E-003  0.30153449E-002
 0.35800000E+003  0.70206335E+003  0.24405361E+004  0.95457850E+003  0.32984583E+006  0.52384391E-003  0.31783406E-002
 0.35900000E+003  0.70131740E+003  0.24455560E+004  0.10059382E+004  0.32939811E+006  0.55202855E-003  0.33488680E-002
 0.36000000E+003  0.70057049E+003  0.24506123E+004  0.10596670E+004  0.32894949E+006  0.58151330E-003  0.35272093E-002
 0.36100000E+003  0.69982261E+003  0.24557050E+004  0.11158544E+004  0.32849998E+006  0.61234727E-003  0.37136545E-002
 0.36200000E+003  0.69907374E+003  0.24608341E+004  0.11745926E+004  0.32804958E+006  0.64458099E-003  0.39085013E-002
 0.36300000E+003  0.69832390E+003  0.24659997E+004  0.12359760E+004  0.32759827E+006  0.67826636E-003  0.41120552E-002
 0.36400000E+003  0.69757306E+003  0.24712016E+004  0.13001019E+004  0.32714605E+006  0.71345675E-003  0.43246293E-002
 0.36500000E+003  0.69682122E+003  0.24764400E+004  0.13670703E+004  0.32669292E+006  0.75020698E-003  0.45465451E-002
 0.36600000E+003  0.69606839E+003  0.24817148E+004  0.14369837E+004  0.32623887E+006  0.78857333E-003  0.47781317E-002
 0.36700000E+003  0.69531454E+003  0.24870260E+004  0.15099474E+004  0.32578389E+006  0.82861362E-003  0.50197265E-002
 0.36800000E+003  0.69455969E+003  0.24923736E+004  0.15860695E+004  0.32532799E+006  0.87038715E-003  0.52716751E-002
 0.36900000E+003  0.69380381E+003  0.24977576E+004  0.16654611E+004  0.32487116E+006  0.91395482E-003  0.55343311E-002
 0.37000000E+003  0.69304691E+003  0.25031781E+004  0.17482357E+004  0.32441338E+006  0.95937905E-003  0.58080565E-002
 0.37100000E+003  0.69228899E+003  0.25086350E+004  0.18345102E+004  0.32395466E+006  0.10067239E-002  0.60932215E-002
 0.37200000E+003  0.69153002E+003  0.25141282E+004  0.19244041E+004  0.32349500E+006  0.10560549E-002  0.63902047E-002
 0.37300000E+003  0.69077002E+003  0.25196579E+004  0.20180400E+004  0.32303437E+006  0.11074395E-002  0.66993930E-002
 0.37400000E+003  0.69000896E+003  0.25252240E+004  0.21155436E+004  0.32257279E+006  0.11609466E-002  0.70211817E-002
 0.37500000E+003  0.68924686E+003  0.25308266E+004  0.22170435E+004  0.32211025E+006  0.12166467E-002  0.73559745E-002
 0.37600000E+003  0.68848369E+003  0.25364655E+004  0.23226715E+004  0.32164673E+006  0.12746121E-002  0.77041836E-002
 0.37700000E+003  0.68771946E+003  0.25421409E+004  0.24325625E+004  0.32118224E+006  0.13349170E-002  0.80662295E-002
 0.37800000E+003  0.68695416E+003  0.25478527E+004  0.25468545E+004  0.32071676E+006  0.13976369E-002  0.84425411E-002
 0.37900000E+003  0.68618778E+003  0.25536008E+004  0.26656887E+004  0.32025030E+006  0.14628496E-002  0.88335558E-002
 0.38000000E+003  0.68542031E+003  0.25593855E+004  0.27892097E+004  0.31978285E+006  0.15306342E-002  0.92397192E-002
 0.38100000E+003  0.68465175E+003  0.25652065E+004  0.29175653E+004  0.31931439E+006  0.16010719E-002  0.96614856E-002
 0.38200000E+003  0.68388210E+003  0.25710639E+004  0.30509065E+004  0.31884494E+006  0.16742455E-002  0.10099317E-001
 0.38300000E+003  0.68311134E+003  0.25769578E+004  0.31893878E+004  0.31837447E+006  0.17502399E-002  0.10553685E-001
 0.38400000E+003  0.68233947E+003  0.25828880E+004  0.33331670E+004  0.31790299E+006  0.18291415E-002  0.11025067E-001
 0.38500000E+003  0.68156649E+003  0.25888547E+004  0.34824052E+004  0.31743048E+006  0.19110390E-002  0.11513950E-001
 0.38600000E+003  0.68079238E+003  0.25948578E+004  0.36372672E+004  0.31695695E+006  0.19960226E-002  0.12020831E-001
 0.38700000E+003  0.68001714E+003  0.26008974E+004  0.37979211E+004  0.31648238E+006  0.20841846E-002  0.12546211E-001
 0.38800000E+003  0.67924077E+003  0.26069733E+004  0.39645385E+004  0.31600678E+006  0.21756192E-002  0.13090601E-001
 0.38900000E+003  0.67846325E+003  0.26130856E+004  0.41372948E+004  0.31553012E+006  0.22704226E-002  0.13654520E-001
 0.39000000E+003  0.67768458E+003  0.26192344E+004  0.43163685E+004  0.31505242E+006  0.23686929E-002  0.14238494E-001
 0.39100000E+003  0.67690476E+003  0.26254196E+004  0.45019422E+004  0.31457365E+006  0.24705301E-002  0.14843057E-001
 0.39200000E+003  0.67612376E+003  0.26316412E+004  0.46942017E+004  0.31409383E+006  0.25760364E-002  0.15468750E-001
 0.39300000E+003  0.67534160E+003  0.26378992E+004  0.48933369E+004  0.31361293E+006  0.26853158E-002  0.16116120E-001
 0.39400000E+003  0.67455826E+003  0.26441936E+004  0.50995410E+004  0.31313095E+006  0.27984744E-002  0.16785724E-001
 0.39500000E+003  0.67377373E+003  0.26505245E+004  0.53130111E+004  0.31264789E+006  0.29156203E-002  0.17478123E-001
 0.39600000E+003  0.67298800E+003  0.26568917E+004  0.55339481E+004  0.31216374E+006  0.30368639E-002  0.18193886E-001
 0.39700000E+003  0.67220108E+003  0.26632954E+004  0.57625566E+004  0.31167849E+006  0.31623173E-002  0.18933588E-001
 0.39800000E+003  0.67141295E+003  0.26697355E+004  0.59990449E+004  0.31119213E+006  0.32920950E-002  0.19697810E-001
 0.39900000E+003  0.67062360E+003  0.26762120E+004  0.62436253E+004  0.31070467E+006  0.34263134E-002  0.20487139E-001
 0.40000000E+003  0.66983303E+003  0.26827249E+004  0.64965139E+004  0.31021609E+006  0.35650910E-002  0.21302169E-001
 0.40100000E+003  0.66904122E+003  0.26892743E+004  0.67579306E+004  0.30972638E+006  0.37085486E-002  0.22143497E-001
 0.40200000E+003  0.66824818E+003  0.26958600E+004  0.70280992E+004  0.30923554E+006  0.38568090E-002  0.23011728E-001
 0.40300000E+003  0.66745389E+003  0.27024822E+004  0.73072476E+004  0.30874356E+006  0.40099972E-002  0.23907468E-001
 0.40400000E+003  0.66665835E+003  0.27091408E+004  0.75956074E+004  0.30825044E+006  0.41682403E-002  0.24831333E-001
 0.40500000E+003  0.66586154E+003  0.27158358E+004  0.78934142E+004  0.30775616E+006  0.43316678E-002  0.25783938E-001
 0.40600000E+003  0.66506346E+003  0.27225672E+004  0.82009078E+004  0.30726073E+006  0.45004110E-002  0.26765904E-001
 0.40700000E+003  0.66426410E+003  0.27293350E+004  0.85183318E+004  0.30676412E+006  0.46746037E-002  0.27777857E-001
 0.40800000E+003  0.66346345E+003  0.27361393E+004  0.88459339E+004  0.30626635E+006  0.48543818E-002  0.28820423E-001
 0.40900000E+003  0.66266151E+003  0.27429800E+004  0.91839657E+004  0.30576738E+006  0.50398835E-002  0.29894234E-001
 0.41000000E+003  0.66185826E+003  0.27498570E+004  0.95326832E+004  0.30526723E+006  0.52312492E-002  0.30999922E-001
 0.41100000E+003  0.66105370E+003  0.27567705E+004  0.98923461E+004  0.30476588E+006  0.54286213E-002  0.32138121E-001
 0.41200000E+003  0.66024782E+003  0.27637205E+004  0.10263218E+005  0.30426333E+006  0.56321449E-002  0.33309470E-001
 0.41300000E+003  0.65944060E+003  0.27707068E+004  0.10645568E+005  0.30375956E+006  0.58419669E-002  0.34514603E-001
 0.41400000E+003  0.65863205E+003  0.27777295E+004  0.11039668E+005  0.30325457E+006  0.60582368E-002  0.35754161E-001
 0.41500000E+003  0.65782215E+003  0.27847887E+004  0.11445793E+005  0.30274835E+006  0.62811062E-002  0.37028781E-001
 0.41600000E+003  0.65701089E+003  0.27918843E+004  0.11864225E+005  0.30224090E+006  0.65107291E-002  0.38339100E-001
 0.41700000E+003  0.65619827E+003  0.27990163E+004  0.12295248E+005  0.30173220E+006  0.67472616E-002  0.39685756E-001
 0.41800000E+003  0.65538427E+003  0.28061847E+004  0.12739152E+005  0.30122224E+006  0.69908623E-002  0.41069385E-001
 0.41900000E+003  0.65456888E+003  0.28133895E+004  0.13196228E+005  0.30071103E+006  0.72416921E-002  0.42490620E-001
 0.42000000E+003  0.65375210E+003  0.28206307E+004  0.13666775E+005  0.30019854E+006  0.74999139E-002  0.43950093E-001
 0.42100000E+003  0.65293392E+003  0.28279084E+004  0.14151093E+005  0.29968477E+006  0.77656934E-002  0.45448432E-001
 0.42200000E+003  0.65211432E+003  0.28352225E+004  0.14649489E+005  0.29916972E+006  0.80391981E-002  0.46986262E-001
 0.42300000E+003  0.65129330E+003  0.28425730E+004  0.15162273E+005  0.29865337E+006  0.83205984E-002  0.48564203E-001
 0.42400000E+003  0.65047085E+003  0.28499599E+004  0.15689758E+005  0.29813571E+006  0.86100665E-002  0.50182872E-001
 0.42500000E+003  0.64964695E+003  0.28573832E+004  0.16232264E+005  0.29761675E+006  0.89077772E-002  0.51842878E-001
 0.42600000E+003  0.64882160E+003  0.28648429E+004  0.16790113E+005  0.29709645E+006  0.92139077E-002  0.53544827E-001
 0.42700000E+003  0.64799479E+003  0.28723391E+004  0.17363631E+005  0.29657483E+006  0.95286375E-002  0.55289316E-001
 0.42800000E+003  0.64716651E+003  0.28798716E+004  0.17953151E+005  0.29605187E+006  0.98521482E-002  0.57076937E-001
 0.42900000E+003  0.64633674E+003  0.28874406E+004  0.18559008E+005  0.29552755E+006  0.10184624E-001  0.58908272E-001
 0.43000000E+003  0.64550547E+003  0.28950460E+004  0.19181542E+005  0.29500188E+006  0.10526252E-001  0.60783895E-001
 0.43100000E+003  0.64467270E+003  0.29026878E+004  0.19821097E+005  0.29447483E+006  0.10877220E-001  0.62704372E-001
 0.43200000E+003  0.64383842E+003  0.29103661E+004  0.20478021E+005  0.29394641E+006  0.11237721E-001  0.64670258E-001
 0.43300000E+003  0.64300261E+003  0.29180807E+004  0.21152668E+005  0.29341659E+006  0.11607946E-001  0.66682098E-001
 0.43400000E+003  0.64216526E+003  0.29258318E+004  0.21845394E+005  0.29288538E+006  0.11988094E-001  0.68740425E-001
 0.43500000E+003  0.64132636E+003  0.29336193E+004  0.22556561E+005  0.29235276E+006  0.12378361E-001  0.70845761E-001
 0.43600000E+003  0.64048590E+003  0.29414432E+004  0.23286536E+005  0.29181872E+006  0.12778949E-001  0.72998615E-001
 0.43700000E+003  0.63964387E+003  0.29493035E+004  0.24035687E+005  0.29128326E+006  0.13190061E-001  0.75199483E-001
 0.43800000E+003  0.63880026E+003  0.29572002E+004  0.24804390E+005  0.29074635E+006  0.13611902E-001  0.77448846E-001
 0.43900000E+003  0.63795505E+003  0.29651333E+004  0.25593024E+005  0.29020799E+006  0.14044680E-001  0.79747171E-001
 0.44000000E+003  0.63710823E+003  0.29731029E+004  0.26401971E+005  0.28966818E+006  0.14488606E-001  0.82094911E-001
 0.44100000E+003  0.63625980E+003  0.29811089E+004  0.27231620E+005  0.28912689E+006  0.14943892E-001  0.84492501E-001
 0.44200000E+003  0.63540974E+003  0.29891513E+004  0.28082361E+005  0.28858412E+006  0.15410753E-001  0.86940361E-001
 0.44300000E+003  0.63455803E+003  0.29972301E+004  0.28954592E+005  0.28803986E+006  0.15889407E-001  0.89438890E-001
 0.44400000E+003  0.63370467E+003  0.30053453E+004  0.29848713E+005  0.28749409E+006  0.16380074E-001  0.91988474E-001
 0.44500000E+003  0.63284963E+003  0.30134969E+004  0.30765129E+005  0.28694681E+006  0.16882975E-001  0.94589476E-001
 0.44600000E+003  0.63199292E+003  0.30216850E+004  0.31704249E+005  0.28639801E+006  0.17398336E-001  0.97242242E-001
 0.44700000E+003  0.63113452E+003  0.30299094E+004  0.32666487E+005  0.28584766E+006  0.17926383E-001  0.99947097E-001
 0.44800000E+003  0.63027441E+003  0.30381703E+004  0.33652261E+005  0.28529577E+006  0.18467346E-001  0.10270435E+000
 0.44900000E+003  0.62941258E+003  0.30464676E+004  0.34661994E+005  0.28474232E+006  0.19021457E-001  0.10551427E+000
 0.45000000E+003  0.62854901E+003  0.30548013E+004  0.35696111E+005  0.28418729E+006  0.19588950E-001  0.10837713E+000
 0.45100000E+003  0.62768370E+003  0.30631715E+004  0.36755045E+005  0.28363067E+006  0.20170061E-001  0.11129317E+000
 0.45200000E+003  0.62681663E+003  0.30715780E+004  0.37839230E+005  0.28307246E+006  0.20765029E-001  0.11426260E+000
 0.45300000E+003  0.62594779E+003  0.30800210E+004  0.38949107E+005  0.28251264E+006  0.21374096E-001  0.11728562E+000
 0.45400000E+003  0.62507715E+003  0.30885004E+004  0.40085120E+005  0.28195120E+006  0.21997505E-001  0.12036238E+000
 0.45500000E+003  0.62420472E+003  0.30970162E+004  0.41247717E+005  0.28138812E+006  0.22635504E-001  0.12349304E+000
 0.45600000E+003  0.62333046E+003  0.31055684E+004  0.42437351E+005  0.28082340E+006  0.23288339E-001  0.12667771E+000
 0.45700000E+003  0.62245438E+003  0.31141570E+004  0.43654480E+005  0.28025701E+006  0.23956262E-001  0.12991648E+000
 0.45800000E+003  0.62157645E+003  0.31227820E+004  0.44899564E+005  0.27968895E+006  0.24639527E-001  0.13320941E+000
 0.45900000E+003  0.62069666E+003  0.31314435E+004  0.46173071E+005  0.27911921E+006  0.25338389E-001  0.13655656E+000
 0.46000000E+003  0.61981499E+003  0.31401414E+004  0.47475470E+005  0.27854776E+006  0.26053107E-001  0.13995791E+000
 0.46100000E+003  0.61893143E+003  0.31488757E+004  0.48807236E+005  0.27797460E+006  0.26783940E-001  0.14341347E+000
 0.46200000E+003  0.61804597E+003  0.31576464E+004  0.50168848E+005  0.27739970E+006  0.27531151E-001  0.14692318E+000
 0.46300000E+003  0.61715858E+003  0.31664535E+004  0.51560790E+005  0.27682307E+006  0.28295007E-001  0.15048698E+000
 0.46400000E+003  0.61626925E+003  0.31752970E+004  0.52983548E+005  0.27624468E+006  0.29075774E-001  0.15410476E+000
 0.46500000E+003  0.61537796E+003  0.31841770E+004  0.54437617E+005  0.27566452E+006  0.29873723E-001  0.15777639E+000
 0.46600000E+003  0.61448471E+003  0.31930933E+004  0.55923491E+005  0.27508257E+006  0.30689126E-001  0.16150171E+000
 0.46700000E+003  0.61358947E+003  0.32020461E+004  0.57441672E+005  0.27449882E+006  0.31522258E-001  0.16528054E+000
 0.46800000E+003  0.61269222E+003  0.32110353E+004  0.58992664E+005  0.27391326E+006  0.32373396E-001  0.16911266E+000
 0.46900000E+003  0.61179294E+003  0.32200609E+004  0.60576978E+005  0.27332586E+006  0.33242819E-001  0.17299781E+000
 0.47000000E+003  0.61089163E+003  0.32291230E+004  0.62195128E+005  0.27273662E+006  0.34130811E-001  0.17693574E+000
 0.47100000E+003  0.60998826E+003  0.32382214E+004  0.63847630E+005  0.27214552E+006  0.35037655E-001  0.18092611E+000
 0.47200000E+003  0.60908282E+003  0.32473563E+004  0.65535009E+005  0.27155254E+006  0.35963638E-001  0.18496861E+000
 0.47300000E+003  0.60817528E+003  0.32565276E+004  0.67257792E+005  0.27095766E+006  0.36909048E-001  0.18906287E+000
 0.47400000E+003  0.60726564E+003  0.32657353E+004  0.69016508E+005  0.27036087E+006  0.37874179E-001  0.19320848E+000
 0.47500000E+003  0.60635386E+003  0.32749794E+004  0.70811695E+005  0.26976216E+006  0.38859323E-001  0.19740503E+000
 0.47600000E+003  0.60543993E+003  0.32842599E+004  0.72643892E+005  0.26916150E+006  0.39864778E-001  0.20165206E+000
 0.47700000E+003  0.60452383E+003  0.32935769E+004  0.74513644E+005  0.26855888E+006  0.40890841E-001  0.20594909E+000
 0.47800000E+003  0.60360555E+003  0.33029302E+004  0.76421499E+005  0.26795429E+006  0.41937815E-001  0.21029559E+000
 0.47900000E+003  0.60268506E+003  0.33123200E+004  0.78368011E+005  0.26734769E+006  0.43006002E-001  0.21469104E+000
 0.48000000E+003  0.60176234E+003  0.33217462E+004  0.80353737E+005  0.26673909E+006  0.44095708E-001  0.21913486E+000
 0.48100000E+003  0.60083738E+003  0.33312088E+004  0.82379239E+005  0.26612845E+006  0.45207243E-001  0.22362644E+000
 0.48200000E+003  0.59991014E+003  0.33407078E+004  0.84445084E+005  0.26551576E+006  0.46340916E-001  0.22816517E+000
 0.48300000E+003  0.59898062E+003  0.33502432E+004  0.86551842E+005  0.26490101E+006  0.47497042E-001  0.23275039E+000
 0.48400000E+003  0.59804879E+003  0.33598151E+004  0.88700089E+005  0.26428416E+006  0.48675935E-001  0.23738142E+000
 0.48500000E+003  0.59711462E+003  0.33694234E+004  0.90890403E+005  0.26366521E+006  0.49877913E-001  0.24205754E+000
 0.48600000E+003  0.59617810E+003  0.33790681E+004  0.93123370E+005  0.26304414E+006  0.51103298E-001  0.24677803E+000
 0.48700000E+003  0.59523921E+003  0.33887492E+004  0.95399576E+005  0.26242092E+006  0.52352411E-001  0.25154212E+000
 0.48800000E+003  0.59429791E+003  0.33984667E+004  0.97719616E+005  0.26179553E+006  0.53625579E-001  0.25634902E+000
 0.48900000E+003  0.59335420E+003  0.34082206E+004  0.10008409E+006  0.26116796E+006  0.54923129E-001  0.26119794E+000
 0.49000000E+003  0.59240804E+003  0.34180110E+004  0.10249359E+006  0.26053818E+006  0.56245391E-001  0.26608803E+000
 0.49100000E+003  0.59145941E+003  0.34278377E+004  0.10494873E+006  0.25990617E+006  0.57592698E-001  0.27101844E+000
 0.49200000E+003  0.59050830E+003  0.34377009E+004  0.10745012E+006  0.25927191E+006  0.58965384E-001  0.27598828E+000
 0.49300000E+003  0.58955466E+003  0.34476005E+004  0.10999837E+006  0.25863539E+006  0.60363788E-001  0.28099666E+000
 0.49400000E+003  0.58859848E+003  0.34575365E+004  0.11259410E+006  0.25799657E+006  0.61788249E-001  0.28604265E+000
 0.49500000E+003  0.58763974E+003  0.34675089E+004  0.11523794E+006  0.25735543E+006  0.63239110E-001  0.29112532E+000
 0.49600000E+003  0.58667841E+003  0.34775178E+004  0.11793052E+006  0.25671196E+006  0.64716715E-001  0.29624369E+000
 0.49700000E+003  0.58571446E+003  0.34875630E+004  0.12067247E+006  0.25606613E+006  0.66221413E-001  0.30139679E+000
 0.49800000E+003  0.58474786E+003  0.34976447E+004  0.12346442E+006  0.25541791E+006  0.67753552E-001  0.30658362E+000
 0.49900000E+003  0.58377860E+003  0.35077628E+004  0.12630702E+006  0.25476729E+006  0.69313486E-001  0.31180316E+000
 0.50000000E+003  0.58280663E+003  0.35179173E+004  0.12920092E+006  0.25411423E+006  0.70901569E-001  0.31705438E+000
 0.50100000E+003  0.58183194E+003  0.35281082E+004  0.13214676E+006  0.25345872E+006  0.72518158E-001  0.32233623E+000
 0.50200000E+003  0.58085450E+003  0.35383356E+004  0.13514520E+006  0.25280073E+006  0.74163613E-001  0.32764766E+000
 0.50300000E+003  0.57987427E+003  0.35485993E+004  0.13819691E+006  0.25214023E+006  0.75838298E-001  0.33298758E+000
 0.50400000E+003  0.57889123E+003  0.35588995E+004  0.14130254E+006  0.25147719E+006  0.77542576E-001  0.33835492E+000
 0.50500000E+003  0.57790536E+003  0.35692361E+004  0.14446277E+006  0.25081160E+006  0.79276815E-001  0.34374856E+000
 0.50600000E+003  0.57691661E+003  0.35796091E+004  0.14767827E+006  0.25014342E+006  0.81041385E-001  0.34916741E+000
 0.50700000E+003  0.57592495E+003  0.35900185E+004  0.15094973E+006  0.24947263E+006  0.82836660E-001  0.35461035E+000
 0.50800000E+003  0.57493037E+003  0.36004643E+004  0.15427781E+006  0.24879920E+006  0.84663013E-001  0.36007624E+000
 0.50900000E+003  0.57393282E+003  0.36109466E+004  0.15766322E+006  0.24812311E+006  0.86520823E-001  0.36556395E+000
 0.51000000E+003  0.57293227E+003  0.36214653E+004  0.16110665E+006  0.24744431E+006  0.88410470E-001  0.37107234E+000
 0.51100000E+003  0.57192870E+003  0.36320203E+004  0.16460878E+006  0.24676279E+006  0.90332338E-001  0.37660026E+000
 0.51200000E+003  0.57092206E+003  0.36426118E+004  0.16817034E+006  0.24607851E+006  0.92286811E-001  0.38214657E+000
 0.51300000E+003  0.56991232E+003  0.36532398E+004  0.17179201E+006  0.24539145E+006  0.94274279E-001  0.38771011E+000
 0.51400000E+003  0.56889946E+003  0.36639041E+004  0.17547453E+006  0.24470157E+006  0.96295132E-001  0.39328971E+000
 0.51500000E+003  0.56788342E+003  0.36746048E+004  0.17921860E+006  0.24400884E+006  0.98349763E-001  0.39888422E+000
 0.51600000E+003  0.56686418E+003  0.36853420E+004  0.18302494E+006  0.24331323E+006  0.10043857E+000  0.40449248E+000
 0.51700000E+003  0.56584171E+003  0.36961156E+004  0.18689428E+006  0.24261471E+006  0.10256195E+000  0.41011333E+000
 0.51800000E+003  0.56481595E+003  0.37069256E+004  0.19082736E+006  0.24191325E+006  0.10472030E+000  0.41574560E+000
 0.51900000E+003  0.56378688E+003  0.37177720E+004  0.19482491E+006  0.24120880E+006  0.10691404E+000  0.42138815E+000
 0.52000000E+003  0.56275446E+003  0.37286548E+004  0.19888768E+006  0.24050135E+006  0.10914356E+000  0.42703981E+000
 0.52100000E+003  0.56171865E+003  0.37395740E+004  0.20301640E+006  0.23979084E+006  0.11140928E+000  0.43269944E+000
 0.52200000E+003  0.56067940E+003  0.37505297E+004  0.20721184E+006  0.23907726E+006  0.11371161E+000  0.43836588E+000
 0.52300000E+003  0.55963668E+003  0.37615218E+004  0.21147475E+006  0.23836055E+006  0.11605097E+000  0.44403801E+000
 0.52400000E+003  0.55859044E+003  0.37725502E+004  0.21580589E+006  0.23764069E+006  0.11842776E+000  0.44971468E+000
 0.52500000E+003  0.55754065E+003  0.37836152E+004  0.22020603E+006  0.23691763E+006  0.12084243E+000  0.45539477E+000
 0.52600000E+003  0.55648726E+003  0.37947165E+004  0.22467594E+006  0.23619135E+006  0.12329538E+000  0.46107716E+000
 0.52700000E+003  0.55543021E+003  0.38058542E+004  0.22921640E+006  0.23546179E+006  0.12578705E+000  0.46676074E+000
 0.52800000E+003  0.55436948E+003  0.38170284E+004  0.23382819E+006  0.23472892E+006  0.12831786E+000  0.47244441E+000
 0.52900000E+003  0.55330501E+003  0.38282389E+004  0.23851211E+006  0.23399270E+006  0.13088826E+000  0.47812708E+000
 0.53000000E+003  0.55223676E+003  0.38394859E+004  0.24326894E+006  0.23325308E+006  0.13349866E+000  0.48380766E+000
 0.53100000E+003  0.55116468E+003  0.38507693E+004  0.24809949E+006  0.23251003E+006  0.13614952E+000  0.48948510E+000
 0.53200000E+003  0.55008872E+003  0.38620891E+004  0.25300456E+006  0.23176350E+006  0.13884128E+000  0.49515833E+000
 0.53300000E+003  0.54900882E+003  0.38734453E+004  0.25798496E+006  0.23101345E+006  0.14157437E+000  0.50082632E+000
 0.53400000E+003  0.54792495E+003  0.38848380E+004  0.26304151E+006  0.23025983E+006  0.14434925E+000  0.50648804E+000
 0.53500000E+003  0.54683704E+003  0.38962671E+004  0.26817502E+006  0.22950259E+006  0.14716637E+000  0.51214246E+000
 0.53600000E+003  0.54574504E+003  0.39077325E+004  0.27338633E+006  0.22874170E+006  0.15002618E+000  0.51778860E+000
 0.53700000E+003  0.54464891E+003  0.39192344E+004  0.27867627E+006  0.22797710E+006  0.15292914E+000  0.52342546E+000
 0.53800000E+003  0.54354857E+003  0.39307727E+004  0.28404568E+006  0.22720874E+006  0.15587571E+000  0.52905208E+000
 0.53900000E+003  0.54244399E+003  0.39423475E+004  0.28949539E+006  0.22643657E+006  0.15886635E+000  0.53466750E+000
 0.54000000E+003  0.54133509E+003  0.39539586E+004  0.29502627E+006  0.22566054E+006  0.16190152E+000  0.54027080E+000
 0.54100000E+003  0.54022182E+003  0.39656062E+004  0.30063917E+006  0.22488060E+006  0.16498171E+000  0.54586104E+000
 0.54200000E+003  0.53910413E+003  0.39772901E+004  0.30633494E+006  0.22409670E+006  0.16810738E+000  0.55143733E+000
 0.54300000E+003  0.53798194E+003  0.39890105E+004  0.31211447E+006  0.22330878E+006  0.17127901E+000  0.55699878E+000
 0.54400000E+003  0.53685519E+003  0.40007673E+004  0.31797861E+006  0.22251678E+006  0.17449708E+000  0.56254453E+000
 0.54500000E+003  0.53572382E+003  0.40125605E+004  0.32392826E+006  0.22172065E+006  0.17776206E+000  0.56807373E+000
 0.54600000E+003  0.53458777E+003  0.40243902E+004  0.32996429E+006  0.22092033E+006  0.18107446E+000  0.57358555E+000
 0.54700000E+003  0.53344695E+003  0.40362562E+004  0.33608761E+006  0.22011576E+006  0.18443475E+000  0.57907918E+000
 0.54800000E+003  0.53230132E+003  0.40481587E+004  0.34229910E+006  0.21930688E+006  0.18784343E+000  0.58455383E+000
 0.54900000E+003  0.53115079E+003  0.40600976E+004  0.34859968E+006  0.21849363E+006  0.19130100E+000  0.59000874E+000
 0.55000000E+003  0.52999529E+003  0.40720729E+004  0.35499026E+006  0.21767594E+006  0.19480795E+000  0.59544314E+000
 0.55100000E+003  0.52883475E+003  0.40840846E+004  0.36147175E+006  0.21685374E+006  0.19836480E+000  0.60085630E+000
 0.55200000E+003  0.52766908E+003  0.40961327E+004  0.36804509E+006  0.21602697E+006  0.20197205E+000  0.60624752E+000
 0.55300000E+003  0.52649822E+003  0.41082173E+004  0.37471119E+006  0.21519557E+006  0.20563021E+000  0.61161611E+000
 0.55400000E+003  0.52532208E+003  0.41203382E+004  0.38147101E+006  0.21435945E+006  0.20933979E+000  0.61696138E+000
 0.55500000E+003  0.52414058E+003  0.41324956E+004  0.38832548E+006  0.21351855E+006  0.21310131E+000  0.62228268E+000
 0.55600000E+003  0.52295364E+003  0.41446894E+004  0.39527555E+006  0.21267279E+006  0.21691531E+000  0.62757940E+000
 0.55700000E+003  0.52176116E+003  0.41569196E+004  0.40232219E+006  0.21182211E+006  0.22078229E+000  0.63285090E+000
 0.55800000E+003  0.52056306E+003  0.41691862E+004  0.40946636E+006  0.21096640E+006  0.22470280E+000  0.63809660E+000
 0.55900000E+003  0.51935925E+003  0.41814893E+004  0.41670903E+006  0.21010561E+006  0.22867736E+000  0.64331593E+000
 0.56000000E+003  0.51814963E+003  0.41938287E+004  0.42405119E+006  0.20923965E+006  0.23270651E+000  0.64850834E+000
 0.56100000E+003  0.51693411E+003  0.42062046E+004  0.43149382E+006  0.20836843E+006  0.23679080E+000  0.65367328E+000
 0.56200000E+003  0.51571259E+003  0.42186169E+004  0.43903791E+006  0.20749186E+006  0.24093077E+000  0.65881026E+000
 0.56300000E+003  0.51448497E+003  0.42310656E+004  0.44668446E+006  0.20660986E+006  0.24512697E+000  0.66391877E+000
 0.56400000E+003  0.51325115E+003  0.42435507E+004  0.45443449E+006  0.20572233E+006  0.24937995E+000  0.66899835E+000
 0.56500000E+003  0.51201100E+003  0.42560723E+004  0.46228902E+006  0.20482919E+006  0.25369028E+000  0.67404854E+000
 0.56600000E+003  0.51076444E+003  0.42686302E+004  0.47024905E+006  0.20393033E+006  0.25805850E+000  0.67906890E+000
 0.56700000E+003  0.50951134E+003  0.42812246E+004  0.47831564E+006  0.20302566E+006  0.26248520E+000  0.68405901E+000
 0.56800000E+003  0.50825158E+003  0.42938554E+004  0.48648981E+006  0.20211507E+006  0.26697094E+000  0.68901850E+000
 0.56900000E+003  0.50698505E+003  0.43065226E+004  0.49477262E+006  0.20119846E+006  0.27151630E+000  0.69394696E+000
 0.57000000E+003  0.50571162E+003  0.43192262E+004  0.50316512E+006  0.20027572E+006  0.27612185E+000  0.69884405E+000
 0.57100000E+003  0.50443116E+003  0.43319662E+004  0.51166838E+006  0.19934674E+006  0.28078818E+000  0.70370942E+000
 0.57200000E+003  0.50314355E+003  0.43447427E+004  0.52028346E+006  0.19841140E+006  0.28551588E+000  0.70854275E+000
 0.57300000E+003  0.50184865E+003  0.43575555E+004  0.52901145E+006  0.19746959E+006  0.29030553E+000  0.71334373E+000
 0.57400000E+003  0.50054632E+003  0.43704048E+004  0.53785343E+006  0.19652118E+006  0.29515775E+000  0.71811208E+000
 0.57500000E+003  0.49923641E+003  0.43832905E+004  0.54681051E+006  0.19556605E+006  0.30007312E+000  0.72284752E+000
 0.57600000E+003  0.49791878E+003  0.43962126E+004  0.55588378E+006  0.19460407E+006  0.30505226E+000  0.72754981E+000
 0.57700000E+003  0.49659327E+003  0.44091711E+004  0.56507436E+006  0.19363510E+006  0.31009578E+000  0.73221869E+000
 0.57800000E+003  0.49525973E+003  0.44221661E+004  0.57438338E+006  0.19265902E+006  0.31520429E+000  0.73685396E+000
 0.57900000E+003  0.49391800E+003  0.44351974E+004  0.58381197E+006  0.19167567E+006  0.32037841E+000  0.74145541E+000
 0.58000000E+003  0.49256789E+003  0.44482652E+004  0.59336126E+006  0.19068490E+006  0.32561877E+000  0.74602285E+000
 0.58100000E+003  0.49120924E+003  0.44613694E+004  0.60303241E+006  0.18968657E+006  0.33092601E+000  0.75055610E+000
 0.58200000E+003  0.48984188E+003  0.44745100E+004  0.61282658E+006  0.18868053E+006  0.33630075E+000  0.75505501E+000
 0.58300000E+003  0.48846560E+003  0.44876870E+004  0.62274493E+006  0.18766659E+006  0.34174364E+000  0.75951943E+000
 0.58400000E+003  0.48708023E+003  0.45009005E+004  0.63278864E+006  0.18664461E+006  0.34725533E+000  0.76394924E+000
 0.58500000E+003  0.48568555E+003  0.45141503E+004  0.64295890E+006  0.18561440E+006  0.35283646E+000  0.76834432E+000
 0.58600000E+003  0.48428136E+003  0.45274366E+004  0.65325691E+006  0.18457579E+006  0.35848770E+000  0.77270457E+000
 0.58700000E+003  0.48286746E+003  0.45407593E+004  0.66368387E+006  0.18352858E+006  0.36420970E+000  0.77702991E+000
 0.58800000E+003  0.48144360E+003  0.45541184E+004  0.67424100E+006  0.18247259E+006  0.37000313E+000  0.78132026E+000
 0.58900000E+003  0.48000957E+003  0.45675139E+004  0.68492952E+006  0.18140761E+006  0.37586867E+000  0.78557555E+000
 0.59000000E+003  0.47856511E+003  0.45809458E+004  0.69575068E+006  0.18033343E+006  0.38180700E+000  0.78979575E+000
 0.59100000E+003  0.47710999E+003  0.45944142E+004  0.70670571E+006  0.17924985E+006  0.38781879E+000  0.79398082E+000
 0.59200000E+003  0.47564395E+003  0.46079189E+004  0.71779588E+006  0.17815662E+006  0.39390474E+000  0.79813073E+000
 0.59300000E+003  0.47416671E+003  0.46214601E+004  0.72902245E+006  0.17705353E+006  0.40006555E+000  0.80224548E+000
 0.59400000E+003  0.47267799E+003  0.46350377E+004  0.74038671E+006  0.17594032E+006  0.40630191E+000  0.80632506E+000
 0.59500000E+003  0.47117750E+003  0.46486517E+004  0.75188993E+006  0.17481675E+006  0.41261453E+000  0.81036947E+000
 0.59600000E+003  0.46966493E+003  0.46623022E+004  0.76353342E+006  0.17368254E+006  0.41900413E+000  0.81437876E+000
 0.59700000E+003  0.46813997E+003  0.46759890E+004  0.77531850E+006  0.17253743E+006  0.42547142E+000  0.81835294E+000
 0.59800000E+003  0.46660230E+003  0.46897123E+004  0.78724647E+006  0.17138113E+006  0.43201713E+000  0.82229205E+000
 0.59900000E+003  0.46505155E+003  0.47034719E+004  0.79931869E+006  0.17021335E+006  0.43864200E+000  0.82619616E+000
 0.60000000E+003  0.46348737E+003  0.47172680E+004  0.81153648E+006  0.16903376E+006  0.44534676E+000  0.83006532E+000
 0.60100000E+003  0.46190938E+003  0.47311005E+004  0.82390121E+006  0.16784204E+006  0.45213215E+000  0.83389960E+000
 0.60200000E+003  0.46031719E+003  0.47449694E+004  0.83641424E+006  0.16663786E+006  0.45899892E+000  0.83769908E+000
 0.60300000E+003  0.45871039E+003  0.47588748E+004  0.84907696E+006  0.16542085E+006  0.46594784E+000  0.84146384E+000
 0.60400000E+003  0.45708853E+003  0.47728165E+004  0.86189075E+006  0.16419064E+006  0.47297966E+000  0.84519400E+000
 0.60500000E+003  0.45545116E+003  0.47867947E+004  0.87485702E+006  0.16294685E+006  0.48009516E+000  0.84888964E+000
 0.60600000E+003  0.45379781E+003  0.48008093E+004  0.88797719E+006  0.16168905E+006  0.48729511E+000  0.85255088E+000
 0.60700000E+003  0.45212797E+003  0.48148603E+004  0.90125268E+006  0.16041683E+006  0.49458030E+000  0.85617784E+000
 0.60800000E+003  0.45044112E+003  0.48289477E+004  0.91468494E+006  0.15912972E+006  0.50195152E+000  0.85977064E+000
 0.60900000E+003  0.44873669E+003  0.48430715E+004  0.92827542E+006  0.15782724E+006  0.50940957E+000  0.86332943E+000
 0.61000000E+003  0.44701411E+003  0.48572318E+004  0.94202558E+006  0.15650890E+006  0.51695524E+000  0.86685433E+000
 0.61100000E+003  0.44527274E+003  0.48714285E+004  0.95593691E+006  0.15517417E+006  0.52458936E+000  0.87034550E+000
 0.61200000E+003  0.44351195E+003  0.48856615E+004  0.97001089E+006  0.15382248E+006  0.53231274E+000  0.87380308E+000
 0.61300000E+003  0.44173103E+003  0.48999310E+004  0.98424905E+006  0.15245325E+006  0.54012621E+000  0.87722724E+000
 0.61400000E+003  0.43992926E+003  0.49142370E+004  0.99865288E+006  0.15106585E+006  0.54803060E+000  0.88061814E+000
 0.61500000E+003  0.43810586E+003  0.49285793E+004  0.10132239E+007  0.14965961E+006  0.55602675E+000  0.88397594E+000
 0.61600000E+003  0.43626000E+003  0.49429580E+004  0.10279638E+007  0.14823384E+006  0.56411552E+000  0.88730083E+000
 0.61700000E+003  0.43439081E+003  0.49573732E+004  0.10428739E+007  0.14678778E+006  0.57229777E+000  0.89059297E+000
 0.61800000E+003  0.43249735E+003  0.49718248E+004  0.10579560E+007  0.14532065E+006  0.58057434E+000  0.89385256E+000
 0.61900000E+003  0.43057863E+003  0.49863128E+004  0.10732115E+007  0.14383159E+006  0.58894613E+000  0.89707978E+000
 0.62000000E+003  0.42863359E+003  0.50008372E+004  0.10886422E+007  0.14231972E+006  0.59741401E+000  0.90027481E+000
 0.62100000E+003  0.42666108E+003  0.50153980E+004  0.11042495E+007  0.14078405E+006  0.60597886E+000  0.90343787E+000
 0.62200000E+003  0.42465989E+003  0.50299952E+004  0.11200353E+007  0.13922356E+006  0.61464159E+000  0.90656915E+000
 0.62300000E+003  0.42262871E+003  0.50446289E+004  0.11360010E+007  0.13763713E+006  0.62340310E+000  0.90966884E+000
 0.62400000E+003  0.42056613E+003  0.50592989E+004  0.11521484E+007  0.13602359E+006  0.63226430E+000  0.91273716E+000
 0.62500000E+003  0.41847063E+003  0.50740054E+004  0.11684791E+007  0.13438165E+006  0.64122613E+000  0.91577432E+000
 0.62600000E+003  0.41634057E+003  0.50887483E+004  0.11849949E+007  0.13270991E+006  0.65028949E+000  0.91878052E+000
 0.62700000E+003  0.41417417E+003  0.51035277E+004  0.12016975E+007  0.13100689E+006  0.65945535E+000  0.92175599E+000
 0.62800000E+003  0.41196949E+003  0.51183434E+004  0.12185885E+007  0.12927097E+006  0.66872464E+000  0.92470093E+000
 0.62900000E+003  0.40972443E+003  0.51331955E+004  0.12356698E+007  0.12750037E+006  0.67809833E+000  0.92761558E+000
 0.63000000E+003  0.40743670E+003  0.51480841E+004  0.12529431E+007  0.12569316E+006  0.68757738E+000  0.93050016E+000
 0.63100000E+003  0.40510378E+003  0.51630091E+004  0.12704101E+007  0.12384726E+006  0.69716276E+000  0.93335488E+000
 0.63200000E+003  0.40272289E+003  0.51779705E+004  0.12880727E+007  0.12196034E+006  0.70685546E+000  0.93617997E+000
 0.63300000E+003  0.40029099E+003  0.51929683E+004  0.13059327E+007  0.12002985E+006  0.71665648E+000  0.93897566E+000
 0.63400000E+003  0.39780470E+003  0.52080025E+004  0.13239919E+007  0.11805300E+006  0.72656682E+000  0.94174219E+000
 0.63500000E+003  0.39526026E+003  0.52230732E+004  0.13422521E+007  0.11602666E+006  0.73658749E+000  0.94447978E+000
 0.63600000E+003  0.39265348E+003  0.52381802E+004  0.13607153E+007  0.11394736E+006  0.74671952E+000  0.94718866E+000
 0.63700000E+003  0.38997965E+003  0.52533237E+004  0.13793832E+007  0.11181121E+006  0.75696393E+000  0.94986907E+000
 0.63800000E+003  0.38723347E+003  0.52685036E+004  0.13982579E+007  0.10961382E+006  0.76732178E+000  0.95252124E+000
 0.63900000E+003  0.38440890E+003  0.52837199E+004  0.14173412E+007  0.10735025E+006  0.77779411E+000  0.95514541E+000
 0.64000000E+003  0.38149907E+003  0.52989726E+004  0.14366350E+007  0.10501485E+006  0.78838200E+000  0.95774181E+000
 0.64100000E+003  0.37849608E+003  0.53142618E+004  0.14561414E+007  0.10260115E+006  0.79908650E+000  0.96031069E+000
 0.64200000E+003  0.37539074E+003  0.53295873E+004  0.14758623E+007  0.10010168E+006  0.80990871E+000  0.96285227E+000
 0.64300000E+003  0.37217235E+003  0.53449493E+004  0.14957996E+007  0.97507717E+005  0.82084973E+000  0.96536680E+000
 0.64400000E+003  0.36882825E+003  0.53603477E+004  0.15159555E+007  0.94809018E+005  0.83191065E+000  0.96785451E+000
 0.64500000E+003  0.36534332E+003  0.53757825E+004  0.15363318E+007  0.91993384E+005  0.84309260E+000  0.97031564E+000
 0.64600000E+003  0.36169927E+003  0.53912537E+004  0.15569308E+007  0.89046125E+005  0.85439670E+000  0.97275044E+000
 0.64700000E+003  0.35787365E+003  0.54067613E+004  0.15777545E+007  0.85949283E+005  0.86582410E+000  0.97515913E+000
 0.64800000E+003  0.35383842E+003  0.54223054E+004  0.15988049E+007  0.82680539E+005  0.87737593E+000  0.97754196E+000
 0.64900000E+003  0.34955778E+003  0.54378859E+004  0.16200842E+007  0.79211584E+005  0.88905337E+000  0.97989916E+000
 0.65000000E+003  0.34498494E+003  0.54535027E+004  0.16415945E+007  0.75505631E+005  0.90085759E+000  0.98223098E+000
 0.65100000E+003  0.34005681E+003  0.54691560E+004  0.16633380E+007  0.71513434E+005  0.91278977E+000  0.98453765E+000
 0.65200000E+003  0.33468493E+003  0.54848458E+004  0.16853169E+007  0.67166545E+005  0.92485110E+000  0.98681941E+000
 0.65300000E+003  0.32873889E+003  0.55005719E+004  0.17075333E+007  0.62365052E+005  0.93704281E+000  0.98907649E+000
 0.65400000E+003  0.32201280E+003  0.55163344E+004  0.17299895E+007  0.56953095E+005  0.94936610E+000  0.99130913E+000
 0.65500000E+003  0.31414757E+003  0.55321334E+004  0.17526878E+007  0.50663011E+005  0.96182221E+000  0.99351757E+000
 0.65600000E+003  0.30440945E+003  0.55479688E+004  0.17756303E+007  0.42959114E+005  0.97441239E+000  0.99570204E+000
 0.65700000E+003  0.29076352E+003  0.55638406E+004  0.17988195E+007  0.32403603E+005  0.98713790E+000  0.99786277E+000
 0.65800000E+003  0.23876308E+003  0.55797488E+004  0.18222575E+007  0.18034907E+002  0.10000000E+001  0.10000000E+001
 0.65900000E+003  0.23876308E+003  0.55956934E+004  0.18459468E+007  0.18034907E+002 NaN NaN
 0.66000000E+003  0.23876308E+003  0.56116744E+004  0.18698898E+007  0.18034907E+002 NaN NaN
 0.66100000E+003  0.23876308E+003  0.56276919E+004  0.18940887E+007  0.18034907E+002 NaN NaN
 0.66200000E+003  0.23876308E+003  0.56437458E+004  0.19185461E+007  0.18034907E+002 NaN NaN
 0.66300000E+003  0.23876308E+003  0.56598361E+004  0.19432643E+007  0.18034907E+002 NaN NaN
 0.66400000E+003  0.23876308E+003  0.56759628E+004  0.19682458E+007  0.18034907E+002 NaN NaN
 0.66500000E+003  0.23876308E+003  0.56921259E+004  0.19934932E+007  0.18034907E+002 NaN NaN
 0.66600000E+003  0.23876308E+003  0.57083254E+004  0.20190088E+007  0.18034907E+002 NaN NaN
 0.66700000E+003  0.23876308E+003  0.57245614E+004  0.20447953E+007  0.18034907E+002 NaN NaN
 0.66800000E+003  0.23876308E+003  0.57408337E+004  0.20708553E+007  0.18034907E+002 NaN NaN
 0.66900000E+003  0.23876308E+003  0.57571425E+004  0.20971912E+007  0.18034907E+002 NaN NaN
 0.67000000E+003  0.23876308E+003  0.57734877E+004  0.21238058E+007  0.18034907E+002 NaN NaN
 0.67100000E+003  0.23876308E+003  0.57898693E+004  0.21507017E+007  0.18034907E+002 NaN NaN
 0.67200000E+003  0.23876308E+003  0.58062874E+004  0.21778815E+007  0.18034907E+002 NaN NaN
 0.67300000E+003  0.23876308E+003  0.58227418E+004  0.22053480E+007  0.18034907E+002 NaN NaN
 0.67400000E+003  0.23876308E+003  0.58392327E+004  0.22331038E+007  0.18034907E+002 NaN NaN
 0.67500000E+003  0.23876308E+003  0.58557599E+004  0.22611518E+007  0.18034907E+002 NaN NaN
 0.67600000E+003  0.23876308E+003  0.58723236E+004  0.22894947E+007  0.18034907E+002 NaN NaN
 0.67700000E+003  0.23876308E+003  0.58889237E+004  0.23181354E+007  0.18034907E+002 NaN NaN
 0.67800000E+003  0.23876308E+003  0.59055603E+004  0.23470767E+007  0.18034907E+002 NaN NaN
 0.67900000E+003  0.23876308E+003  0.59222332E+004  0.23763214E+007  0.18034907E+002 NaN NaN
 0.68000000E+003  0.23876308E+003  0.59389426E+004  0.24058725E+007  0.18034907E+002 NaN NaN
 0.68100000E+003  0.23876308E+003  0.59556883E+004  0.24357329E+007  0.18034907E+002 NaN NaN
 0.68200000E+003  0.23876308E+003  0.59724705E+004  0.24659057E+007  0.18034907E+002 NaN NaN
 0.68300000E+003  0.23876308E+003  0.59892891E+004  0.24963937E+007  0.18034907E+002 NaN NaN
 0.68400000E+003  0.23876308E+003  0.60061442E+004  0.25272000E+007  0.18034907E+002 NaN NaN
 0.68500000E+003  0.23876308E+003  0.60230356E+004  0.25583277E+007  0.18034907E+002 NaN NaN
 0.68600000E+003  0.23876308E+003  0.60399634E+004  0.25897798E+007  0.18034907E+002 NaN NaN
 0.68700000E+003  0.23876308E+003  0.60569277E+004  0.26215596E+007  0.18034907E+002 NaN NaN
 0.68800000E+003  0.23876308E+003  0.60739284E+004  0.26536702E+007  0.18034907E+002 NaN NaN
 0.68900000E+003  0.23876308E+003  0.60909655E+004  0.26861147E+007  0.18034907E+002 NaN NaN
 0.69000000E+003  0.23876308E+003  0.61080390E+004  0.27188964E+007  0.18034907E+002 NaN NaN
 0.69100000E+003  0.23876308E+003  0.61251489E+004  0.27520186E+007  0.18034907E+002 NaN NaN
 0.69200000E+003  0.23876308E+003  0.61422953E+004  0.27854846E+007  0.18034907E+002 NaN NaN
 0.69300000E+003  0.23876308E+003  0.61594781E+004  0.28192976E+007  0.18034907E+002 NaN NaN
 0.69400000E+003  0.23876308E+003  0.61766972E+004  0.28534612E+007  0.18034907E+002 NaN NaN
 0.69500000E+003  0.23876308E+003  0.61939528E+004  0.28879787E+007  0.18034907E+002 NaN NaN
 0.69600000E+003  0.23876308E+003  0.62112448E+004  0.29228535E+007  0.18034907E+002 NaN NaN
 0.69700000E+003  0.23876308E+003  0.62285733E+004  0.29580891E+007  0.18034907E+002 NaN NaN
 0.69800000E+003  0.23876308E+003  0.62459381E+004  0.29936891E+007  0.18034907E+002 NaN NaN
 0.69900000E+003  0.23876308E+003  0.62633394E+004  0.30296569E+007  0.18034907E+002 NaN NaN
 0.70000000E+003  0.23876308E+003  0.62807770E+004  0.30659963E+007  0.18034907E+002 NaN NaN
 0.70100000E+003  0.23876308E+003  0.62982511E+004  0.31027108E+007  0.18034907E+002 NaN NaN
 0.70200000E+003  0.23876308E+003  0.63157616E+004  0.31398042E+007  0.18034907E+002 NaN NaN
 0.70300000E+003  0.23876308E+003  0.63333086E+004  0.31772801E+007  0.18034907E+002 NaN NaN
 0.70400000E+003  0.23876308E+003  0.63508919E+004  0.32151423E+007  0.18034907E+002 NaN NaN
 0.70500000E+003  0.23876308E+003  0.63685117E+004  0.32533946E+007  0.18034907E+002 NaN NaN
 0.70600000E+003  0.23876308E+003  0.63861678E+004  0.32920409E+007  0.18034907E+002 NaN NaN
 0.70700000E+003  0.23876308E+003  0.64038604E+004  0.33310850E+007  0.18034907E+002 NaN NaN
 0.70800000E+003  0.23876308E+003  0.64215894E+004  0.33705308E+007  0.18034907E+002 NaN NaN
