#          T [K]     rho [kg/m^3]       cp [J/kgK]        Psat [Pa]        Lv [J/kg]             Xsat       Ysat \w N2
 0.25000000E+003  0.72077216E+003  0.20937804E+004  0.31133845E+003  0.39220709E+006  0.11449672E-003  0.40963796E-003
 0.25100000E+003  0.71998588E+003  0.20961741E+004  0.33581056E+003  0.39168222E+006  0.12349650E-003  0.44182644E-003
 0.25200000E+003  0.71919850E+003  0.20985953E+004  0.36194786E+003  0.39115624E+006  0.13310866E-003  0.47620352E-003
 0.25300000E+003  0.71841002E+003  0.21010441E+004  0.38984480E+003  0.39062914E+006  0.14336794E-003  0.51289310E-003
 0.25400000E+003  0.71762044E+003  0.21035204E+004  0.41960005E+003  0.39010091E+006  0.15431062E-003  0.55202454E-003
 0.25500000E+003  0.71682973E+003  0.21060242E+004  0.45131653E+003  0.38957156E+006  0.16597456E-003  0.59373279E-003
 0.25600000E+003  0.71603791E+003  0.21085553E+004  0.48510158E+003  0.38904106E+006  0.17839923E-003  0.63815853E-003
 0.25700000E+003  0.71524497E+003  0.21111139E+004  0.52106711E+003  0.38850942E+006  0.19162579E-003  0.68544836E-003
 0.25800000E+003  0.71445089E+003  0.21136997E+004  0.55932966E+003  0.38797664E+006  0.20569709E-003  0.73575493E-003
 0.25900000E+003  0.71365567E+003  0.21163128E+004  0.60001057E+003  0.38744269E+006  0.22065775E-003  0.78923709E-003
 0.26000000E+003  0.71285930E+003  0.21189530E+004  0.64323609E+003  0.38690758E+006  0.23655422E-003  0.84606006E-003
 0.26100000E+003  0.71206178E+003  0.21216204E+004  0.68913749E+003  0.38637131E+006  0.25343475E-003  0.90639557E-003
 0.26200000E+003  0.71126310E+003  0.21243148E+004  0.73785123E+003  0.38583385E+006  0.27134954E-003  0.97042204E-003
 0.26300000E+003  0.71046325E+003  0.21270362E+004  0.78951903E+003  0.38529521E+006  0.29035071E-003  0.10383247E-002
 0.26400000E+003  0.70966224E+003  0.21297846E+004  0.84428803E+003  0.38475538E+006  0.31049237E-003  0.11102958E-002
 0.26500000E+003  0.70886004E+003  0.21325598E+004  0.90231092E+003  0.38421436E+006  0.33183066E-003  0.11865345E-002
 0.26600000E+003  0.70805665E+003  0.21353617E+004  0.96374604E+003  0.38367213E+006  0.35442382E-003  0.12672476E-002
 0.26700000E+003  0.70725207E+003  0.21381904E+004  0.10287575E+004  0.38312868E+006  0.37833220E-003  0.13526491E-002
 0.26800000E+003  0.70644629E+003  0.21410456E+004  0.10975154E+004  0.38258402E+006  0.40361835E-003  0.14429605E-002
 0.26900000E+003  0.70563930E+003  0.21439274E+004  0.11701957E+004  0.38203813E+006  0.43034701E-003  0.15384112E-002
 0.27000000E+003  0.70483110E+003  0.21468357E+004  0.12469807E+004  0.38149101E+006  0.45858519E-003  0.16392383E-002
 0.27100000E+003  0.70402167E+003  0.21497703E+004  0.13280590E+004  0.38094265E+006  0.48840224E-003  0.17456869E-002
 0.27200000E+003  0.70321101E+003  0.21527312E+004  0.14136253E+004  0.38039304E+006  0.51986983E-003  0.18580103E-002
 0.27300000E+003  0.70239911E+003  0.21557182E+004  0.15038813E+004  0.37984218E+006  0.55306204E-003  0.19764701E-002
 0.27400000E+003  0.70158597E+003  0.21587313E+004  0.15990349E+004  0.37929005E+006  0.58805541E-003  0.21013360E-002
 0.27500000E+003  0.70077158E+003  0.21617705E+004  0.16993011E+004  0.37873665E+006  0.62492894E-003  0.22328866E-002
 0.27600000E+003  0.69995592E+003  0.21648355E+004  0.18049016E+004  0.37818197E+006  0.66376419E-003  0.23714088E-002
 0.27700000E+003  0.69913900E+003  0.21679263E+004  0.19160651E+004  0.37762600E+006  0.70464528E-003  0.25171984E-002
 0.27800000E+003  0.69832080E+003  0.21710428E+004  0.20330274E+004  0.37706874E+006  0.74765894E-003  0.26705600E-002
 0.27900000E+003  0.69750132E+003  0.21741848E+004  0.21560318E+004  0.37651018E+006  0.79289458E-003  0.28318073E-002
 0.28000000E+003  0.69668055E+003  0.21773524E+004  0.22853285E+004  0.37595031E+006  0.84044429E-003  0.30012629E-002
 0.28100000E+003  0.69585847E+003  0.21805453E+004  0.24211756E+004  0.37538912E+006  0.89040291E-003  0.31792586E-002
 0.28200000E+003  0.69503509E+003  0.21837634E+004  0.25638383E+004  0.37482660E+006  0.94286807E-003  0.33661355E-002
 0.28300000E+003  0.69421039E+003  0.21870068E+004  0.27135900E+004  0.37426275E+006  0.99794021E-003  0.35622440E-002
 0.28400000E+003  0.69338437E+003  0.21902751E+004  0.28707114E+004  0.37369755E+006  0.10557226E-002  0.37679439E-002
 0.28500000E+003  0.69255701E+003  0.21935684E+004  0.30354914E+004  0.37313101E+006  0.11163215E-002  0.39836045E-002
 0.28600000E+003  0.69172831E+003  0.21968865E+004  0.32082267E+004  0.37256310E+006  0.11798460E-002  0.42096048E-002
 0.28700000E+003  0.69089826E+003  0.22002292E+004  0.33892221E+004  0.37199382E+006  0.12464083E-002  0.44463331E-002
 0.28800000E+003  0.69006685E+003  0.22035965E+004  0.35787908E+004  0.37142317E+006  0.13161234E-002  0.46941877E-002
 0.28900000E+003  0.68923408E+003  0.22069883E+004  0.37772539E+004  0.37085112E+006  0.13891095E-002  0.49535764E-002
 0.29000000E+003  0.68839993E+003  0.22104044E+004  0.39849413E+004  0.37027769E+006  0.14654878E-002  0.52249169E-002
 0.29100000E+003  0.68756439E+003  0.22138446E+004  0.42021909E+004  0.36970285E+006  0.15453828E-002  0.55086364E-002
 0.29200000E+003  0.68672746E+003  0.22173090E+004  0.44293496E+004  0.36912659E+006  0.16289218E-002  0.58051721E-002
 0.29300000E+003  0.68588913E+003  0.22207973E+004  0.46667725E+004  0.36854891E+006  0.17162357E-002  0.61149711E-002
 0.29400000E+003  0.68504938E+003  0.22243094E+004  0.49148238E+004  0.36796980E+006  0.18074581E-002  0.64384901E-002
 0.29500000E+003  0.68420821E+003  0.22278451E+004  0.51738763E+004  0.36738925E+006  0.19027264E-002  0.67761956E-002
 0.29600000E+003  0.68336561E+003  0.22314045E+004  0.54443118E+004  0.36680725E+006  0.20021807E-002  0.71285640E-002
 0.29700000E+003  0.68252157E+003  0.22349872E+004  0.57265208E+004  0.36622379E+006  0.21059649E-002  0.74960813E-002
 0.29800000E+003  0.68167608E+003  0.22385932E+004  0.60209031E+004  0.36563885E+006  0.22142259E-002  0.78792432E-002
 0.29900000E+003  0.68082912E+003  0.22422224E+004  0.63278675E+004  0.36505244E+006  0.23271141E-002  0.82785553E-002
 0.30000000E+003  0.67998070E+003  0.22458746E+004  0.66478320E+004  0.36446454E+006  0.24447830E-002  0.86945324E-002
 0.30100000E+003  0.67913080E+003  0.22495497E+004  0.69812237E+004  0.36387514E+006  0.25673900E-002  0.91276992E-002
 0.30200000E+003  0.67827941E+003  0.22532475E+004  0.73284791E+004  0.36328422E+006  0.26950954E-002  0.95785895E-002
 0.30300000E+003  0.67742652E+003  0.22569679E+004  0.76900441E+004  0.36269179E+006  0.28280633E-002  0.10047747E-001
 0.30400000E+003  0.67657211E+003  0.22607108E+004  0.80663740E+004  0.36209783E+006  0.29664610E-002  0.10535723E-001
 0.30500000E+003  0.67571619E+003  0.22644760E+004  0.84579334E+004  0.36150232E+006  0.31104595E-002  0.11043080E-001
 0.30600000E+003  0.67485874E+003  0.22682633E+004  0.88651965E+004  0.36090526E+006  0.32602331E-002  0.11570389E-001
 0.30700000E+003  0.67399974E+003  0.22720728E+004  0.92886472E+004  0.36030664E+006  0.34159599E-002  0.12118229E-001
 0.30800000E+003  0.67313919E+003  0.22759041E+004  0.97287788E+004  0.35970645E+006  0.35778211E-002  0.12687187E-001
 0.30900000E+003  0.67227708E+003  0.22797571E+004  0.10186094E+005  0.35910468E+006  0.37460019E-002  0.13277862E-001
 0.31000000E+003  0.67141339E+003  0.22836318E+004  0.10661107E+005  0.35850130E+006  0.39206907E-002  0.13890856E-001
 0.31100000E+003  0.67054812E+003  0.22875279E+004  0.11154338E+005  0.35789633E+006  0.41020798E-002  0.14526783E-001
 0.31200000E+003  0.66968125E+003  0.22914454E+004  0.11666321E+005  0.35728973E+006  0.42903648E-002  0.15186264E-001
 0.31300000E+003  0.66881277E+003  0.22953840E+004  0.12197597E+005  0.35668151E+006  0.44857450E-002  0.15869928E-001
 0.31400000E+003  0.66794268E+003  0.22993436E+004  0.12748719E+005  0.35607164E+006  0.46884235E-002  0.16578410E-001
 0.31500000E+003  0.66707095E+003  0.23033241E+004  0.13320247E+005  0.35546012E+006  0.48986067E-002  0.17312352E-001
 0.31600000E+003  0.66619758E+003  0.23073254E+004  0.13912754E+005  0.35484694E+006  0.51165048E-002  0.18072406E-001
 0.31700000E+003  0.66532255E+003  0.23113473E+004  0.14526820E+005  0.35423208E+006  0.53423317E-002  0.18859227E-001
 0.31800000E+003  0.66444586E+003  0.23153895E+004  0.15163037E+005  0.35361554E+006  0.55763047E-002  0.19673478E-001
 0.31900000E+003  0.66356749E+003  0.23194521E+004  0.15822007E+005  0.35299729E+006  0.58186450E-002  0.20515827E-001
 0.32000000E+003  0.66268743E+003  0.23235349E+004  0.16504340E+005  0.35237733E+006  0.60695774E-002  0.21386948E-001
 0.32100000E+003  0.66180566E+003  0.23276376E+004  0.17210657E+005  0.35175564E+006  0.63293302E-002  0.22287522E-001
 0.32200000E+003  0.66092218E+003  0.23317602E+004  0.17941590E+005  0.35113222E+006  0.65981355E-002  0.23218232E-001
 0.32300000E+003  0.66003697E+003  0.23359025E+004  0.18697780E+005  0.35050704E+006  0.68762290E-002  0.24179767E-001
 0.32400000E+003  0.65915001E+003  0.23400643E+004  0.19479876E+005  0.34988010E+006  0.71638500E-002  0.25172820E-001
 0.32500000E+003  0.65826131E+003  0.23442456E+004  0.20288541E+005  0.34925139E+006  0.74612416E-002  0.26198088E-001
 0.32600000E+003  0.65737083E+003  0.23484461E+004  0.21124444E+005  0.34862088E+006  0.77686504E-002  0.27256270E-001
 0.32700000E+003  0.65647857E+003  0.23526658E+004  0.21988267E+005  0.34798857E+006  0.80863268E-002  0.28348069E-001
 0.32800000E+003  0.65558452E+003  0.23569044E+004  0.22880700E+005  0.34735444E+006  0.84145247E-002  0.29474190E-001
 0.32900000E+003  0.65468865E+003  0.23611619E+004  0.23802443E+005  0.34671848E+006  0.87535018E-002  0.30635339E-001
 0.33000000E+003  0.65379097E+003  0.23654380E+004  0.24754207E+005  0.34608067E+006  0.91035193E-002  0.31832225E-001
 0.33100000E+003  0.65289145E+003  0.23697327E+004  0.25736713E+005  0.34544100E+006  0.94648419E-002  0.33065558E-001
 0.33200000E+003  0.65199007E+003  0.23740458E+004  0.26750689E+005  0.34479946E+006  0.98377384E-002  0.34336045E-001
 0.33300000E+003  0.65108683E+003  0.23783772E+004  0.27796877E+005  0.34415603E+006  0.10222481E-001  0.35644397E-001
 0.33400000E+003  0.65018171E+003  0.23827266E+004  0.28876026E+005  0.34351070E+006  0.10619345E-001  0.36991322E-001
 0.33500000E+003  0.64927470E+003  0.23870940E+004  0.29988895E+005  0.34286345E+006  0.11028609E-001  0.38377527E-001
 0.33600000E+003  0.64836577E+003  0.23914793E+004  0.31136254E+005  0.34221426E+006  0.11450558E-001  0.39803717E-001
 0.33700000E+003  0.64745492E+003  0.23958822E+004  0.32318881E+005  0.34156313E+006  0.11885477E-001  0.41270595E-001
 0.33800000E+003  0.64654214E+003  0.24003028E+004  0.33537566E+005  0.34091003E+006  0.12333656E-001  0.42778861E-001
 0.33900000E+003  0.64562739E+003  0.24047407E+004  0.34793107E+005  0.34025495E+006  0.12795389E-001  0.44329210E-001
 0.34000000E+003  0.64471067E+003  0.24091959E+004  0.36086312E+005  0.33959788E+006  0.13270974E-001  0.45922335E-001
 0.34100000E+003  0.64379197E+003  0.24136682E+004  0.37417997E+005  0.33893879E+006  0.13760710E-001  0.47558921E-001
 0.34200000E+003  0.64287126E+003  0.24181576E+004  0.38788991E+005  0.33827768E+006  0.14264902E-001  0.49239651E-001
 0.34300000E+003  0.64194853E+003  0.24226638E+004  0.40200131E+005  0.33761452E+006  0.14783857E-001  0.50965199E-001
 0.34400000E+003  0.64102376E+003  0.24271868E+004  0.41652261E+005  0.33694930E+006  0.15317887E-001  0.52736232E-001
 0.34500000E+003  0.64009694E+003  0.24317264E+004  0.43146238E+005  0.33628200E+006  0.15867307E-001  0.54553412E-001
 0.34600000E+003  0.63916805E+003  0.24362825E+004  0.44682927E+005  0.33561261E+006  0.16432434E-001  0.56417389E-001
 0.34700000E+003  0.63823707E+003  0.24408549E+004  0.46263201E+005  0.33494110E+006  0.17013590E-001  0.58328807E-001
 0.34800000E+003  0.63730399E+003  0.24454436E+004  0.47887945E+005  0.33426746E+006  0.17611100E-001  0.60288299E-001
 0.34900000E+003  0.63636878E+003  0.24500484E+004  0.49558052E+005  0.33359168E+006  0.18225293E-001  0.62296488E-001
 0.35000000E+003  0.63543143E+003  0.24546693E+004  0.51274422E+005  0.33291373E+006  0.18856499E-001  0.64353986E-001
 0.35100000E+003  0.63449192E+003  0.24593059E+004  0.53037968E+005  0.33223359E+006  0.19505055E-001  0.66461393E-001
 0.35200000E+003  0.63355024E+003  0.24639584E+004  0.54849609E+005  0.33155125E+006  0.20171297E-001  0.68619296E-001
 0.35300000E+003  0.63260636E+003  0.24686265E+004  0.56710276E+005  0.33086668E+006  0.20855569E-001  0.70828269E-001
 0.35400000E+003  0.63166026E+003  0.24733101E+004  0.58620905E+005  0.33017987E+006  0.21558216E-001  0.73088873E-001
 0.35500000E+003  0.63071192E+003  0.24780091E+004  0.60582445E+005  0.32949081E+006  0.22279585E-001  0.75401653E-001
 0.35600000E+003  0.62976133E+003  0.24827235E+004  0.62595852E+005  0.32879946E+006  0.23020028E-001  0.77767140E-001
 0.35700000E+003  0.62880847E+003  0.24874531E+004  0.64662090E+005  0.32810581E+006  0.23779900E-001  0.80185847E-001
 0.35800000E+003  0.62785331E+003  0.24921978E+004  0.66782133E+005  0.32740984E+006  0.24559560E-001  0.82658271E-001
 0.35900000E+003  0.62689584E+003  0.24969575E+004  0.68956964E+005  0.32671152E+006  0.25359368E-001  0.85184893E-001
 0.36000000E+003  0.62593603E+003  0.25017321E+004  0.71187573E+005  0.32601085E+006  0.26179689E-001  0.87766175E-001
 0.36100000E+003  0.62497386E+003  0.25065215E+004  0.73474961E+005  0.32530779E+006  0.27020890E-001  0.90402558E-001
 0.36200000E+003  0.62400932E+003  0.25113256E+004  0.75820135E+005  0.32460232E+006  0.27883343E-001  0.93094465E-001
 0.36300000E+003  0.62304238E+003  0.25161444E+004  0.78224113E+005  0.32389443E+006  0.28767422E-001  0.95842301E-001
 0.36400000E+003  0.62207301E+003  0.25209777E+004  0.80687919E+005  0.32318409E+006  0.29673502E-001  0.98646446E-001
 0.36500000E+003  0.62110120E+003  0.25258255E+004  0.83212588E+005  0.32247128E+006  0.30601966E-001  0.10150726E+000
 0.36600000E+003  0.62012692E+003  0.25306877E+004  0.85799161E+005  0.32175597E+006  0.31553194E-001  0.10442508E+000
 0.36700000E+003  0.61915016E+003  0.25355643E+004  0.88448689E+005  0.32103814E+006  0.32527575E-001  0.10740023E+000
 0.36800000E+003  0.61817088E+003  0.25404550E+004  0.91162229E+005  0.32031778E+006  0.33525497E-001  0.11043299E+000
 0.36900000E+003  0.61718907E+003  0.25453600E+004  0.93940848E+005  0.31959485E+006  0.34547352E-001  0.11352364E+000
 0.37000000E+003  0.61620469E+003  0.25502790E+004  0.96785622E+005  0.31886932E+006  0.35593536E-001  0.11667241E+000
 0.37100000E+003  0.61521773E+003  0.25552122E+004  0.99697632E+005  0.31814119E+006  0.36664447E-001  0.11987953E+000
 0.37200000E+003  0.61422816E+003  0.25601593E+004  0.10267797E+006  0.31741042E+006  0.37760485E-001  0.12314518E+000
 0.37300000E+003  0.61323596E+003  0.25651204E+004  0.10572773E+006  0.31667698E+006  0.38882055E-001  0.12646954E+000
 0.37400000E+003  0.61224109E+003  0.25700953E+004  0.10884803E+006  0.31594085E+006  0.40029565E-001  0.12985274E+000
 0.37500000E+003  0.61124354E+003  0.25750842E+004  0.11203997E+006  0.31520201E+006  0.41203423E-001  0.13329490E+000
 0.37600000E+003  0.61024327E+003  0.25800869E+004  0.11530469E+006  0.31446042E+006  0.42404042E-001  0.13679609E+000
 0.37700000E+003  0.60924027E+003  0.25851034E+004  0.11864330E+006  0.31371607E+006  0.43631838E-001  0.14035639E+000
 0.37800000E+003  0.60823450E+003  0.25901336E+004  0.12205695E+006  0.31296892E+006  0.44887230E-001  0.14397581E+000
 0.37900000E+003  0.60722594E+003  0.25951776E+004  0.12554678E+006  0.31221894E+006  0.46170638E-001  0.14765436E+000
 0.38000000E+003  0.60621455E+003  0.26002353E+004  0.12911395E+006  0.31146611E+006  0.47482486E-001  0.15139201E+000
 0.38100000E+003  0.60520031E+003  0.26053068E+004  0.13275961E+006  0.31071040E+006  0.48823201E-001  0.15518869E+000
 0.38200000E+003  0.60418319E+003  0.26103920E+004  0.13648493E+006  0.30995178E+006  0.50193214E-001  0.15904433E+000
 0.38300000E+003  0.60316317E+003  0.26154909E+004  0.14029110E+006  0.30919022E+006  0.51592954E-001  0.16295880E+000
 0.38400000E+003  0.60214020E+003  0.26206035E+004  0.14417928E+006  0.30842568E+006  0.53022859E-001  0.16693195E+000
 0.38500000E+003  0.60111426E+003  0.26257298E+004  0.14815067E+006  0.30765815E+006  0.54483365E-001  0.17096361E+000
 0.38600000E+003  0.60008533E+003  0.26308699E+004  0.15220648E+006  0.30688758E+006  0.55974913E-001  0.17505357E+000
 0.38700000E+003  0.59905335E+003  0.26360238E+004  0.15634789E+006  0.30611395E+006  0.57497945E-001  0.17920160E+000
 0.38800000E+003  0.59801832E+003  0.26411915E+004  0.16057613E+006  0.30533722E+006  0.59052908E-001  0.18340741E+000
 0.38900000E+003  0.59698019E+003  0.26463731E+004  0.16489242E+006  0.30455736E+006  0.60640250E-001  0.18767071E+000
 0.39000000E+003  0.59593892E+003  0.26515686E+004  0.16929797E+006  0.30377434E+006  0.62260421E-001  0.19199117E+000
 0.39100000E+003  0.59489450E+003  0.26567780E+004  0.17379403E+006  0.30298812E+006  0.63913875E-001  0.19636843E+000
 0.39200000E+003  0.59384687E+003  0.26620015E+004  0.17838183E+006  0.30219867E+006  0.65601069E-001  0.20080210E+000
 0.39300000E+003  0.59279601E+003  0.26672391E+004  0.18306263E+006  0.30140595E+006  0.67322460E-001  0.20529176E+000
 0.39400000E+003  0.59174188E+003  0.26724908E+004  0.18783766E+006  0.30060993E+006  0.69078511E-001  0.20983696E+000
 0.39500000E+003  0.59068445E+003  0.26777568E+004  0.19270821E+006  0.29981056E+006  0.70869686E-001  0.21443720E+000
 0.39600000E+003  0.58962367E+003  0.26830372E+004  0.19767553E+006  0.29900783E+006  0.72696450E-001  0.21909199E+000
 0.39700000E+003  0.58855951E+003  0.26883321E+004  0.20274090E+006  0.29820167E+006  0.74559272E-001  0.22380078E+000
 0.39800000E+003  0.58749194E+003  0.26936415E+004  0.20790560E+006  0.29739207E+006  0.76458625E-001  0.22856301E+000
 0.39900000E+003  0.58642090E+003  0.26989656E+004  0.21317093E+006  0.29657897E+006  0.78394983E-001  0.23337806E+000
 0.40000000E+003  0.58534637E+003  0.27043046E+004  0.21853817E+006  0.29576234E+006  0.80368821E-001  0.23824533E+000
 0.40100000E+003  0.58426830E+003  0.27096586E+004  0.22400864E+006  0.29494214E+006  0.82380620E-001  0.24316414E+000
 0.40200000E+003  0.58318666E+003  0.27150277E+004  0.22958363E+006  0.29411832E+006  0.84430860E-001  0.24813382E+000
 0.40300000E+003  0.58210139E+003  0.27204121E+004  0.23526447E+006  0.29329085E+006  0.86520027E-001  0.25315366E+000
 0.40400000E+003  0.58101246E+003  0.27258120E+004  0.24105249E+006  0.29245967E+006  0.88648606E-001  0.25822293E+000
 0.40500000E+003  0.57991982E+003  0.27312277E+004  0.24694900E+006  0.29162476E+006  0.90817086E-001  0.26334085E+000
 0.40600000E+003  0.57882343E+003  0.27366592E+004  0.25295535E+006  0.29078605E+006  0.93025960E-001  0.26850665E+000
 0.40700000E+003  0.57772324E+003  0.27421068E+004  0.25907288E+006  0.28994351E+006  0.95275722E-001  0.27371950E+000
 0.40800000E+003  0.57661921E+003  0.27475707E+004  0.26530295E+006  0.28909709E+006  0.97566868E-001  0.27897857E+000
 0.40900000E+003  0.57551129E+003  0.27530513E+004  0.27164690E+006  0.28824675E+006  0.99899897E-001  0.28428301E+000
 0.41000000E+003  0.57439943E+003  0.27585486E+004  0.27810610E+006  0.28739242E+006  0.10227531E+000  0.28963192E+000
 0.41100000E+003  0.57328359E+003  0.27640631E+004  0.28468193E+006  0.28653407E+006  0.10469361E+000  0.29502440E+000
 0.41200000E+003  0.57216370E+003  0.27695950E+004  0.29137576E+006  0.28567165E+006  0.10715531E+000  0.30045953E+000
 0.41300000E+003  0.57103973E+003  0.27751445E+004  0.29818897E+006  0.28480510E+006  0.10966092E+000  0.30593635E+000
 0.41400000E+003  0.56991161E+003  0.27807121E+004  0.30512296E+006  0.28393436E+006  0.11221093E+000  0.31145389E+000
 0.41500000E+003  0.56877930E+003  0.27862980E+004  0.31217912E+006  0.28305940E+006  0.11480588E+000  0.31701118E+000
 0.41600000E+003  0.56764275E+003  0.27919027E+004  0.31935886E+006  0.28218015E+006  0.11744628E+000  0.32260719E+000
 0.41700000E+003  0.56650189E+003  0.27975264E+004  0.32666360E+006  0.28129655E+006  0.12013264E+000  0.32824092E+000
 0.41800000E+003  0.56535666E+003  0.28031696E+004  0.33409474E+006  0.28040855E+006  0.12286549E+000  0.33391131E+000
 0.41900000E+003  0.56420702E+003  0.28088326E+004  0.34165371E+006  0.27951610E+006  0.12564535E+000  0.33961732E+000
 0.42000000E+003  0.56305290E+003  0.28145160E+004  0.34934195E+006  0.27861912E+006  0.12847275E+000  0.34535787E+000
 0.42100000E+003  0.56189425E+003  0.28202201E+004  0.35716090E+006  0.27771757E+006  0.13134822E+000  0.35113188E+000
 0.42200000E+003  0.56073099E+003  0.28259455E+004  0.36511199E+006  0.27681137E+006  0.13427229E+000  0.35693825E+000
 0.42300000E+003  0.55956307E+003  0.28316925E+004  0.37319669E+006  0.27590048E+006  0.13724549E+000  0.36277587E+000
 0.42400000E+003  0.55839042E+003  0.28374618E+004  0.38141645E+006  0.27498481E+006  0.14026836E+000  0.36864362E+000
 0.42500000E+003  0.55721298E+003  0.28432539E+004  0.38977274E+006  0.27406430E+006  0.14334144E+000  0.37454037E+000
 0.42600000E+003  0.55603068E+003  0.28490694E+004  0.39826704E+006  0.27313889E+006  0.14646527E+000  0.38046497E+000
 0.42700000E+003  0.55484344E+003  0.28549088E+004  0.40690082E+006  0.27220851E+006  0.14964040E+000  0.38641628E+000
 0.42800000E+003  0.55365121E+003  0.28607728E+004  0.41567557E+006  0.27127309E+006  0.15286737E+000  0.39239314E+000
 0.42900000E+003  0.55245390E+003  0.28666620E+004  0.42459279E+006  0.27033255E+006  0.15614673E+000  0.39839438E+000
 0.43000000E+003  0.55125144E+003  0.28725771E+004  0.43365398E+006  0.26938681E+006  0.15947905E+000  0.40441884E+000
 0.43100000E+003  0.55004376E+003  0.28785188E+004  0.44286065E+006  0.26843581E+006  0.16286486E+000  0.41046535E+000
 0.43200000E+003  0.54883077E+003  0.28844879E+004  0.45221432E+006  0.26747947E+006  0.16630473E+000  0.41653272E+000
 0.43300000E+003  0.54761241E+003  0.28904851E+004  0.46171651E+006  0.26651770E+006  0.16979922E+000  0.42261978E+000
 0.43400000E+003  0.54638858E+003  0.28965113E+004  0.47136876E+006  0.26555042E+006  0.17334890E+000  0.42872534E+000
 0.43500000E+003  0.54515921E+003  0.29025673E+004  0.48117260E+006  0.26457755E+006  0.17695432E+000  0.43484821E+000
 0.43600000E+003  0.54392421E+003  0.29086541E+004  0.49112957E+006  0.26359900E+006  0.18061607E+000  0.44098723E+000
 0.43700000E+003  0.54268348E+003  0.29147724E+004  0.50124124E+006  0.26261469E+006  0.18433470E+000  0.44714119E+000
 0.43800000E+003  0.54143695E+003  0.29209234E+004  0.51150917E+006  0.26162453E+006  0.18811079E+000  0.45330893E+000
 0.43900000E+003  0.54018451E+003  0.29271080E+004  0.52193493E+006  0.26062841E+006  0.19194493E+000  0.45948926E+000
 0.44000000E+003  0.53892608E+003  0.29333273E+004  0.53252008E+006  0.25962626E+006  0.19583769E+000  0.46568101E+000
 0.44100000E+003  0.53766155E+003  0.29395825E+004  0.54326623E+006  0.25861796E+006  0.19978966E+000  0.47188300E+000
 0.44200000E+003  0.53639083E+003  0.29458746E+004  0.55417496E+006  0.25760343E+006  0.20380141E+000  0.47809408E+000
 0.44300000E+003  0.53511381E+003  0.29522049E+004  0.56524788E+006  0.25658255E+006  0.20787355E+000  0.48431307E+000
 0.44400000E+003  0.53383040E+003  0.29585747E+004  0.57648658E+006  0.25555522E+006  0.21200666E+000  0.49053883E+000
 0.44500000E+003  0.53254047E+003  0.29649853E+004  0.58789270E+006  0.25452133E+006  0.21620133E+000  0.49677020E+000
 0.44600000E+003  0.53124391E+003  0.29714382E+004  0.59946786E+006  0.25348078E+006  0.22045817E+000  0.50300606E+000
 0.44700000E+003  0.52994063E+003  0.29779347E+004  0.61121369E+006  0.25243344E+006  0.22477777E+000  0.50924526E+000
 0.44800000E+003  0.52863049E+003  0.29844764E+004  0.62313184E+006  0.25137920E+006  0.22916075E+000  0.51548670E+000
 0.44900000E+003  0.52731337E+003  0.29910649E+004  0.63522395E+006  0.25031794E+006  0.23360770E+000  0.52172925E+000
 0.45000000E+003  0.52598916E+003  0.29977020E+004  0.64749168E+006  0.24924954E+006  0.23811924E+000  0.52797183E+000
 0.45100000E+003  0.52465772E+003  0.30043893E+004  0.65993671E+006  0.24817386E+006  0.24269598E+000  0.53421333E+000
 0.45200000E+003  0.52331893E+003  0.30111287E+004  0.67256072E+006  0.24709077E+006  0.24733854E+000  0.54045269E+000
 0.45300000E+003  0.52197264E+003  0.30179221E+004  0.68536538E+006  0.24600014E+006  0.25204754E+000  0.54668885E+000
 0.45400000E+003  0.52061871E+003  0.30247716E+004  0.69835240E+006  0.24490183E+006  0.25682360E+000  0.55292074E+000
 0.45500000E+003  0.51925701E+003  0.30316793E+004  0.71152348E+006  0.24379569E+006  0.26166734E+000  0.55914734E+000
 0.45600000E+003  0.51788738E+003  0.30386475E+004  0.72488033E+006  0.24268158E+006  0.26657941E+000  0.56536762E+000
 0.45700000E+003  0.51650967E+003  0.30456784E+004  0.73842467E+006  0.24155934E+006  0.27156043E+000  0.57158058E+000
 0.45800000E+003  0.51512372E+003  0.30527746E+004  0.75215825E+006  0.24042881E+006  0.27661104E+000  0.57778522E+000
 0.45900000E+003  0.51372937E+003  0.30599387E+004  0.76608280E+006  0.23928983E+006  0.28173189E+000  0.58398056E+000
 0.46000000E+003  0.51232645E+003  0.30671733E+004  0.78020007E+006  0.23814224E+006  0.28692360E+000  0.59016564E+000
 0.46100000E+003  0.51091478E+003  0.30744814E+004  0.79451182E+006  0.23698585E+006  0.29218684E+000  0.59633953E+000
 0.46200000E+003  0.50949420E+003  0.30818659E+004  0.80901984E+006  0.23582049E+006  0.29752226E+000  0.60250128E+000
 0.46300000E+003  0.50806450E+003  0.30893301E+004  0.82372589E+006  0.23464598E+006  0.30293050E+000  0.60864999E+000
 0.46400000E+003  0.50662550E+003  0.30968772E+004  0.83863177E+006  0.23346211E+006  0.30841224E+000  0.61478477E+000
 0.46500000E+003  0.50517700E+003  0.31045108E+004  0.85373929E+006  0.23226870E+006  0.31396813E+000  0.62090474E+000
 0.46600000E+003  0.50371879E+003  0.31122347E+004  0.86905026E+006  0.23106554E+006  0.31959883E+000  0.62700903E+000
 0.46700000E+003  0.50225066E+003  0.31200528E+004  0.88456649E+006  0.22985241E+006  0.32530503E+000  0.63309682E+000
 0.46800000E+003  0.50077239E+003  0.31279691E+004  0.90028984E+006  0.22862909E+006  0.33108739E+000  0.63916727E+000
 0.46900000E+003  0.49928375E+003  0.31359882E+004  0.91622213E+006  0.22739536E+006  0.33694659E+000  0.64521959E+000
 0.47000000E+003  0.49778450E+003  0.31441145E+004  0.93236523E+006  0.22615098E+006  0.34288332E+000  0.65125298E+000
 0.47100000E+003  0.49627440E+003  0.31523531E+004  0.94872100E+006  0.22489569E+006  0.34889826E+000  0.65726669E+000
 0.47200000E+003  0.49475318E+003  0.31607092E+004  0.96529133E+006  0.22362926E+006  0.35499211E+000  0.66325996E+000
 0.47300000E+003  0.49322059E+003  0.31691881E+004  0.98207810E+006  0.22235141E+006  0.36116555E+000  0.66923207E+000
 0.47400000E+003  0.49167635E+003  0.31777958E+004  0.99908322E+006  0.22106187E+006  0.36741929E+000  0.67518230E+000
 0.47500000E+003  0.49012016E+003  0.31865385E+004  0.10163086E+007  0.21976035E+006  0.37375404E+000  0.68110997E+000
 0.47600000E+003  0.48855174E+003  0.31954228E+004  0.10337562E+007  0.21844655E+006  0.38017049E+000  0.68701441E+000
 0.47700000E+003  0.48697076E+003  0.32044555E+004  0.10514279E+007  0.21712017E+006  0.38666937E+000  0.69289496E+000
 0.47800000E+003  0.48537691E+003  0.32136443E+004  0.10693256E+007  0.21578088E+006  0.39325139E+000  0.69875100E+000
 0.47900000E+003  0.48376985E+003  0.32229970E+004  0.10874514E+007  0.21442835E+006  0.39991727E+000  0.70458190E+000
 0.48000000E+003  0.48214922E+003  0.32325222E+004  0.11058072E+007  0.21306222E+006  0.40666774E+000  0.71038707E+000
 0.48100000E+003  0.48051466E+003  0.32422287E+004  0.11243951E+007  0.21168213E+006  0.41350353E+000  0.71616595E+000
 0.48200000E+003  0.47886577E+003  0.32521264E+004  0.11432169E+007  0.21028769E+006  0.42042538E+000  0.72191796E+000
 0.48300000E+003  0.47720216E+003  0.32622254E+004  0.11622747E+007  0.20887852E+006  0.42743402E+000  0.72764258E+000
 0.48400000E+003  0.47552341E+003  0.32725369E+004  0.11815706E+007  0.20745418E+006  0.43453021E+000  0.73333928E+000
 0.48500000E+003  0.47382908E+003  0.32830728E+004  0.12011066E+007  0.20601424E+006  0.44171469E+000  0.73900757E+000
 0.48600000E+003  0.47211870E+003  0.32938458E+004  0.12208847E+007  0.20455825E+006  0.44898822E+000  0.74464697E+000
 0.48700000E+003  0.47039179E+003  0.33048695E+004  0.12409070E+007  0.20308573E+006  0.45635156E+000  0.75025700E+000
 0.48800000E+003  0.46864783E+003  0.33161586E+004  0.12611757E+007  0.20159616E+006  0.46380548E+000  0.75583723E+000
 0.48900000E+003  0.46688631E+003  0.33277292E+004  0.12816927E+007  0.20008902E+006  0.47135074E+000  0.76138723E+000
 0.49000000E+003  0.46510664E+003  0.33395982E+004  0.13024602E+007  0.19856376E+006  0.47898813E+000  0.76690660E+000
 0.49100000E+003  0.46330825E+003  0.33517842E+004  0.13234804E+007  0.19701979E+006  0.48671843E+000  0.77239493E+000
 0.49200000E+003  0.46149050E+003  0.33643073E+004  0.13447553E+007  0.19545648E+006  0.49454242E+000  0.77785185E+000
 0.49300000E+003  0.45965274E+003  0.33771892E+004  0.13662872E+007  0.19387320E+006  0.50246091E+000  0.78327702E+000
 0.49400000E+003  0.45779427E+003  0.33904536E+004  0.13880781E+007  0.19226925E+006  0.51047468E+000  0.78867008E+000
 0.49500000E+003  0.45591436E+003  0.34041261E+004  0.14101304E+007  0.19064391E+006  0.51858454E+000  0.79403073E+000
 0.49600000E+003  0.45401222E+003  0.34182347E+004  0.14324461E+007  0.18899641E+006  0.52679130E+000  0.79935864E+000
 0.49700000E+003  0.45208704E+003  0.34328102E+004  0.14550276E+007  0.18732593E+006  0.53509578E+000  0.80465354E+000
 0.49800000E+003  0.45013793E+003  0.34478859E+004  0.14778770E+007  0.18563162E+006  0.54349880E+000  0.80991515E+000
 0.49900000E+003  0.44816396E+003  0.34634986E+004  0.15009967E+007  0.18391255E+006  0.55200119E+000  0.81514321E+000
 0.50000000E+003  0.44616415E+003  0.34796886E+004  0.15243887E+007  0.18216774E+006  0.56060379E+000  0.82033748E+000
 0.50100000E+003  0.44413742E+003  0.34965006E+004  0.15480556E+007  0.18039617E+006  0.56930742E+000  0.82549773E+000
 0.50200000E+003  0.44208266E+003  0.35139835E+004  0.15719995E+007  0.17859671E+006  0.57811295E+000  0.83062376E+000
 0.50300000E+003  0.43999865E+003  0.35321919E+004  0.15962228E+007  0.17676819E+006  0.58702123E+000  0.83571536E+000
 0.50400000E+003  0.43788410E+003  0.35511860E+004  0.16207278E+007  0.17490933E+006  0.59603310E+000  0.84077235E+000
 0.50500000E+003  0.43573762E+003  0.35710332E+004  0.16455169E+007  0.17301877E+006  0.60514945E+000  0.84579458E+000
 0.50600000E+003  0.43355771E+003  0.35918086E+004  0.16705925E+007  0.17109504E+006  0.61437114E+000  0.85078187E+000
 0.50700000E+003  0.43134276E+003  0.36135962E+004  0.16959568E+007  0.16913656E+006  0.62369906E+000  0.85573409E+000
 0.50800000E+003  0.42909102E+003  0.36364905E+004  0.17216125E+007  0.16714164E+006  0.63313408E+000  0.86065112E+000
 0.50900000E+003  0.42680061E+003  0.36605983E+004  0.17475618E+007  0.16510843E+006  0.64267711E+000  0.86553284E+000
 0.51000000E+003  0.42446948E+003  0.36860403E+004  0.17738072E+007  0.16303494E+006  0.65232904E+000  0.87037916E+000
 0.51100000E+003  0.42209540E+003  0.37129536E+004  0.18003513E+007  0.16091898E+006  0.66209078E+000  0.87518997E+000
 0.51200000E+003  0.41967594E+003  0.37414951E+004  0.18271964E+007  0.15875818E+006  0.67196324E+000  0.87996521E+000
 0.51300000E+003  0.41720842E+003  0.37718444E+004  0.18543451E+007  0.15654997E+006  0.68194736E+000  0.88470481E+000
 0.51400000E+003  0.41468991E+003  0.38042087E+004  0.18817999E+007  0.15429149E+006  0.69204405E+000  0.88940872E+000
 0.51500000E+003  0.41211720E+003  0.38388278E+004  0.19095634E+007  0.15197961E+006  0.70225425E+000  0.89407689E+000
 0.51600000E+003  0.40948670E+003  0.38759814E+004  0.19376382E+007  0.14961087E+006  0.71257892E+000  0.89870931E+000
 0.51700000E+003  0.40679444E+003  0.39159972E+004  0.19660267E+007  0.14718144E+006  0.72301899E+000  0.90330594E+000
 0.51800000E+003  0.40403599E+003  0.39592620E+004  0.19947317E+007  0.14468704E+006  0.73357544E+000  0.90786678E+000
 0.51900000E+003  0.40120640E+003  0.40062353E+004  0.20237558E+007  0.14212287E+006  0.74424922E+000  0.91239183E+000
 0.52000000E+003  0.39830005E+003  0.40574680E+004  0.20531015E+007  0.13948357E+006  0.75504132E+000  0.91688110E+000
 0.52100000E+003  0.39531059E+003  0.41136252E+004  0.20827717E+007  0.13676302E+006  0.76595272E+000  0.92133461E+000
 0.52200000E+003  0.39223080E+003  0.41755184E+004  0.21127690E+007  0.13395431E+006  0.77698441E+000  0.92575240E+000
 0.52300000E+003  0.38905235E+003  0.42441479E+004  0.21430961E+007  0.13104946E+006  0.78813739E+000  0.93013450E+000
 0.52400000E+003  0.38576562E+003  0.43207605E+004  0.21737557E+007  0.12803931E+006  0.79941267E+000  0.93448095E+000
 0.52500000E+003  0.38235936E+003  0.44069314E+004  0.22047507E+007  0.12491316E+006  0.81081127E+000  0.93879182E+000
 0.52600000E+003  0.37882034E+003  0.45046792E+004  0.22360837E+007  0.12165844E+006  0.82233421E+000  0.94306717E+000
 0.52700000E+003  0.37513274E+003  0.46166342E+004  0.22677578E+007  0.11826021E+006  0.83398253E+000  0.94730708E+000
 0.52800000E+003  0.37127752E+003  0.47462892E+004  0.22997755E+007  0.11470049E+006  0.84575727E+000  0.95151162E+000
 0.52900000E+003  0.36723134E+003  0.48983838E+004  0.23321399E+007  0.11095736E+006  0.85765950E+000  0.95568088E+000
 0.53000000E+003  0.36296511E+003  0.50795167E+004  0.23648539E+007  0.10700361E+006  0.86969025E+000  0.95981495E+000
 0.53100000E+003  0.35844189E+003  0.52991551E+004  0.23979202E+007  0.10280482E+006  0.88185062E+000  0.96391395E+000
 0.53200000E+003  0.35361361E+003  0.55713841E+004  0.24313420E+007  0.98316422E+005  0.89414168E+000  0.96797798E+000
 0.53300000E+003  0.34841580E+003  0.59181142E+004  0.24651220E+007  0.93479014E+005  0.90656452E+000  0.97200714E+000
 0.53400000E+003  0.34275879E+003  0.63753908E+004  0.24992634E+007  0.88210511E+005  0.91912023E+000  0.97600157E+000
 0.53500000E+003  0.33651173E+003  0.70069865E+004  0.25337692E+007  0.82392082E+005  0.93180994E+000  0.97996140E+000
 0.53600000E+003  0.32947098E+003  0.79374096E+004  0.25686423E+007  0.75840562E+005  0.94463475E+000  0.98388675E+000
 0.53700000E+003  0.32128901E+003  0.94468024E+004  0.26038858E+007  0.68247212E+005  0.95759580E+000  0.98777777E+000
 0.53800000E+003  0.31128149E+003  0.12324655E+005  0.26395030E+007  0.59013974E+005  0.97069422E+000  0.99163459E+000
 0.53900000E+003  0.29769628E+003  0.19992081E+005  0.26754968E+007  0.46647712E+005  0.98393117E+000  0.99545738E+000
 0.54000000E+003  0.27071169E+003  0.10429058E+006  0.27118704E+007  0.23278049E+005  0.99730781E+000  0.99924627E+000
 0.54020000E+003  0.23595645E+003  0.37382306E+010  0.27191910E+007  0.34238265E+002  0.10000000E+001  0.10000000E+001
 0.54120000E+003  0.23595645E+003  0.37382306E+010  0.27560246E+007  0.34238265E+002 NaN NaN
 0.54220000E+003  0.23595645E+003  0.37382306E+010  0.27932451E+007  0.34238265E+002 NaN NaN
 0.54320000E+003  0.23595645E+003  0.37382306E+010  0.28308557E+007  0.34238265E+002 NaN NaN
 0.54420000E+003  0.23595645E+003  0.37382306E+010  0.28688597E+007  0.34238265E+002 NaN NaN
 0.54520000E+003  0.23595645E+003  0.37382306E+010  0.29072604E+007  0.34238265E+002 NaN NaN
 0.54620000E+003  0.23595645E+003  0.37382306E+010  0.29460611E+007  0.34238265E+002 NaN NaN
 0.54720000E+003  0.23595645E+003  0.37382306E+010  0.29852653E+007  0.34238265E+002 NaN NaN
 0.54820000E+003  0.23595645E+003  0.37382306E+010  0.30248762E+007  0.34238265E+002 NaN NaN
 0.54920000E+003  0.23595645E+003  0.37382306E+010  0.30648974E+007  0.34238265E+002 NaN NaN
 0.55020000E+003  0.23595645E+003  0.37382306E+010  0.31053322E+007  0.34238265E+002 NaN NaN
 0.55120000E+003  0.23595645E+003  0.37382306E+010  0.31461843E+007  0.34238265E+002 NaN NaN
 0.55220000E+003  0.23595645E+003  0.37382306E+010  0.31874570E+007  0.34238265E+002 NaN NaN
 0.55320000E+003  0.23595645E+003  0.37382306E+010  0.32291540E+007  0.34238265E+002 NaN NaN
 0.55420000E+003  0.23595645E+003  0.37382306E+010  0.32712789E+007  0.34238265E+002 NaN NaN
 0.55520000E+003  0.23595645E+003  0.37382306E+010  0.33138353E+007  0.34238265E+002 NaN NaN
 0.55620000E+003  0.23595645E+003  0.37382306E+010  0.33568268E+007  0.34238265E+002 NaN NaN
 0.55720000E+003  0.23595645E+003  0.37382306E+010  0.34002572E+007  0.34238265E+002 NaN NaN
 0.55820000E+003  0.23595645E+003  0.37382306E+010  0.34441301E+007  0.34238265E+002 NaN NaN
 0.55920000E+003  0.23595645E+003  0.37382306E+010  0.34884495E+007  0.34238265E+002 NaN NaN
 0.56020000E+003  0.23595645E+003  0.37382306E+010  0.35332189E+007  0.34238265E+002 NaN NaN
 0.56120000E+003  0.23595645E+003  0.37382306E+010  0.35784424E+007  0.34238265E+002 NaN NaN
 0.56220000E+003  0.23595645E+003  0.37382306E+010  0.36241237E+007  0.34238265E+002 NaN NaN
 0.56320000E+003  0.23595645E+003  0.37382306E+010  0.36702668E+007  0.34238265E+002 NaN NaN
 0.56420000E+003  0.23595645E+003  0.37382306E+010  0.37168757E+007  0.34238265E+002 NaN NaN
 0.56520000E+003  0.23595645E+003  0.37382306E+010  0.37639543E+007  0.34238265E+002 NaN NaN
 0.56620000E+003  0.23595645E+003  0.37382306E+010  0.38115066E+007  0.34238265E+002 NaN NaN
 0.56720000E+003  0.23595645E+003  0.37382306E+010  0.38595368E+007  0.34238265E+002 NaN NaN
 0.56820000E+003  0.23595645E+003  0.37382306E+010  0.39080489E+007  0.34238265E+002 NaN NaN
 0.56920000E+003  0.23595645E+003  0.37382306E+010  0.39570471E+007  0.34238265E+002 NaN NaN
 0.57020000E+003  0.23595645E+003  0.37382306E+010  0.40065356E+007  0.34238265E+002 NaN NaN
 0.57120000E+003  0.23595645E+003  0.37382306E+010  0.40565186E+007  0.34238265E+002 NaN NaN
 0.57220000E+003  0.23595645E+003  0.37382306E+010  0.41070003E+007  0.34238265E+002 NaN NaN
 0.57320000E+003  0.23595645E+003  0.37382306E+010  0.41579852E+007  0.34238265E+002 NaN NaN
 0.57420000E+003  0.23595645E+003  0.37382306E+010  0.42094775E+007  0.34238265E+002 NaN NaN
 0.57520000E+003  0.23595645E+003  0.37382306E+010  0.42614817E+007  0.34238265E+002 NaN NaN
 0.57620000E+003  0.23595645E+003  0.37382306E+010  0.43140021E+007  0.34238265E+002 NaN NaN
 0.57720000E+003  0.23595645E+003  0.37382306E+010  0.43670434E+007  0.34238265E+002 NaN NaN
 0.57820000E+003  0.23595645E+003  0.37382306E+010  0.44206099E+007  0.34238265E+002 NaN NaN
 0.57920000E+003  0.23595645E+003  0.37382306E+010  0.44747064E+007  0.34238265E+002 NaN NaN
 0.58020000E+003  0.23595645E+003  0.37382306E+010  0.45293374E+007  0.34238265E+002 NaN NaN
 0.58120000E+003  0.23595645E+003  0.37382306E+010  0.45845076E+007  0.34238265E+002 NaN NaN
 0.58220000E+003  0.23595645E+003  0.37382306E+010  0.46402217E+007  0.34238265E+002 NaN NaN
 0.58320000E+003  0.23595645E+003  0.37382306E+010  0.46964845E+007  0.34238265E+002 NaN NaN
 0.58420000E+003  0.23595645E+003  0.37382306E+010  0.47533008E+007  0.34238265E+002 NaN NaN
 0.58520000E+003  0.23595645E+003  0.37382306E+010  0.48106754E+007  0.34238265E+002 NaN NaN
 0.58620000E+003  0.23595645E+003  0.37382306E+010  0.48686133E+007  0.34238265E+002 NaN NaN
 0.58720000E+003  0.23595645E+003  0.37382306E+010  0.49271194E+007  0.34238265E+002 NaN NaN
 0.58820000E+003  0.23595645E+003  0.37382306E+010  0.49861988E+007  0.34238265E+002 NaN NaN
 0.58920000E+003  0.23595645E+003  0.37382306E+010  0.50458565E+007  0.34238265E+002 NaN NaN
 0.59020000E+003  0.23595645E+003  0.37382306E+010  0.51060976E+007  0.34238265E+002 NaN NaN
