#          T [K]     rho [kg/m^3]       cp [J/kgK]        Psat [Pa]        Lv [J/kg]             Xsat       Ysat \w N2
 0.25000000E+003  0.76112769E+003  0.20820800E+004  0.28441454E+001  0.37805664E+006  0.13603170E-005  0.69125581E-005
 0.25100000E+003  0.76042836E+003  0.20844696E+004  0.31623988E+001  0.37764713E+006  0.15125334E-005  0.76860529E-005
 0.25200000E+003  0.75972831E+003  0.20868744E+004  0.35127193E+001  0.37723694E+006  0.16800870E-005  0.85374834E-005
 0.25300000E+003  0.75902754E+003  0.20892943E+004  0.38979641E+001  0.37682608E+006  0.18643444E-005  0.94737939E-005
 0.25400000E+003  0.75832606E+003  0.20917292E+004  0.43212097E+001  0.37641453E+006  0.20667772E-005  0.10502461E-004
 0.25500000E+003  0.75762385E+003  0.20941792E+004  0.47857656E+001  0.37600231E+006  0.22889681E-005  0.11631528E-004
 0.25600000E+003  0.75692092E+003  0.20966444E+004  0.52951886E+001  0.37558940E+006  0.25326184E-005  0.12869639E-004
 0.25700000E+003  0.75621726E+003  0.20991246E+004  0.58532981E+001  0.37517580E+006  0.27995548E-005  0.14226075E-004
 0.25800000E+003  0.75551287E+003  0.21016199E+004  0.64641919E+001  0.37476152E+006  0.30917372E-005  0.15710795E-004
 0.25900000E+003  0.75480774E+003  0.21041303E+004  0.71322627E+001  0.37434654E+006  0.34112665E-005  0.17334475E-004
 0.26000000E+003  0.75410188E+003  0.21066558E+004  0.78622154E+001  0.37393086E+006  0.37603932E-005  0.19108548E-004
 0.26100000E+003  0.75339527E+003  0.21091964E+004  0.86590849E+001  0.37351448E+006  0.41415253E-005  0.21045249E-004
 0.26200000E+003  0.75268791E+003  0.21117521E+004  0.95282554E+001  0.37309740E+006  0.45572380E-005  0.23157663E-004
 0.26300000E+003  0.75197981E+003  0.21143228E+004  0.10475479E+002  0.37267961E+006  0.50102825E-005  0.25459767E-004
 0.26400000E+003  0.75127095E+003  0.21169087E+004  0.11506897E+002  0.37226111E+006  0.55035961E-005  0.27966485E-004
 0.26500000E+003  0.75056134E+003  0.21195097E+004  0.12629060E+002  0.37184190E+006  0.60403119E-005  0.30693735E-004
 0.26600000E+003  0.74985097E+003  0.21221257E+004  0.13848951E+002  0.37142197E+006  0.66237695E-005  0.33658485E-004
 0.26700000E+003  0.74913984E+003  0.21247569E+004  0.15174007E+002  0.37100132E+006  0.72575260E-005  0.36878804E-004
 0.26800000E+003  0.74842794E+003  0.21274031E+004  0.16612142E+002  0.37057995E+006  0.79453670E-005  0.40373924E-004
 0.26900000E+003  0.74771527E+003  0.21300644E+004  0.18171774E+002  0.37015786E+006  0.86913181E-005  0.44164298E-004
 0.27000000E+003  0.74700182E+003  0.21327408E+004  0.19861847E+002  0.36973503E+006  0.94996577E-005  0.48271657E-004
 0.27100000E+003  0.74628760E+003  0.21354323E+004  0.21691860E+002  0.36931148E+006  0.10374929E-004  0.52719079E-004
 0.27200000E+003  0.74557260E+003  0.21381390E+004  0.23671892E+002  0.36888718E+006  0.11321952E-004  0.57531052E-004
 0.27300000E+003  0.74485681E+003  0.21408606E+004  0.25812631E+002  0.36846215E+006  0.12345838E-004  0.62733539E-004
 0.27400000E+003  0.74414024E+003  0.21435974E+004  0.28125401E+002  0.36803637E+006  0.13452006E-004  0.68354054E-004
 0.27500000E+003  0.74342287E+003  0.21463493E+004  0.30622194E+002  0.36760985E+006  0.14646189E-004  0.74421727E-004
 0.27600000E+003  0.74270471E+003  0.21491163E+004  0.33315699E+002  0.36718258E+006  0.15934456E-004  0.80967382E-004
 0.27700000E+003  0.74198575E+003  0.21518984E+004  0.36219336E+002  0.36675455E+006  0.17323227E-004  0.88023611E-004
 0.27800000E+003  0.74126598E+003  0.21546955E+004  0.39347282E+002  0.36632577E+006  0.18819283E-004  0.95624855E-004
 0.27900000E+003  0.74054541E+003  0.21575078E+004  0.42714513E+002  0.36589622E+006  0.20429784E-004  0.10380748E-003
 0.28000000E+003  0.73982402E+003  0.21603351E+004  0.46336832E+002  0.36546591E+006  0.22162291E-004  0.11260987E-003
 0.28100000E+003  0.73910182E+003  0.21631775E+004  0.50230904E+002  0.36503484E+006  0.24024774E-004  0.12207249E-003
 0.28200000E+003  0.73837880E+003  0.21660351E+004  0.54414297E+002  0.36460299E+006  0.26025636E-004  0.13223801E-003
 0.28300000E+003  0.73765496E+003  0.21689077E+004  0.58905515E+002  0.36417037E+006  0.28173725E-004  0.14315134E-003
 0.28400000E+003  0.73693029E+003  0.21717954E+004  0.63724035E+002  0.36373697E+006  0.30478359E-004  0.15485978E-003
 0.28500000E+003  0.73620479E+003  0.21746982E+004  0.68890348E+002  0.36330278E+006  0.32949339E-004  0.16741308E-003
 0.28600000E+003  0.73547845E+003  0.21776161E+004  0.74426000E+002  0.36286781E+006  0.35596968E-004  0.18086353E-003
 0.28700000E+003  0.73475127E+003  0.21805491E+004  0.80353629E+002  0.36243205E+006  0.38432074E-004  0.19526607E-003
 0.28800000E+003  0.73402326E+003  0.21834972E+004  0.86697008E+002  0.36199550E+006  0.41466028E-004  0.21067840E-003
 0.28900000E+003  0.73329439E+003  0.21864603E+004  0.93481087E+002  0.36155815E+006  0.44710762E-004  0.22716107E-003
 0.29000000E+003  0.73256467E+003  0.21894386E+004  0.10073204E+003  0.36111999E+006  0.48178795E-004  0.24477758E-003
 0.29100000E+003  0.73183409E+003  0.21924319E+004  0.10847729E+003  0.36068103E+006  0.51883249E-004  0.26359447E-003
 0.29200000E+003  0.73110266E+003  0.21954404E+004  0.11674560E+003  0.36024126E+006  0.55837870E-004  0.28368147E-003
 0.29300000E+003  0.73037036E+003  0.21984639E+004  0.12556706E+003  0.35980068E+006  0.60057057E-004  0.30511158E-003
 0.29400000E+003  0.72963719E+003  0.22015026E+004  0.13497317E+003  0.35935928E+006  0.64555875E-004  0.32796118E-003
 0.29500000E+003  0.72890315E+003  0.22045563E+004  0.14499688E+003  0.35891706E+006  0.69350083E-004  0.35231015E-003
 0.29600000E+003  0.72816822E+003  0.22076251E+004  0.15567265E+003  0.35847401E+006  0.74456159E-004  0.37824200E-003
 0.29700000E+003  0.72743242E+003  0.22107090E+004  0.16703645E+003  0.35803013E+006  0.79891316E-004  0.40584394E-003
 0.29800000E+003  0.72669573E+003  0.22138080E+004  0.17912589E+003  0.35758542E+006  0.85673532E-004  0.43520705E-003
 0.29900000E+003  0.72595815E+003  0.22169221E+004  0.19198019E+003  0.35713987E+006  0.91821574E-004  0.46642636E-003
 0.30000000E+003  0.72521967E+003  0.22200513E+004  0.20564029E+003  0.35669347E+006  0.98355018E-004  0.49960100E-003
 0.30100000E+003  0.72448029E+003  0.22231956E+004  0.22014886E+003  0.35624623E+006  0.10529428E-003  0.53483429E-003
 0.30200000E+003  0.72374001E+003  0.22263550E+004  0.23555039E+003  0.35579814E+006  0.11266062E-003  0.57223390E-003
 0.30300000E+003  0.72299882E+003  0.22295294E+004  0.25189122E+003  0.35534920E+006  0.12047622E-003  0.61191194E-003
 0.30400000E+003  0.72225671E+003  0.22327190E+004  0.26921958E+003  0.35489939E+006  0.12876415E-003  0.65398511E-003
 0.30500000E+003  0.72151368E+003  0.22359236E+004  0.28758568E+003  0.35444872E+006  0.13754841E-003  0.69857480E-003
 0.30600000E+003  0.72076973E+003  0.22391434E+004  0.30704175E+003  0.35399718E+006  0.14685399E-003  0.74580726E-003
 0.30700000E+003  0.72002485E+003  0.22423782E+004  0.32764208E+003  0.35354477E+006  0.15670685E-003  0.79581365E-003
 0.30800000E+003  0.71927904E+003  0.22456281E+004  0.34944309E+003  0.35309148E+006  0.16713399E-003  0.84873028E-003
 0.30900000E+003  0.71853229E+003  0.22488931E+004  0.37250338E+003  0.35263731E+006  0.17816342E-003  0.90469862E-003
 0.31000000E+003  0.71778459E+003  0.22521732E+004  0.39688382E+003  0.35218226E+006  0.18982426E-003  0.96386553E-003
 0.31100000E+003  0.71703595E+003  0.22554684E+004  0.42264755E+003  0.35172631E+006  0.20214671E-003  0.10263833E-002
 0.31200000E+003  0.71628635E+003  0.22587787E+004  0.44986007E+003  0.35126946E+006  0.21516210E-003  0.10924099E-002
 0.31300000E+003  0.71553579E+003  0.22621041E+004  0.47858930E+003  0.35081172E+006  0.22890291E-003  0.11621089E-002
 0.31400000E+003  0.71478427E+003  0.22654446E+004  0.50890565E+003  0.35035307E+006  0.24340281E-003  0.12356499E-002
 0.31500000E+003  0.71403178E+003  0.22688002E+004  0.54088202E+003  0.34989351E+006  0.25869669E-003  0.13132083E-002
 0.31600000E+003  0.71327832E+003  0.22721708E+004  0.57459394E+003  0.34943303E+006  0.27482065E-003  0.13949658E-002
 0.31700000E+003  0.71252387E+003  0.22755566E+004  0.61011957E+003  0.34897164E+006  0.29181209E-003  0.14811103E-002
 0.31800000E+003  0.71176844E+003  0.22789574E+004  0.64753979E+003  0.34850932E+006  0.30970968E-003  0.15718359E-002
 0.31900000E+003  0.71101203E+003  0.22823734E+004  0.68693823E+003  0.34804607E+006  0.32855343E-003  0.16673435E-002
 0.32000000E+003  0.71025461E+003  0.22858044E+004  0.72840139E+003  0.34758189E+006  0.34838471E-003  0.17678404E-002
 0.32100000E+003  0.70949619E+003  0.22892505E+004  0.77201860E+003  0.34711676E+006  0.36924624E-003  0.18735407E-002
 0.32200000E+003  0.70873677E+003  0.22927117E+004  0.81788219E+003  0.34665069E+006  0.39118219E-003  0.19846654E-002
 0.32300000E+003  0.70797634E+003  0.22961881E+004  0.86608747E+003  0.34618368E+006  0.41423813E-003  0.21014424E-002
 0.32400000E+003  0.70721489E+003  0.22996795E+004  0.91673282E+003  0.34571570E+006  0.43846113E-003  0.22241069E-002
 0.32500000E+003  0.70645241E+003  0.23031859E+004  0.96991977E+003  0.34524677E+006  0.46389974E-003  0.23529011E-002
 0.32600000E+003  0.70568891E+003  0.23067075E+004  0.10257530E+004  0.34477687E+006  0.49060404E-003  0.24880747E-002
 0.32700000E+003  0.70492437E+003  0.23102442E+004  0.10843405E+004  0.34430600E+006  0.51862565E-003  0.26298848E-002
 0.32800000E+003  0.70415879E+003  0.23137960E+004  0.11457935E+004  0.34383415E+006  0.54801779E-003  0.27785960E-002
 0.32900000E+003  0.70339216E+003  0.23173628E+004  0.12102265E+004  0.34336133E+006  0.57883528E-003  0.29344806E-002
 0.33000000E+003  0.70262448E+003  0.23209448E+004  0.12777578E+004  0.34288751E+006  0.61113459E-003  0.30978187E-002
 0.33100000E+003  0.70185575E+003  0.23245418E+004  0.13485088E+004  0.34241271E+006  0.64497384E-003  0.32688982E-002
 0.33200000E+003  0.70108595E+003  0.23281540E+004  0.14226045E+004  0.34193690E+006  0.68041285E-003  0.34480150E-002
 0.33300000E+003  0.70031507E+003  0.23317812E+004  0.15001737E+004  0.34146009E+006  0.71751316E-003  0.36354731E-002
 0.33400000E+003  0.69954313E+003  0.23354235E+004  0.15813487E+004  0.34098227E+006  0.75633809E-003  0.38315846E-002
 0.33500000E+003  0.69877010E+003  0.23390809E+004  0.16662656E+004  0.34050344E+006  0.79695269E-003  0.40366698E-002
 0.33600000E+003  0.69799598E+003  0.23427535E+004  0.17550641E+004  0.34002359E+006  0.83942385E-003  0.42510572E-002
 0.33700000E+003  0.69722076E+003  0.23464411E+004  0.18478880E+004  0.33954271E+006  0.88382027E-003  0.44750840E-002
 0.33800000E+003  0.69644445E+003  0.23501437E+004  0.19448847E+004  0.33906079E+006  0.93021254E-003  0.47090954E-002
 0.33900000E+003  0.69566702E+003  0.23538615E+004  0.20462059E+004  0.33857784E+006  0.97867310E-003  0.49534454E-002
 0.34000000E+003  0.69488849E+003  0.23575944E+004  0.21520069E+004  0.33809385E+006  0.10292763E-002  0.52084965E-002
 0.34100000E+003  0.69410883E+003  0.23613424E+004  0.22624474E+004  0.33760880E+006  0.10820985E-002  0.54746199E-002
 0.34200000E+003  0.69332804E+003  0.23651054E+004  0.23776909E+004  0.33712270E+006  0.11372180E-002  0.57521952E-002
 0.34300000E+003  0.69254612E+003  0.23688836E+004  0.24979053E+004  0.33663553E+006  0.11947149E-002  0.60416110E-002
 0.34400000E+003  0.69176306E+003  0.23726768E+004  0.26232627E+004  0.33614730E+006  0.12546717E-002  0.63432643E-002
 0.34500000E+003  0.69097885E+003  0.23764852E+004  0.27539392E+004  0.33565799E+006  0.13171726E-002  0.66575613E-002
 0.34600000E+003  0.69019349E+003  0.23803086E+004  0.28901156E+004  0.33516760E+006  0.13823039E-002  0.69849164E-002
 0.34700000E+003  0.68940696E+003  0.23841471E+004  0.30319768E+004  0.33467612E+006  0.14501542E-002  0.73257533E-002
 0.34800000E+003  0.68861927E+003  0.23880007E+004  0.31797122E+004  0.33418355E+006  0.15208141E-002  0.76805042E-002
 0.34900000E+003  0.68783040E+003  0.23918694E+004  0.33335157E+004  0.33368987E+006  0.15943763E-002  0.80496100E-002
 0.35000000E+003  0.68704035E+003  0.23957532E+004  0.34935856E+004  0.33319509E+006  0.16709356E-002  0.84335207E-002
 0.35100000E+003  0.68624911E+003  0.23996521E+004  0.36601249E+004  0.33269920E+006  0.17505891E-002  0.88326946E-002
 0.35200000E+003  0.68545667E+003  0.24035661E+004  0.38333411E+004  0.33220218E+006  0.18334361E-002  0.92475990E-002
 0.35300000E+003  0.68466303E+003  0.24074952E+004  0.40134465E+004  0.33170404E+006  0.19195782E-002  0.96787098E-002
 0.35400000E+003  0.68386817E+003  0.24114394E+004  0.42006580E+004  0.33120476E+006  0.20091189E-002  0.10126511E-001
 0.35500000E+003  0.68307210E+003  0.24153986E+004  0.43951972E+004  0.33070434E+006  0.21021644E-002  0.10591497E-001
 0.35600000E+003  0.68227480E+003  0.24193730E+004  0.45972905E+004  0.33020278E+006  0.21988230E-002  0.11074167E-001
 0.35700000E+003  0.68147627E+003  0.24233624E+004  0.48071693E+004  0.32970005E+006  0.22992052E-002  0.11575032E-001
 0.35800000E+003  0.68067649E+003  0.24273670E+004  0.50250697E+004  0.32919617E+006  0.24034241E-002  0.12094611E-001
 0.35900000E+003  0.67987546E+003  0.24313866E+004  0.52512327E+004  0.32869112E+006  0.25115949E-002  0.12633429E-001
 0.36000000E+003  0.67907318E+003  0.24354213E+004  0.54859044E+004  0.32818489E+006  0.26238352E-002  0.13192020E-001
 0.36100000E+003  0.67826963E+003  0.24394711E+004  0.57293357E+004  0.32767747E+006  0.27402652E-002  0.13770928E-001
 0.36200000E+003  0.67746481E+003  0.24435360E+004  0.59817826E+004  0.32716887E+006  0.28610072E-002  0.14370701E-001
 0.36300000E+003  0.67665871E+003  0.24476160E+004  0.62435063E+004  0.32665906E+006  0.29861861E-002  0.14991897E-001
 0.36400000E+003  0.67585131E+003  0.24517111E+004  0.65147729E+004  0.32614805E+006  0.31159294E-002  0.15635082E-001
 0.36500000E+003  0.67504262E+003  0.24558213E+004  0.67958537E+004  0.32563583E+006  0.32503666E-002  0.16300828E-001
 0.36600000E+003  0.67423262E+003  0.24599466E+004  0.70870253E+004  0.32512238E+006  0.33896301E-002  0.16989713E-001
 0.36700000E+003  0.67342131E+003  0.24640869E+004  0.73885691E+004  0.32460770E+006  0.35338545E-002  0.17702325E-001
 0.36800000E+003  0.67260867E+003  0.24682424E+004  0.77007723E+004  0.32409179E+006  0.36831771E-002  0.18439257E-001
 0.36900000E+003  0.67179470E+003  0.24724129E+004  0.80239269E+004  0.32357463E+006  0.38377377E-002  0.19201106E-001
 0.37000000E+003  0.67097939E+003  0.24765986E+004  0.83583303E+004  0.32305622E+006  0.39976784E-002  0.19988480E-001
 0.37100000E+003  0.67016273E+003  0.24807993E+004  0.87042853E+004  0.32253654E+006  0.41631441E-002  0.20801989E-001
 0.37200000E+003  0.66934472E+003  0.24850152E+004  0.90621000E+004  0.32201560E+006  0.43342821E-002  0.21642249E-001
 0.37300000E+003  0.66852533E+003  0.24892461E+004  0.94320879E+004  0.32149338E+006  0.45112424E-002  0.22509884E-001
 0.37400000E+003  0.66770457E+003  0.24934921E+004  0.98145678E+004  0.32096987E+006  0.46941774E-002  0.23405521E-001
 0.37500000E+003  0.66688242E+003  0.24977532E+004  0.10209864E+005  0.32044507E+006  0.48832423E-002  0.24329790E-001
 0.37600000E+003  0.66605888E+003  0.25020294E+004  0.10618306E+005  0.31991896E+006  0.50785947E-002  0.25283329E-001
 0.37700000E+003  0.66523394E+003  0.25063207E+004  0.11040229E+005  0.31939154E+006  0.52803949E-002  0.26266778E-001
 0.37800000E+003  0.66440758E+003  0.25106271E+004  0.11475974E+005  0.31886280E+006  0.54888059E-002  0.27280780E-001
 0.37900000E+003  0.66357979E+003  0.25149485E+004  0.11925887E+005  0.31833273E+006  0.57039931E-002  0.28325982E-001
 0.38000000E+003  0.66275058E+003  0.25192851E+004  0.12390319E+005  0.31780133E+006  0.59261249E-002  0.29403034E-001
 0.38100000E+003  0.66191992E+003  0.25236368E+004  0.12869627E+005  0.31726857E+006  0.61553719E-002  0.30512589E-001
 0.38200000E+003  0.66108781E+003  0.25280035E+004  0.13364175E+005  0.31673446E+006  0.63919076E-002  0.31655300E-001
 0.38300000E+003  0.66025424E+003  0.25323853E+004  0.13874331E+005  0.31619898E+006  0.66359083E-002  0.32831823E-001
 0.38400000E+003  0.65941919E+003  0.25367823E+004  0.14400468E+005  0.31566213E+006  0.68875526E-002  0.34042815E-001
 0.38500000E+003  0.65858266E+003  0.25411943E+004  0.14942966E+005  0.31512389E+006  0.71470221E-002  0.35288933E-001
 0.38600000E+003  0.65774464E+003  0.25456214E+004  0.15502210E+005  0.31458426E+006  0.74145010E-002  0.36570835E-001
 0.38700000E+003  0.65690511E+003  0.25500636E+004  0.16078590E+005  0.31404322E+006  0.76901760E-002  0.37889177E-001
 0.38800000E+003  0.65606407E+003  0.25545209E+004  0.16672503E+005  0.31350077E+006  0.79742366E-002  0.39244616E-001
 0.38900000E+003  0.65522150E+003  0.25589933E+004  0.17284350E+005  0.31295690E+006  0.82668751E-002  0.40637805E-001
 0.39000000E+003  0.65437740E+003  0.25634808E+004  0.17914540E+005  0.31241159E+006  0.85682865E-002  0.42069399E-001
 0.39100000E+003  0.65353175E+003  0.25679834E+004  0.18563485E+005  0.31186484E+006  0.88786682E-002  0.43540046E-001
 0.39200000E+003  0.65268454E+003  0.25725011E+004  0.19231604E+005  0.31131663E+006  0.91982206E-002  0.45050393E-001
 0.39300000E+003  0.65183577E+003  0.25770338E+004  0.19919321E+005  0.31076697E+006  0.95271467E-002  0.46601084E-001
 0.39400000E+003  0.65098541E+003  0.25815817E+004  0.20627067E+005  0.31021582E+006  0.98656521E-002  0.48192756E-001
 0.39500000E+003  0.65013346E+003  0.25861447E+004  0.21355277E+005  0.30966319E+006  0.10213945E-001  0.49826045E-001
 0.39600000E+003  0.64927991E+003  0.25907227E+004  0.22104393E+005  0.30910907E+006  0.10572238E-001  0.51501577E-001
 0.39700000E+003  0.64842474E+003  0.25953158E+004  0.22874862E+005  0.30855344E+006  0.10940743E-001  0.53219975E-001
 0.39800000E+003  0.64756795E+003  0.25999241E+004  0.23667137E+005  0.30799629E+006  0.11319677E-001  0.54981854E-001
 0.39900000E+003  0.64670951E+003  0.26045474E+004  0.24481675E+005  0.30743761E+006  0.11709260E-001  0.56787822E-001
 0.40000000E+003  0.64584943E+003  0.26091858E+004  0.25318942E+005  0.30687739E+006  0.12109714E-001  0.58638477E-001
 0.40100000E+003  0.64498768E+003  0.26138393E+004  0.26179406E+005  0.30631562E+006  0.12521262E-001  0.60534411E-001
 0.40200000E+003  0.64412425E+003  0.26185079E+004  0.27063543E+005  0.30575229E+006  0.12944133E-001  0.62476203E-001
 0.40300000E+003  0.64325914E+003  0.26231916E+004  0.27971835E+005  0.30518738E+006  0.13378557E-001  0.64464426E-001
 0.40400000E+003  0.64239232E+003  0.26278904E+004  0.28904767E+005  0.30462089E+006  0.13824766E-001  0.66499639E-001
 0.40500000E+003  0.64152379E+003  0.26326042E+004  0.29862833E+005  0.30405280E+006  0.14282996E-001  0.68582389E-001
 0.40600000E+003  0.64065354E+003  0.26373332E+004  0.30846530E+005  0.30348309E+006  0.14753486E-001  0.70713214E-001
 0.40700000E+003  0.63978154E+003  0.26420772E+004  0.31856361E+005  0.30291177E+006  0.15236475E-001  0.72892636E-001
 0.40800000E+003  0.63890779E+003  0.26468364E+004  0.32892837E+005  0.30233881E+006  0.15732207E-001  0.75121164E-001
 0.40900000E+003  0.63803227E+003  0.26516106E+004  0.33956471E+005  0.30176420E+006  0.16240929E-001  0.77399293E-001
 0.41000000E+003  0.63715496E+003  0.26564000E+004  0.35047785E+005  0.30118794E+006  0.16762890E-001  0.79727503E-001
 0.41100000E+003  0.63627587E+003  0.26612044E+004  0.36167303E+005  0.30061000E+006  0.17298341E-001  0.82106258E-001
 0.41200000E+003  0.63539496E+003  0.26660239E+004  0.37315559E+005  0.30003037E+006  0.17847536E-001  0.84536005E-001
 0.41300000E+003  0.63451223E+003  0.26708585E+004  0.38493089E+005  0.29944905E+006  0.18410733E-001  0.87017176E-001
 0.41400000E+003  0.63362766E+003  0.26757082E+004  0.39700436E+005  0.29886601E+006  0.18988191E-001  0.89550181E-001
 0.41500000E+003  0.63274124E+003  0.26805730E+004  0.40938149E+005  0.29828125E+006  0.19580173E-001  0.92135415E-001
 0.41600000E+003  0.63185296E+003  0.26854529E+004  0.42206780E+005  0.29769475E+006  0.20186942E-001  0.94773253E-001
 0.41700000E+003  0.63096279E+003  0.26903479E+004  0.43506891E+005  0.29710650E+006  0.20808768E-001  0.97464049E-001
 0.41800000E+003  0.63007072E+003  0.26952580E+004  0.44839045E+005  0.29651648E+006  0.21445920E-001  0.10020814E+000
 0.41900000E+003  0.62917674E+003  0.27001831E+004  0.46203813E+005  0.29592467E+006  0.22098670E-001  0.10300583E+000
 0.42000000E+003  0.62828082E+003  0.27051234E+004  0.47601771E+005  0.29533108E+006  0.22767295E-001  0.10585742E+000
 0.42100000E+003  0.62738297E+003  0.27100787E+004  0.49033502E+005  0.29473567E+006  0.23452073E-001  0.10876318E+000
 0.42200000E+003  0.62648315E+003  0.27150492E+004  0.50499591E+005  0.29413843E+006  0.24153284E-001  0.11172334E+000
 0.42300000E+003  0.62558136E+003  0.27200347E+004  0.52000631E+005  0.29353936E+006  0.24871211E-001  0.11473814E+000
 0.42400000E+003  0.62467757E+003  0.27250353E+004  0.53537221E+005  0.29293843E+006  0.25606142E-001  0.11780777E+000
 0.42500000E+003  0.62377178E+003  0.27300510E+004  0.55109963E+005  0.29233563E+006  0.26358363E-001  0.12093240E+000
 0.42600000E+003  0.62286395E+003  0.27350819E+004  0.56719466E+005  0.29173094E+006  0.27128167E-001  0.12411218E+000
 0.42700000E+003  0.62195409E+003  0.27401278E+004  0.58366345E+005  0.29112435E+006  0.27915847E-001  0.12734723E+000
 0.42800000E+003  0.62104216E+003  0.27451887E+004  0.60051218E+005  0.29051585E+006  0.28721700E-001  0.13063765E+000
 0.42900000E+003  0.62012815E+003  0.27502648E+004  0.61774712E+005  0.28990541E+006  0.29546024E-001  0.13398351E+000
 0.43000000E+003  0.61921204E+003  0.27553560E+004  0.63537457E+005  0.28929302E+006  0.30389122E-001  0.13738485E+000
 0.43100000E+003  0.61829382E+003  0.27604623E+004  0.65340087E+005  0.28867866E+006  0.31251296E-001  0.14084168E+000
 0.43200000E+003  0.61737347E+003  0.27655836E+004  0.67183245E+005  0.28806231E+006  0.32132854E-001  0.14435398E+000
 0.43300000E+003  0.61645096E+003  0.27707201E+004  0.69067576E+005  0.28744397E+006  0.33034104E-001  0.14792172E+000
 0.43400000E+003  0.61552629E+003  0.27758716E+004  0.70993733E+005  0.28682361E+006  0.33955360E-001  0.15154483E+000
 0.43500000E+003  0.61459942E+003  0.27810383E+004  0.72962372E+005  0.28620121E+006  0.34896934E-001  0.15522320E+000
 0.43600000E+003  0.61367034E+003  0.27862200E+004  0.74974156E+005  0.28557675E+006  0.35859143E-001  0.15895671E+000
 0.43700000E+003  0.61273904E+003  0.27914168E+004  0.77029753E+005  0.28495023E+006  0.36842308E-001  0.16274519E+000
 0.43800000E+003  0.61180548E+003  0.27966288E+004  0.79129834E+005  0.28432161E+006  0.37846749E-001  0.16658846E+000
 0.43900000E+003  0.61086966E+003  0.28018558E+004  0.81275079E+005  0.28369088E+006  0.38872791E-001  0.17048630E+000
 0.44000000E+003  0.60993154E+003  0.28070979E+004  0.83466170E+005  0.28305803E+006  0.39920761E-001  0.17443847E+000
 0.44100000E+003  0.60899112E+003  0.28123551E+004  0.85703797E+005  0.28242303E+006  0.40990988E-001  0.17844468E+000
 0.44200000E+003  0.60804836E+003  0.28176273E+004  0.87988653E+005  0.28178586E+006  0.42083804E-001  0.18250462E+000
 0.44300000E+003  0.60710324E+003  0.28229147E+004  0.90321437E+005  0.28114650E+006  0.43199544E-001  0.18661796E+000
 0.44400000E+003  0.60615576E+003  0.28282172E+004  0.92702853E+005  0.28050493E+006  0.44338544E-001  0.19078434E+000
 0.44500000E+003  0.60520587E+003  0.28335348E+004  0.95133611E+005  0.27986114E+006  0.45501143E-001  0.19500334E+000
 0.44600000E+003  0.60425356E+003  0.28388674E+004  0.97614425E+005  0.27921510E+006  0.46687683E-001  0.19927455E+000
 0.44700000E+003  0.60329881E+003  0.28442152E+004  0.10014602E+006  0.27856679E+006  0.47898509E-001  0.20359750E+000
 0.44800000E+003  0.60234160E+003  0.28495780E+004  0.10272911E+006  0.27791620E+006  0.49133967E-001  0.20797172E+000
 0.44900000E+003  0.60138189E+003  0.28549559E+004  0.10536443E+006  0.27726328E+006  0.50394406E-001  0.21239667E+000
 0.45000000E+003  0.60041967E+003  0.28603489E+004  0.10805271E+006  0.27660804E+006  0.51680179E-001  0.21687182E+000
 0.45100000E+003  0.59945492E+003  0.28657571E+004  0.11079471E+006  0.27595044E+006  0.52991638E-001  0.22139659E+000
 0.45200000E+003  0.59848760E+003  0.28711803E+004  0.11359115E+006  0.27529045E+006  0.54329140E-001  0.22597037E+000
 0.45300000E+003  0.59751769E+003  0.28766186E+004  0.11644280E+006  0.27462807E+006  0.55693045E-001  0.23059254E+000
 0.45400000E+003  0.59654517E+003  0.28820720E+004  0.11935041E+006  0.27396326E+006  0.57083714E-001  0.23526244E+000
 0.45500000E+003  0.59557000E+003  0.28875404E+004  0.12231473E+006  0.27329600E+006  0.58501510E-001  0.23997937E+000
 0.45600000E+003  0.59459218E+003  0.28930240E+004  0.12533654E+006  0.27262627E+006  0.59946800E-001  0.24474263E+000
 0.45700000E+003  0.59361166E+003  0.28985227E+004  0.12841660E+006  0.27195404E+006  0.61419953E-001  0.24955148E+000
 0.45800000E+003  0.59262842E+003  0.29040365E+004  0.13155569E+006  0.27127928E+006  0.62921339E-001  0.25440515E+000
 0.45900000E+003  0.59164244E+003  0.29095653E+004  0.13475459E+006  0.27060198E+006  0.64451332E-001  0.25930284E+000
 0.46000000E+003  0.59065368E+003  0.29151093E+004  0.13801410E+006  0.26992210E+006  0.66010309E-001  0.26424375E+000
 0.46100000E+003  0.58966211E+003  0.29206683E+004  0.14133499E+006  0.26923963E+006  0.67598647E-001  0.26922703E+000
 0.46200000E+003  0.58866772E+003  0.29262424E+004  0.14471806E+006  0.26855452E+006  0.69216727E-001  0.27425183E+000
 0.46300000E+003  0.58767046E+003  0.29318316E+004  0.14816412E+006  0.26786676E+006  0.70864932E-001  0.27931724E+000
 0.46400000E+003  0.58667031E+003  0.29374360E+004  0.15167398E+006  0.26717632E+006  0.72543649E-001  0.28442238E+000
 0.46500000E+003  0.58566723E+003  0.29430554E+004  0.15524844E+006  0.26648318E+006  0.74253265E-001  0.28956630E+000
 0.46600000E+003  0.58466121E+003  0.29486899E+004  0.15888832E+006  0.26578729E+006  0.75994171E-001  0.29474806E+000
 0.46700000E+003  0.58365219E+003  0.29543395E+004  0.16259444E+006  0.26508863E+006  0.77766759E-001  0.29996669E+000
 0.46800000E+003  0.58264016E+003  0.29600041E+004  0.16636762E+006  0.26438718E+006  0.79571425E-001  0.30522120E+000
 0.46900000E+003  0.58162509E+003  0.29656839E+004  0.17020871E+006  0.26368290E+006  0.81408567E-001  0.31051059E+000
 0.47000000E+003  0.58060692E+003  0.29713788E+004  0.17411854E+006  0.26297577E+006  0.83278585E-001  0.31583383E+000
 0.47100000E+003  0.57958564E+003  0.29770887E+004  0.17809794E+006  0.26226574E+006  0.85181882E-001  0.32118989E+000
 0.47200000E+003  0.57856121E+003  0.29828138E+004  0.18214777E+006  0.26155280E+006  0.87118862E-001  0.32657771E+000
 0.47300000E+003  0.57753360E+003  0.29885539E+004  0.18626888E+006  0.26083690E+006  0.89089933E-001  0.33199622E+000
 0.47400000E+003  0.57650276E+003  0.29943092E+004  0.19046212E+006  0.26011802E+006  0.91095505E-001  0.33744434E+000
 0.47500000E+003  0.57546866E+003  0.30000795E+004  0.19472836E+006  0.25939612E+006  0.93135990E-001  0.34292098E+000
 0.47600000E+003  0.57443126E+003  0.30058649E+004  0.19906847E+006  0.25867117E+006  0.95211804E-001  0.34842503E+000
 0.47700000E+003  0.57339054E+003  0.30116654E+004  0.20348331E+006  0.25794314E+006  0.97323363E-001  0.35395537E+000
 0.47800000E+003  0.57234644E+003  0.30174810E+004  0.20797376E+006  0.25721198E+006  0.99471088E-001  0.35951089E+000
 0.47900000E+003  0.57129893E+003  0.30233117E+004  0.21254071E+006  0.25647766E+006  0.10165540E+000  0.36509043E+000
 0.48000000E+003  0.57024797E+003  0.30291575E+004  0.21718505E+006  0.25574015E+006  0.10387672E+000  0.37069287E+000
 0.48100000E+003  0.56919352E+003  0.30350184E+004  0.22190766E+006  0.25499941E+006  0.10613549E+000  0.37631704E+000
 0.48200000E+003  0.56813553E+003  0.30408944E+004  0.22670945E+006  0.25425539E+006  0.10843212E+000  0.38196181E+000
 0.48300000E+003  0.56707397E+003  0.30467855E+004  0.23159132E+006  0.25350807E+006  0.11076705E+000  0.38762600E+000
 0.48400000E+003  0.56600880E+003  0.30526916E+004  0.23655418E+006  0.25275741E+006  0.11314072E+000  0.39330845E+000
 0.48500000E+003  0.56493996E+003  0.30586129E+004  0.24159895E+006  0.25200335E+006  0.11555357E+000  0.39900800E+000
 0.48600000E+003  0.56386741E+003  0.30645492E+004  0.24672653E+006  0.25124587E+006  0.11800602E+000  0.40472348E+000
 0.48700000E+003  0.56279111E+003  0.30705007E+004  0.25193786E+006  0.25048491E+006  0.12049853E+000  0.41045371E+000
 0.48800000E+003  0.56171102E+003  0.30764672E+004  0.25723387E+006  0.24972044E+006  0.12303154E+000  0.41619754E+000
 0.48900000E+003  0.56062707E+003  0.30824488E+004  0.26261549E+006  0.24895242E+006  0.12560550E+000  0.42195379E+000
 0.49000000E+003  0.55953924E+003  0.30884455E+004  0.26808367E+006  0.24818079E+006  0.12822086E+000  0.42772130E+000
 0.49100000E+003  0.55844745E+003  0.30944573E+004  0.27363934E+006  0.24740552E+006  0.13087806E+000  0.43349889E+000
 0.49200000E+003  0.55735168E+003  0.31004842E+004  0.27928346E+006  0.24662655E+006  0.13357757E+000  0.43928542E+000
 0.49300000E+003  0.55625185E+003  0.31065262E+004  0.28501699E+006  0.24584385E+006  0.13631984E+000  0.44507973E+000
 0.49400000E+003  0.55514793E+003  0.31125833E+004  0.29084089E+006  0.24505736E+006  0.13910534E+000  0.45088066E+000
 0.49500000E+003  0.55403986E+003  0.31186555E+004  0.29675613E+006  0.24426703E+006  0.14193452E+000  0.45668707E+000
 0.49600000E+003  0.55292758E+003  0.31247427E+004  0.30276369E+006  0.24347281E+006  0.14480785E+000  0.46249783E+000
 0.49700000E+003  0.55181103E+003  0.31308451E+004  0.30886453E+006  0.24267465E+006  0.14772580E+000  0.46831181E+000
 0.49800000E+003  0.55069016E+003  0.31369625E+004  0.31505964E+006  0.24187250E+006  0.15068884E+000  0.47412789E+000
 0.49900000E+003  0.54956492E+003  0.31430951E+004  0.32135003E+006  0.24106631E+006  0.15369745E+000  0.47994495E+000
 0.50000000E+003  0.54843523E+003  0.31492427E+004  0.32773667E+006  0.24025602E+006  0.15675210E+000  0.48576189E+000
 0.50100000E+003  0.54730105E+003  0.31554054E+004  0.33422058E+006  0.23944158E+006  0.15985327E+000  0.49157763E+000
 0.50200000E+003  0.54616230E+003  0.31615833E+004  0.34080276E+006  0.23862292E+006  0.16300143E+000  0.49739108E+000
 0.50300000E+003  0.54501892E+003  0.31677762E+004  0.34748423E+006  0.23779999E+006  0.16619709E+000  0.50320118E+000
 0.50400000E+003  0.54387085E+003  0.31739842E+004  0.35426600E+006  0.23697273E+006  0.16944072E+000  0.50900688E+000
 0.50500000E+003  0.54271803E+003  0.31802073E+004  0.36114909E+006  0.23614107E+006  0.17273282E+000  0.51480713E+000
 0.50600000E+003  0.54156037E+003  0.31864455E+004  0.36813455E+006  0.23530497E+006  0.17607387E+000  0.52060091E+000
 0.50700000E+003  0.54039782E+003  0.31926987E+004  0.37522341E+006  0.23446434E+006  0.17946437E+000  0.52638720E+000
 0.50800000E+003  0.53923029E+003  0.31989671E+004  0.38241671E+006  0.23361913E+006  0.18290483E+000  0.53216501E+000
 0.50900000E+003  0.53805773E+003  0.32052506E+004  0.38971549E+006  0.23276927E+006  0.18639574E+000  0.53793336E+000
 0.51000000E+003  0.53688004E+003  0.32115491E+004  0.39712082E+006  0.23191469E+006  0.18993762E+000  0.54369128E+000
 0.51100000E+003  0.53569716E+003  0.32178628E+004  0.40463376E+006  0.23105532E+006  0.19353095E+000  0.54943782E+000
 0.51200000E+003  0.53450900E+003  0.32241915E+004  0.41225537E+006  0.23019108E+006  0.19717627E+000  0.55517205E+000
 0.51300000E+003  0.53331549E+003  0.32305354E+004  0.41998673E+006  0.22932191E+006  0.20087408E+000  0.56089306E+000
 0.51400000E+003  0.53211654E+003  0.32368943E+004  0.42782892E+006  0.22844773E+006  0.20462489E+000  0.56659994E+000
 0.51500000E+003  0.53091206E+003  0.32432683E+004  0.43578303E+006  0.22756846E+006  0.20842923E+000  0.57229181E+000
 0.51600000E+003  0.52970198E+003  0.32496574E+004  0.44385014E+006  0.22668401E+006  0.21228763E+000  0.57796783E+000
 0.51700000E+003  0.52848619E+003  0.32560616E+004  0.45203136E+006  0.22579432E+006  0.21620060E+000  0.58362713E+000
 0.51800000E+003  0.52726461E+003  0.32624809E+004  0.46032780E+006  0.22489929E+006  0.22016867E+000  0.58926890E+000
 0.51900000E+003  0.52603714E+003  0.32689153E+004  0.46874056E+006  0.22399884E+006  0.22419238E+000  0.59489233E+000
 0.52000000E+003  0.52480368E+003  0.32753648E+004  0.47727077E+006  0.22309288E+006  0.22827227E+000  0.60049664E+000
 0.52100000E+003  0.52356415E+003  0.32818294E+004  0.48591956E+006  0.22218132E+006  0.23240887E+000  0.60608105E+000
 0.52200000E+003  0.52231842E+003  0.32883090E+004  0.49468805E+006  0.22126407E+006  0.23660272E+000  0.61164483E+000
 0.52300000E+003  0.52106641E+003  0.32948038E+004  0.50357739E+006  0.22034103E+006  0.24085438E+000  0.61718724E+000
 0.52400000E+003  0.51980800E+003  0.33013136E+004  0.51258872E+006  0.21941210E+006  0.24516438E+000  0.62270758E+000
 0.52500000E+003  0.51854307E+003  0.33078386E+004  0.52172321E+006  0.21847719E+006  0.24953328E+000  0.62820515E+000
 0.52600000E+003  0.51727153E+003  0.33143786E+004  0.53098200E+006  0.21753618E+006  0.25396164E+000  0.63367929E+000
 0.52700000E+003  0.51599324E+003  0.33209337E+004  0.54036627E+006  0.21658897E+006  0.25845001E+000  0.63912936E+000
 0.52800000E+003  0.51470809E+003  0.33275040E+004  0.54987720E+006  0.21563546E+006  0.26299896E+000  0.64455471E+000
 0.52900000E+003  0.51341595E+003  0.33340893E+004  0.55951597E+006  0.21467553E+006  0.26760906E+000  0.64995475E+000
 0.53000000E+003  0.51211670E+003  0.33406897E+004  0.56928376E+006  0.21370905E+006  0.27228086E+000  0.65532888E+000
 0.53100000E+003  0.51081020E+003  0.33473052E+004  0.57918178E+006  0.21273592E+006  0.27701495E+000  0.66067653E+000
 0.53200000E+003  0.50949632E+003  0.33539358E+004  0.58921124E+006  0.21175601E+006  0.28181191E+000  0.66599717E+000
 0.53300000E+003  0.50817492E+003  0.33605814E+004  0.59937333E+006  0.21076919E+006  0.28667231E+000  0.67129024E+000
 0.53400000E+003  0.50684585E+003  0.33672422E+004  0.60966930E+006  0.20977533E+006  0.29159673E+000  0.67655526E+000
 0.53500000E+003  0.50550896E+003  0.33739181E+004  0.62010036E+006  0.20877430E+006  0.29658577E+000  0.68179172E+000
 0.53600000E+003  0.50416411E+003  0.33806090E+004  0.63066776E+006  0.20776595E+006  0.30164001E+000  0.68699915E+000
 0.53700000E+003  0.50281112E+003  0.33873151E+004  0.64137273E+006  0.20675015E+006  0.30676006E+000  0.69217711E+000
 0.53800000E+003  0.50144985E+003  0.33940362E+004  0.65221654E+006  0.20572674E+006  0.31194651E+000  0.69732516E+000
 0.53900000E+003  0.50008011E+003  0.34007724E+004  0.66320043E+006  0.20469557E+006  0.31719996E+000  0.70244288E+000
 0.54000000E+003  0.49870174E+003  0.34075238E+004  0.67432569E+006  0.20365648E+006  0.32252102E+000  0.70752988E+000
 0.54100000E+003  0.49731454E+003  0.34142902E+004  0.68559359E+006  0.20260930E+006  0.32791031E+000  0.71258579E+000
 0.54200000E+003  0.49591835E+003  0.34210717E+004  0.69700541E+006  0.20155388E+006  0.33336843E+000  0.71761024E+000
 0.54300000E+003  0.49451296E+003  0.34278683E+004  0.70856245E+006  0.20049003E+006  0.33889601E+000  0.72260289E+000
 0.54400000E+003  0.49309816E+003  0.34346800E+004  0.72026602E+006  0.19941756E+006  0.34449367E+000  0.72756343E+000
 0.54500000E+003  0.49167376E+003  0.34415068E+004  0.73211743E+006  0.19833631E+006  0.35016204E+000  0.73249153E+000
 0.54600000E+003  0.49023954E+003  0.34483487E+004  0.74411799E+006  0.19724606E+006  0.35590175E+000  0.73738693E+000
 0.54700000E+003  0.48879528E+003  0.34552056E+004  0.75626905E+006  0.19614661E+006  0.36171344E+000  0.74224934E+000
 0.54800000E+003  0.48734073E+003  0.34620777E+004  0.76857193E+006  0.19503777E+006  0.36759775E+000  0.74707851E+000
 0.54900000E+003  0.48587568E+003  0.34689649E+004  0.78102799E+006  0.19391930E+006  0.37355531E+000  0.75187421E+000
 0.55000000E+003  0.48439985E+003  0.34758671E+004  0.79363858E+006  0.19279100E+006  0.37958679E+000  0.75663620E+000
 0.55100000E+003  0.48291300E+003  0.34827844E+004  0.80640508E+006  0.19165261E+006  0.38569284E+000  0.76136430E+000
 0.55200000E+003  0.48141486E+003  0.34897169E+004  0.81932885E+006  0.19050390E+006  0.39187411E+000  0.76605829E+000
 0.55300000E+003  0.47990514E+003  0.34966644E+004  0.83241129E+006  0.18934461E+006  0.39813127E+000  0.77071802E+000
 0.55400000E+003  0.47838355E+003  0.35036270E+004  0.84565380E+006  0.18817449E+006  0.40446498E+000  0.77534332E+000
 0.55500000E+003  0.47684979E+003  0.35106047E+004  0.85905777E+006  0.18699325E+006  0.41087592E+000  0.77993404E+000
 0.55600000E+003  0.47530355E+003  0.35175975E+004  0.87262463E+006  0.18580062E+006  0.41736477E+000  0.78449006E+000
 0.55700000E+003  0.47374448E+003  0.35246054E+004  0.88635579E+006  0.18459629E+006  0.42393221E+000  0.78901125E+000
 0.55800000E+003  0.47217226E+003  0.35316284E+004  0.90025271E+006  0.18337996E+006  0.43057892E+000  0.79349752E+000
 0.55900000E+003  0.47058651E+003  0.35386665E+004  0.91431682E+006  0.18215130E+006  0.43730559E+000  0.79794877E+000
 0.56000000E+003  0.46898686E+003  0.35457196E+004  0.92854958E+006  0.18090997E+006  0.44411293E+000  0.80236493E+000
 0.56100000E+003  0.46737292E+003  0.35527879E+004  0.94295247E+006  0.17965563E+006  0.45100164E+000  0.80674594E+000
 0.56200000E+003  0.46574428E+003  0.35598713E+004  0.95752695E+006  0.17838789E+006  0.45797242E+000  0.81109174E+000
 0.56300000E+003  0.46410050E+003  0.35669697E+004  0.97227452E+006  0.17710637E+006  0.46502599E+000  0.81540229E+000
 0.56400000E+003  0.46244113E+003  0.35740832E+004  0.98719668E+006  0.17581067E+006  0.47216306E+000  0.81967758E+000
 0.56500000E+003  0.46076570E+003  0.35812119E+004  0.10022949E+007  0.17450037E+006  0.47938436E+000  0.82391757E+000
 0.56600000E+003  0.45907371E+003  0.35883556E+004  0.10175708E+007  0.17317500E+006  0.48669061E+000  0.82812227E+000
 0.56700000E+003  0.45736464E+003  0.35955144E+004  0.10330259E+007  0.17183411E+006  0.49408256E+000  0.83229168E+000
 0.56800000E+003  0.45563793E+003  0.36026883E+004  0.10486616E+007  0.17047721E+006  0.50156093E+000  0.83642583E+000
 0.56900000E+003  0.45389300E+003  0.36098773E+004  0.10644797E+007  0.16910376E+006  0.50912648E+000  0.84052474E+000
 0.57000000E+003  0.45212924E+003  0.36170814E+004  0.10804815E+007  0.16771323E+006  0.51677995E+000  0.84458844E+000
 0.57100000E+003  0.45034600E+003  0.36243006E+004  0.10966688E+007  0.16630504E+006  0.52452211E+000  0.84861698E+000
 0.57200000E+003  0.44854261E+003  0.36315349E+004  0.11130431E+007  0.16487857E+006  0.53235371E+000  0.85261043E+000
 0.57300000E+003  0.44671833E+003  0.36387843E+004  0.11296059E+007  0.16343319E+006  0.54027552E+000  0.85656884E+000
 0.57400000E+003  0.44487241E+003  0.36460487E+004  0.11463591E+007  0.16196821E+006  0.54828832E+000  0.86049229E+000
 0.57500000E+003  0.44300402E+003  0.36533283E+004  0.11633041E+007  0.16048290E+006  0.55639289E+000  0.86438086E+000
 0.57600000E+003  0.44111231E+003  0.36606229E+004  0.11804426E+007  0.15897650E+006  0.56459000E+000  0.86823465E+000
 0.57700000E+003  0.43919635E+003  0.36679327E+004  0.11977762E+007  0.15744819E+006  0.57288047E+000  0.87205375E+000
 0.57800000E+003  0.43725518E+003  0.36752575E+004  0.12153068E+007  0.15589710E+006  0.58126508E+000  0.87583826E+000
 0.57900000E+003  0.43528774E+003  0.36825974E+004  0.12330358E+007  0.15432231E+006  0.58974464E+000  0.87958832E+000
 0.58000000E+003  0.43329292E+003  0.36899524E+004  0.12509650E+007  0.15272282E+006  0.59831996E+000  0.88330402E+000
 0.58100000E+003  0.43126953E+003  0.36973225E+004  0.12690962E+007  0.15109759E+006  0.60699186E+000  0.88698551E+000
 0.58200000E+003  0.42921629E+003  0.37047077E+004  0.12874310E+007  0.14944547E+006  0.61576117E+000  0.89063292E+000
 0.58300000E+003  0.42713181E+003  0.37121080E+004  0.13059713E+007  0.14776524E+006  0.62462870E+000  0.89424638E+000
 0.58400000E+003  0.42501462E+003  0.37195234E+004  0.13247186E+007  0.14605561E+006  0.63359532E+000  0.89782605E+000
 0.58500000E+003  0.42286312E+003  0.37269539E+004  0.13436749E+007  0.14431516E+006  0.64266185E+000  0.90137208E+000
 0.58600000E+003  0.42067558E+003  0.37343994E+004  0.13628418E+007  0.14254235E+006  0.65182915E+000  0.90488462E+000
 0.58700000E+003  0.41845012E+003  0.37418601E+004  0.13822213E+007  0.14073556E+006  0.66109808E+000  0.90836384E+000
 0.58800000E+003  0.41618470E+003  0.37493359E+004  0.14018150E+007  0.13889297E+006  0.67046950E+000  0.91180990E+000
 0.58900000E+003  0.41387711E+003  0.37568267E+004  0.14216249E+007  0.13701264E+006  0.67994429E+000  0.91522299E+000
 0.59000000E+003  0.41152490E+003  0.37643326E+004  0.14416527E+007  0.13509244E+006  0.68952332E+000  0.91860328E+000
 0.59100000E+003  0.40912543E+003  0.37718537E+004  0.14619003E+007  0.13313004E+006  0.69920749E+000  0.92195094E+000
 0.59200000E+003  0.40667575E+003  0.37793898E+004  0.14823696E+007  0.13112287E+006  0.70899769E+000  0.92526617E+000
 0.59300000E+003  0.40417263E+003  0.37869410E+004  0.15030625E+007  0.12906812E+006  0.71889482E+000  0.92854917E+000
 0.59400000E+003  0.40161249E+003  0.37945073E+004  0.15239808E+007  0.12696265E+006  0.72889979E+000  0.93180011E+000
 0.59500000E+003  0.39899132E+003  0.38020887E+004  0.15451266E+007  0.12480299E+006  0.73901352E+000  0.93501920E+000
 0.59600000E+003  0.39630466E+003  0.38096852E+004  0.15665017E+007  0.12258526E+006  0.74923694E+000  0.93820664E+000
 0.59700000E+003  0.39354750E+003  0.38172968E+004  0.15881080E+007  0.12030511E+006  0.75957097E+000  0.94136264E+000
 0.59800000E+003  0.39071414E+003  0.38249235E+004  0.16099476E+007  0.11795765E+006  0.77001656E+000  0.94448740E+000
 0.59900000E+003  0.38779815E+003  0.38325652E+004  0.16320225E+007  0.11553729E+006  0.78057466E+000  0.94758113E+000
 0.60000000E+003  0.38479215E+003  0.38402221E+004  0.16543345E+007  0.11303770E+006  0.79124623E+000  0.95064405E+000
 0.60100000E+003  0.38168762E+003  0.38478940E+004  0.16768858E+007  0.11045156E+006  0.80203223E+000  0.95367637E+000
 0.60200000E+003  0.37847467E+003  0.38555811E+004  0.16996785E+007  0.10777042E+006  0.81293363E+000  0.95667830E+000
 0.60300000E+003  0.37514171E+003  0.38632832E+004  0.17227144E+007  0.10498437E+006  0.82395142E+000  0.95965008E+000
 0.60400000E+003  0.37167500E+003  0.38710005E+004  0.17459958E+007  0.10208174E+006  0.83508659E+000  0.96259191E+000
 0.60500000E+003  0.36805807E+003  0.38787328E+004  0.17695247E+007  0.99048554E+005  0.84634015E+000  0.96550402E+000
 0.60600000E+003  0.36427090E+003  0.38864802E+004  0.17933032E+007  0.95867919E+005  0.85771308E+000  0.96838664E+000
 0.60700000E+003  0.36028879E+003  0.38942427E+004  0.18173334E+007  0.92519065E+005  0.86920643E+000  0.97124000E+000
 0.60800000E+003  0.35608069E+003  0.39020203E+004  0.18416175E+007  0.88976009E+005  0.88082121E+000  0.97406431E+000
 0.60900000E+003  0.35160671E+003  0.39098130E+004  0.18661577E+007  0.85205543E+005  0.89255845E+000  0.97685982E+000
 0.61000000E+003  0.34681421E+003  0.39176208E+004  0.18909561E+007  0.81164120E+005  0.90441921E+000  0.97962675E+000
 0.61100000E+003  0.34163144E+003  0.39254436E+004  0.19160150E+007  0.76792775E+005  0.91640453E+000  0.98236533E+000
 0.61200000E+003  0.33595638E+003  0.39332816E+004  0.19413365E+007  0.72008355E+005  0.92851549E+000  0.98507579E+000
 0.61300000E+003  0.32963582E+003  0.39411347E+004  0.19669230E+007  0.66687150E+005  0.94075315E+000  0.98775837E+000
 0.61400000E+003  0.32242137E+003  0.39490028E+004  0.19927766E+007  0.60630983E+005  0.95311859E+000  0.99041330E+000
 0.61500000E+003  0.31386224E+003  0.39568861E+004  0.20188997E+007  0.53485642E+005  0.96561291E+000  0.99304082E+000
 0.61600000E+003  0.30297089E+003  0.39647844E+004  0.20452945E+007  0.44491713E+005  0.97823722E+000  0.99564115E+000
 0.61700000E+003  0.28651653E+003  0.39726978E+004  0.20719635E+007  0.31255111E+005  0.99099262E+000  0.99821454E+000
 0.61770000E+003  0.23828194E+003  0.39782462E+004  0.20907961E+007  0.23594293E+002  0.10000000E+001  0.10000000E+001
 0.61870000E+003  0.23828194E+003  0.39861853E+004  0.21179364E+007  0.23594293E+002 NaN NaN
 0.61970000E+003  0.23828194E+003  0.39941395E+004  0.21453571E+007  0.23594293E+002 NaN NaN
 0.62070000E+003  0.23828194E+003  0.40021087E+004  0.21730608E+007  0.23594293E+002 NaN NaN
 0.62170000E+003  0.23828194E+003  0.40100931E+004  0.22010498E+007  0.23594293E+002 NaN NaN
 0.62270000E+003  0.23828194E+003  0.40180925E+004  0.22293265E+007  0.23594293E+002 NaN NaN
 0.62370000E+003  0.23828194E+003  0.40261071E+004  0.22578935E+007  0.23594293E+002 NaN NaN
 0.62470000E+003  0.23828194E+003  0.40341367E+004  0.22867531E+007  0.23594293E+002 NaN NaN
 0.62570000E+003  0.23828194E+003  0.40421815E+004  0.23159081E+007  0.23594293E+002 NaN NaN
 0.62670000E+003  0.23828194E+003  0.40502413E+004  0.23453608E+007  0.23594293E+002 NaN NaN
 0.62770000E+003  0.23828194E+003  0.40583162E+004  0.23751139E+007  0.23594293E+002 NaN NaN
 0.62870000E+003  0.23828194E+003  0.40664062E+004  0.24051699E+007  0.23594293E+002 NaN NaN
 0.62970000E+003  0.23828194E+003  0.40745113E+004  0.24355315E+007  0.23594293E+002 NaN NaN
 0.63070000E+003  0.23828194E+003  0.40826315E+004  0.24662014E+007  0.23594293E+002 NaN NaN
 0.63170000E+003  0.23828194E+003  0.40907668E+004  0.24971820E+007  0.23594293E+002 NaN NaN
 0.63270000E+003  0.23828194E+003  0.40989172E+004  0.25284762E+007  0.23594293E+002 NaN NaN
 0.63370000E+003  0.23828194E+003  0.41070826E+004  0.25600867E+007  0.23594293E+002 NaN NaN
 0.63470000E+003  0.23828194E+003  0.41152632E+004  0.25920163E+007  0.23594293E+002 NaN NaN
 0.63570000E+003  0.23828194E+003  0.41234588E+004  0.26242675E+007  0.23594293E+002 NaN NaN
 0.63670000E+003  0.23828194E+003  0.41316696E+004  0.26568434E+007  0.23594293E+002 NaN NaN
 0.63770000E+003  0.23828194E+003  0.41398954E+004  0.26897466E+007  0.23594293E+002 NaN NaN
 0.63870000E+003  0.23828194E+003  0.41481364E+004  0.27229801E+007  0.23594293E+002 NaN NaN
 0.63970000E+003  0.23828194E+003  0.41563924E+004  0.27565467E+007  0.23594293E+002 NaN NaN
 0.64070000E+003  0.23828194E+003  0.41646635E+004  0.27904493E+007  0.23594293E+002 NaN NaN
 0.64170000E+003  0.23828194E+003  0.41729497E+004  0.28246909E+007  0.23594293E+002 NaN NaN
 0.64270000E+003  0.23828194E+003  0.41812510E+004  0.28592744E+007  0.23594293E+002 NaN NaN
 0.64370000E+003  0.23828194E+003  0.41895674E+004  0.28942027E+007  0.23594293E+002 NaN NaN
 0.64470000E+003  0.23828194E+003  0.41978989E+004  0.29294790E+007  0.23594293E+002 NaN NaN
 0.64570000E+003  0.23828194E+003  0.42062454E+004  0.29651062E+007  0.23594293E+002 NaN NaN
 0.64670000E+003  0.23828194E+003  0.42146071E+004  0.30010874E+007  0.23594293E+002 NaN NaN
 0.64770000E+003  0.23828194E+003  0.42229839E+004  0.30374258E+007  0.23594293E+002 NaN NaN
 0.64870000E+003  0.23828194E+003  0.42313757E+004  0.30741244E+007  0.23594293E+002 NaN NaN
 0.64970000E+003  0.23828194E+003  0.42397827E+004  0.31111864E+007  0.23594293E+002 NaN NaN
 0.65070000E+003  0.23828194E+003  0.42482047E+004  0.31486151E+007  0.23594293E+002 NaN NaN
 0.65170000E+003  0.23828194E+003  0.42566418E+004  0.31864137E+007  0.23594293E+002 NaN NaN
 0.65270000E+003  0.23828194E+003  0.42650941E+004  0.32245853E+007  0.23594293E+002 NaN NaN
 0.65370000E+003  0.23828194E+003  0.42735614E+004  0.32631334E+007  0.23594293E+002 NaN NaN
 0.65470000E+003  0.23828194E+003  0.42820438E+004  0.33020612E+007  0.23594293E+002 NaN NaN
 0.65570000E+003  0.23828194E+003  0.42905413E+004  0.33413721E+007  0.23594293E+002 NaN NaN
 0.65670000E+003  0.23828194E+003  0.42990539E+004  0.33810695E+007  0.23594293E+002 NaN NaN
 0.65770000E+003  0.23828194E+003  0.43075815E+004  0.34211567E+007  0.23594293E+002 NaN NaN
 0.65870000E+003  0.23828194E+003  0.43161243E+004  0.34616374E+007  0.23594293E+002 NaN NaN
 0.65970000E+003  0.23828194E+003  0.43246822E+004  0.35025149E+007  0.23594293E+002 NaN NaN
 0.66070000E+003  0.23828194E+003  0.43332551E+004  0.35437928E+007  0.23594293E+002 NaN NaN
 0.66170000E+003  0.23828194E+003  0.43418432E+004  0.35854746E+007  0.23594293E+002 NaN NaN
 0.66270000E+003  0.23828194E+003  0.43504463E+004  0.36275640E+007  0.23594293E+002 NaN NaN
 0.66370000E+003  0.23828194E+003  0.43590646E+004  0.36700646E+007  0.23594293E+002 NaN NaN
 0.66470000E+003  0.23828194E+003  0.43676979E+004  0.37129801E+007  0.23594293E+002 NaN NaN
 0.66570000E+003  0.23828194E+003  0.43763463E+004  0.37563141E+007  0.23594293E+002 NaN NaN
 0.66670000E+003  0.23828194E+003  0.43850098E+004  0.38000704E+007  0.23594293E+002 NaN NaN
 0.66770000E+003  0.23828194E+003  0.43936884E+004  0.38442529E+007  0.23594293E+002 NaN NaN
